-0.06207200572599357, -0.5725837052823203, -0.29976293657123476, -0.6324916537363839, a
-0.06207200572599357, -0.5725837052823203, -0.22927751208660443, -0.6628907076527712, a
-0.06207200572599357, -0.5725837052823203, -0.21220408934868304, -0.5521396757027774, a
-0.06207200572599357, -0.5725837052823203, -0.327521689172495, -0.60078055304419, a
-0.06207200572599357, -0.5725837052823203, -0.298587696327571, -0.47447431133778234, a
-0.06207200572599357, -0.5725837052823203, -0.25331957323089666, -0.5984706614921765, a
-0.06207200572599357, -0.5725837052823203, -0.16128350336536898, -0.5407750031072066, a
-0.06207200572599357, -0.5725837052823203, -0.29198439281683486, -0.5529671826687764, a
-0.06207200572599357, -0.5725837052823203, -0.33536349400042526, -0.5126796747689057, a
-0.06207200572599357, -0.5725837052823203, -0.15093488205541764, -0.5994245493030154, a
-0.06207200572599357, -0.5725837052823203, -0.2650781859234701, -0.5056383650603208, a
-0.06207200572599357, -0.5725837052823203, -0.1761531570750944, -0.6538345833113995, a
-0.06207200572599357, -0.5725837052823203, -0.21503932546765825, -0.49610426332462504, a
-0.06207200572599357, -0.5725837052823203, -0.14710677506493888, -0.36887078901986087, a
-0.06207200572599357, -0.5725837052823203, -0.2013808596900044, -0.6128884977377774, a
-0.06207200572599357, -0.5725837052823203, -0.13000563453730007, -0.41211825623131204, a
-0.06207200572599357, -0.5725837052823203, -0.35159796953565775, -0.5619666970264666, a
-0.06207200572599357, -0.5725837052823203, -0.17911737921649815, -0.3903520065443931, a
-0.06207200572599357, -0.5725837052823203, 0.6056608108314245, -0.5783360032815553, a
-0.2873406282698451, -0.6697119513202949, -0.29976293657123476, -0.6324916537363839, a
-0.2873406282698451, -0.6697119513202949, -0.22927751208660443, -0.6628907076527712, a
-0.2873406282698451, -0.6697119513202949, -0.21220408934868304, -0.5521396757027774, a
-0.2873406282698451, -0.6697119513202949, -0.327521689172495, -0.60078055304419, a
-0.2873406282698451, -0.6697119513202949, -0.298587696327571, -0.47447431133778234, a
-0.2873406282698451, -0.6697119513202949, -0.25331957323089666, -0.5984706614921765, a
-0.2873406282698451, -0.6697119513202949, -0.16128350336536898, -0.5407750031072066, a
-0.2873406282698451, -0.6697119513202949, -0.29198439281683486, -0.5529671826687764, a
-0.2873406282698451, -0.6697119513202949, -0.33536349400042526, -0.5126796747689057, a
-0.2873406282698451, -0.6697119513202949, -0.15093488205541764, -0.5994245493030154, a
-0.2873406282698451, -0.6697119513202949, -0.2650781859234701, -0.5056383650603208, a
-0.2873406282698451, -0.6697119513202949, -0.1761531570750944, -0.6538345833113995, a
-0.2873406282698451, -0.6697119513202949, -0.21503932546765825, -0.49610426332462504, a
-0.2873406282698451, -0.6697119513202949, -0.14710677506493888, -0.36887078901986087, a
-0.2873406282698451, -0.6697119513202949, -0.2013808596900044, -0.6128884977377774, a
-0.2873406282698451, -0.6697119513202949, -0.13000563453730007, -0.41211825623131204, a
-0.2873406282698451, -0.6697119513202949, -0.35159796953565775, -0.5619666970264666, a
-0.2873406282698451, -0.6697119513202949, -0.17911737921649815, -0.3903520065443931, a
-0.29976293657123476, -0.6324916537363839, -0.22927751208660443, -0.6628907076527712, a
-0.29976293657123476, -0.6324916537363839, -0.21220408934868304, -0.5521396757027774, a
-0.29976293657123476, -0.6324916537363839, -0.327521689172495, -0.60078055304419, a
-0.29976293657123476, -0.6324916537363839, -0.298587696327571, -0.47447431133778234, a
-0.29976293657123476, -0.6324916537363839, -0.25331957323089666, -0.5984706614921765, a
-0.29976293657123476, -0.6324916537363839, -0.16128350336536898, -0.5407750031072066, a
-0.29976293657123476, -0.6324916537363839, -0.29198439281683486, -0.5529671826687764, a
-0.29976293657123476, -0.6324916537363839, -0.33536349400042526, -0.5126796747689057, a
-0.29976293657123476, -0.6324916537363839, -0.15093488205541764, -0.5994245493030154, a
-0.29976293657123476, -0.6324916537363839, -0.2650781859234701, -0.5056383650603208, a
-0.29976293657123476, -0.6324916537363839, -0.1761531570750944, -0.6538345833113995, a
-0.29976293657123476, -0.6324916537363839, -0.21503932546765825, -0.49610426332462504, a
-0.29976293657123476, -0.6324916537363839, -0.14710677506493888, -0.36887078901986087, a
-0.29976293657123476, -0.6324916537363839, -0.2013808596900044, -0.6128884977377774, a
-0.29976293657123476, -0.6324916537363839, -0.13000563453730007, -0.41211825623131204, a
-0.29976293657123476, -0.6324916537363839, -0.35159796953565775, -0.5619666970264666, a
-0.29976293657123476, -0.6324916537363839, -0.17911737921649815, -0.3903520065443931, a
-0.22927751208660443, -0.6628907076527712, -0.21220408934868304, -0.5521396757027774, a
-0.22927751208660443, -0.6628907076527712, -0.327521689172495, -0.60078055304419, a
-0.22927751208660443, -0.6628907076527712, -0.298587696327571, -0.47447431133778234, a
-0.22927751208660443, -0.6628907076527712, -0.25331957323089666, -0.5984706614921765, a
-0.22927751208660443, -0.6628907076527712, -0.16128350336536898, -0.5407750031072066, a
-0.22927751208660443, -0.6628907076527712, -0.29198439281683486, -0.5529671826687764, a
-0.22927751208660443, -0.6628907076527712, -0.33536349400042526, -0.5126796747689057, a
-0.22927751208660443, -0.6628907076527712, -0.15093488205541764, -0.5994245493030154, a
-0.22927751208660443, -0.6628907076527712, -0.2650781859234701, -0.5056383650603208, a
-0.22927751208660443, -0.6628907076527712, -0.1761531570750944, -0.6538345833113995, a
-0.22927751208660443, -0.6628907076527712, -0.21503932546765825, -0.49610426332462504, a
-0.22927751208660443, -0.6628907076527712, -0.14710677506493888, -0.36887078901986087, a
-0.22927751208660443, -0.6628907076527712, -0.2013808596900044, -0.6128884977377774, a
-0.22927751208660443, -0.6628907076527712, -0.13000563453730007, -0.41211825623131204, a
-0.22927751208660443, -0.6628907076527712, -0.35159796953565775, -0.5619666970264666, a
-0.22927751208660443, -0.6628907076527712, -0.17911737921649815, -0.3903520065443931, a
-0.21220408934868304, -0.5521396757027774, -0.327521689172495, -0.60078055304419, a
-0.21220408934868304, -0.5521396757027774, -0.298587696327571, -0.47447431133778234, a
-0.21220408934868304, -0.5521396757027774, -0.25331957323089666, -0.5984706614921765, a
-0.21220408934868304, -0.5521396757027774, -0.16128350336536898, -0.5407750031072066, a
-0.21220408934868304, -0.5521396757027774, -0.29198439281683486, -0.5529671826687764, a
-0.21220408934868304, -0.5521396757027774, -0.33536349400042526, -0.5126796747689057, a
-0.21220408934868304, -0.5521396757027774, -0.15093488205541764, -0.5994245493030154, a
-0.21220408934868304, -0.5521396757027774, -0.2650781859234701, -0.5056383650603208, a
-0.21220408934868304, -0.5521396757027774, -0.1761531570750944, -0.6538345833113995, a
-0.21220408934868304, -0.5521396757027774, -0.21503932546765825, -0.49610426332462504, a
-0.21220408934868304, -0.5521396757027774, -0.14710677506493888, -0.36887078901986087, a
-0.21220408934868304, -0.5521396757027774, -0.2013808596900044, -0.6128884977377774, a
-0.21220408934868304, -0.5521396757027774, -0.13000563453730007, -0.41211825623131204, a
-0.21220408934868304, -0.5521396757027774, -0.35159796953565775, -0.5619666970264666, a
-0.21220408934868304, -0.5521396757027774, -0.17911737921649815, -0.3903520065443931, a
-0.327521689172495, -0.60078055304419, -0.298587696327571, -0.47447431133778234, a
-0.327521689172495, -0.60078055304419, -0.25331957323089666, -0.5984706614921765, a
-0.327521689172495, -0.60078055304419, -0.16128350336536898, -0.5407750031072066, a
-0.327521689172495, -0.60078055304419, -0.29198439281683486, -0.5529671826687764, a
-0.327521689172495, -0.60078055304419, -0.33536349400042526, -0.5126796747689057, a
-0.327521689172495, -0.60078055304419, -0.15093488205541764, -0.5994245493030154, a
-0.327521689172495, -0.60078055304419, -0.2650781859234701, -0.5056383650603208, a
-0.327521689172495, -0.60078055304419, -0.1761531570750944, -0.6538345833113995, a
-0.327521689172495, -0.60078055304419, -0.21503932546765825, -0.49610426332462504, a
-0.327521689172495, -0.60078055304419, -0.14710677506493888, -0.36887078901986087, a
-0.327521689172495, -0.60078055304419, -0.2013808596900044, -0.6128884977377774, a
-0.327521689172495, -0.60078055304419, -0.13000563453730007, -0.41211825623131204, a
-0.327521689172495, -0.60078055304419, -0.35159796953565775, -0.5619666970264666, a
-0.327521689172495, -0.60078055304419, -0.17911737921649815, -0.3903520065443931, a
-0.298587696327571, -0.47447431133778234, -0.25331957323089666, -0.5984706614921765, a
-0.298587696327571, -0.47447431133778234, -0.16128350336536898, -0.5407750031072066, a
-0.298587696327571, -0.47447431133778234, -0.29198439281683486, -0.5529671826687764, a
-0.298587696327571, -0.47447431133778234, -0.33536349400042526, -0.5126796747689057, a
-0.298587696327571, -0.47447431133778234, -0.15093488205541764, -0.5994245493030154, a
-0.298587696327571, -0.47447431133778234, -0.2650781859234701, -0.5056383650603208, a
-0.298587696327571, -0.47447431133778234, -0.1761531570750944, -0.6538345833113995, a
-0.298587696327571, -0.47447431133778234, -0.21503932546765825, -0.49610426332462504, a
-0.298587696327571, -0.47447431133778234, -0.14710677506493888, -0.36887078901986087, a
-0.298587696327571, -0.47447431133778234, -0.2013808596900044, -0.6128884977377774, a
-0.298587696327571, -0.47447431133778234, -0.13000563453730007, -0.41211825623131204, a
-0.298587696327571, -0.47447431133778234, -0.35159796953565775, -0.5619666970264666, a
-0.298587696327571, -0.47447431133778234, -0.17911737921649815, -0.3903520065443931, a
-0.25331957323089666, -0.5984706614921765, -0.16128350336536898, -0.5407750031072066, a
-0.25331957323089666, -0.5984706614921765, -0.29198439281683486, -0.5529671826687764, a
-0.25331957323089666, -0.5984706614921765, -0.33536349400042526, -0.5126796747689057, a
-0.25331957323089666, -0.5984706614921765, -0.15093488205541764, -0.5994245493030154, a
-0.25331957323089666, -0.5984706614921765, -0.2650781859234701, -0.5056383650603208, a
-0.25331957323089666, -0.5984706614921765, -0.1761531570750944, -0.6538345833113995, a
-0.25331957323089666, -0.5984706614921765, -0.21503932546765825, -0.49610426332462504, a
-0.25331957323089666, -0.5984706614921765, -0.14710677506493888, -0.36887078901986087, a
-0.25331957323089666, -0.5984706614921765, -0.2013808596900044, -0.6128884977377774, a
-0.25331957323089666, -0.5984706614921765, -0.13000563453730007, -0.41211825623131204, a
-0.25331957323089666, -0.5984706614921765, -0.35159796953565775, -0.5619666970264666, a
-0.25331957323089666, -0.5984706614921765, -0.17911737921649815, -0.3903520065443931, a
-0.16128350336536898, -0.5407750031072066, -0.29198439281683486, -0.5529671826687764, a
-0.16128350336536898, -0.5407750031072066, -0.33536349400042526, -0.5126796747689057, a
-0.16128350336536898, -0.5407750031072066, -0.15093488205541764, -0.5994245493030154, a
-0.16128350336536898, -0.5407750031072066, -0.2650781859234701, -0.5056383650603208, a
-0.16128350336536898, -0.5407750031072066, -0.1761531570750944, -0.6538345833113995, a
-0.16128350336536898, -0.5407750031072066, -0.21503932546765825, -0.49610426332462504, a
-0.16128350336536898, -0.5407750031072066, -0.14710677506493888, -0.36887078901986087, a
-0.16128350336536898, -0.5407750031072066, -0.2013808596900044, -0.6128884977377774, a
-0.16128350336536898, -0.5407750031072066, -0.13000563453730007, -0.41211825623131204, a
-0.16128350336536898, -0.5407750031072066, -0.35159796953565775, -0.5619666970264666, a
-0.16128350336536898, -0.5407750031072066, -0.17911737921649815, -0.3903520065443931, a
-0.29198439281683486, -0.5529671826687764, -0.33536349400042526, -0.5126796747689057, a
-0.29198439281683486, -0.5529671826687764, -0.15093488205541764, -0.5994245493030154, a
-0.29198439281683486, -0.5529671826687764, -0.2650781859234701, -0.5056383650603208, a
-0.29198439281683486, -0.5529671826687764, -0.1761531570750944, -0.6538345833113995, a
-0.29198439281683486, -0.5529671826687764, -0.21503932546765825, -0.49610426332462504, a
-0.29198439281683486, -0.5529671826687764, -0.14710677506493888, -0.36887078901986087, a
-0.29198439281683486, -0.5529671826687764, -0.2013808596900044, -0.6128884977377774, a
-0.29198439281683486, -0.5529671826687764, -0.13000563453730007, -0.41211825623131204, a
-0.29198439281683486, -0.5529671826687764, -0.35159796953565775, -0.5619666970264666, a
-0.29198439281683486, -0.5529671826687764, -0.17911737921649815, -0.3903520065443931, a
-0.33536349400042526, -0.5126796747689057, -0.15093488205541764, -0.5994245493030154, a
-0.33536349400042526, -0.5126796747689057, -0.2650781859234701, -0.5056383650603208, a
-0.33536349400042526, -0.5126796747689057, -0.1761531570750944, -0.6538345833113995, a
-0.33536349400042526, -0.5126796747689057, -0.21503932546765825, -0.49610426332462504, a
-0.33536349400042526, -0.5126796747689057, -0.14710677506493888, -0.36887078901986087, a
-0.33536349400042526, -0.5126796747689057, -0.2013808596900044, -0.6128884977377774, a
-0.33536349400042526, -0.5126796747689057, -0.13000563453730007, -0.41211825623131204, a
-0.33536349400042526, -0.5126796747689057, -0.35159796953565775, -0.5619666970264666, a
-0.33536349400042526, -0.5126796747689057, -0.17911737921649815, -0.3903520065443931, a
-0.15093488205541764, -0.5994245493030154, -0.2650781859234701, -0.5056383650603208, a
-0.15093488205541764, -0.5994245493030154, -0.1761531570750944, -0.6538345833113995, a
-0.15093488205541764, -0.5994245493030154, -0.21503932546765825, -0.49610426332462504, a
-0.15093488205541764, -0.5994245493030154, -0.14710677506493888, -0.36887078901986087, a
-0.15093488205541764, -0.5994245493030154, -0.2013808596900044, -0.6128884977377774, a
-0.15093488205541764, -0.5994245493030154, -0.13000563453730007, -0.41211825623131204, a
-0.15093488205541764, -0.5994245493030154, -0.35159796953565775, -0.5619666970264666, a
-0.15093488205541764, -0.5994245493030154, -0.17911737921649815, -0.3903520065443931, a
-0.2650781859234701, -0.5056383650603208, -0.1761531570750944, -0.6538345833113995, a
-0.2650781859234701, -0.5056383650603208, -0.21503932546765825, -0.49610426332462504, a
-0.2650781859234701, -0.5056383650603208, -0.14710677506493888, -0.36887078901986087, a
-0.2650781859234701, -0.5056383650603208, -0.2013808596900044, -0.6128884977377774, a
-0.2650781859234701, -0.5056383650603208, -0.13000563453730007, -0.41211825623131204, a
-0.2650781859234701, -0.5056383650603208, -0.35159796953565775, -0.5619666970264666, a
-0.2650781859234701, -0.5056383650603208, -0.17911737921649815, -0.3903520065443931, a
-0.1761531570750944, -0.6538345833113995, -0.21503932546765825, -0.49610426332462504, a
-0.1761531570750944, -0.6538345833113995, -0.14710677506493888, -0.36887078901986087, a
-0.1761531570750944, -0.6538345833113995, -0.2013808596900044, -0.6128884977377774, a
-0.1761531570750944, -0.6538345833113995, -0.13000563453730007, -0.41211825623131204, a
-0.1761531570750944, -0.6538345833113995, -0.35159796953565775, -0.5619666970264666, a
-0.1761531570750944, -0.6538345833113995, -0.17911737921649815, -0.3903520065443931, a
-0.21503932546765825, -0.49610426332462504, -0.14710677506493888, -0.36887078901986087, a
-0.21503932546765825, -0.49610426332462504, -0.2013808596900044, -0.6128884977377774, a
-0.21503932546765825, -0.49610426332462504, -0.13000563453730007, -0.41211825623131204, a
-0.21503932546765825, -0.49610426332462504, -0.35159796953565775, -0.5619666970264666, a
-0.21503932546765825, -0.49610426332462504, -0.17911737921649815, -0.3903520065443931, a
-0.14710677506493888, -0.36887078901986087, -0.2013808596900044, -0.6128884977377774, a
-0.14710677506493888, -0.36887078901986087, -0.13000563453730007, -0.41211825623131204, a
-0.14710677506493888, -0.36887078901986087, -0.35159796953565775, -0.5619666970264666, a
-0.14710677506493888, -0.36887078901986087, -0.17911737921649815, -0.3903520065443931, a
-0.14710677506493888, -0.36887078901986087, 0.25401610008778425, 0.39922723937923577, b
-0.2013808596900044, -0.6128884977377774, -0.13000563453730007, -0.41211825623131204, a
-0.2013808596900044, -0.6128884977377774, -0.35159796953565775, -0.5619666970264666, a
-0.2013808596900044, -0.6128884977377774, -0.17911737921649815, -0.3903520065443931, a
-0.13000563453730007, -0.41211825623131204, -0.35159796953565775, -0.5619666970264666, a
-0.13000563453730007, -0.41211825623131204, -0.17911737921649815, -0.3903520065443931, a
-0.13000563453730007, -0.41211825623131204, 0.22266611359805027, 0.32109586227824105, b
-0.35159796953565775, -0.5619666970264666, -0.17911737921649815, -0.3903520065443931, a
-0.17911737921649815, -0.3903520065443931, 0.22266611359805027, 0.32109586227824105, a
0.22266611359805027, 0.32109586227824105, 0.2527683308741494, 0.6026808811411911, a
0.22266611359805027, 0.32109586227824105, 0.41568169884833095, 0.6201035244363309, a
0.22266611359805027, 0.32109586227824105, 0.3418819028763746, 0.6276947485467694, a
0.22266611359805027, 0.32109586227824105, 0.37815819979786475, 0.5785799151059445, a
0.22266611359805027, 0.32109586227824105, 0.2796469851941739, 0.6393656173524874, a
0.22266611359805027, 0.32109586227824105, 0.450906627373979, 0.5991664233481724, a
0.22266611359805027, 0.32109586227824105, 0.4053345670956664, 0.48325184190241377, a
0.22266611359805027, 0.32109586227824105, 0.26133905435444216, 0.5488900899037613, a
0.22266611359805027, 0.32109586227824105, 0.25401610008778425, 0.39922723937923577, a
0.22266611359805027, 0.32109586227824105, 0.29974353782664087, 0.5113801542226702, a
0.22266611359805027, 0.32109586227824105, 0.4216102196580801, 0.5234270450376366, a
0.22266611359805027, 0.32109586227824105, 0.31223860830881933, 0.671146335307751, a
0.22266611359805027, 0.32109586227824105, 0.45066332836407924, 0.5521292891527368, a
0.22266611359805027, 0.32109586227824105, 0.310120403659271, 0.5784775565426917, a
0.22266611359805027, 0.32109586227824105, 0.3503167709873248, 0.4812519857603532, a
0.22266611359805027, 0.32109586227824105, 0.3573392806486074, 0.5318518097739906, a
0.22266611359805027, 0.32109586227824105, 0.3894302265357516, 0.6524865860849279, a
0.22266611359805027, 0.32109586227824105, 0.14741680328812906, 0.5776760886924828, a
0.3807495295258301, 0.7042683737534379, 0.2527683308741494, 0.6026808811411911, a
0.3807495295258301, 0.7042683737534379, 0.41568169884833095, 0.6201035244363309, a
0.3807495295258301, 0.7042683737534379, 0.3418819028763746, 0.6276947485467694, a
0.3807495295258301, 0.7042683737534379, 0.37815819979786475, 0.5785799151059445, a
0.3807495295258301, 0.7042683737534379, 0.2796469851941739, 0.6393656173524874, a
0.3807495295258301, 0.7042683737534379, 0.450906627373979, 0.5991664233481724, a
0.3807495295258301, 0.7042683737534379, 0.4053345670956664, 0.48325184190241377, a
0.3807495295258301, 0.7042683737534379, 0.26133905435444216, 0.5488900899037613, a
0.3807495295258301, 0.7042683737534379, 0.25401610008778425, 0.39922723937923577, a
0.3807495295258301, 0.7042683737534379, 0.29974353782664087, 0.5113801542226702, a
0.3807495295258301, 0.7042683737534379, 0.4216102196580801, 0.5234270450376366, a
0.3807495295258301, 0.7042683737534379, 0.31223860830881933, 0.671146335307751, a
0.3807495295258301, 0.7042683737534379, 0.45066332836407924, 0.5521292891527368, a
0.3807495295258301, 0.7042683737534379, 0.310120403659271, 0.5784775565426917, a
0.3807495295258301, 0.7042683737534379, 0.3503167709873248, 0.4812519857603532, a
0.3807495295258301, 0.7042683737534379, 0.3573392806486074, 0.5318518097739906, a
0.3807495295258301, 0.7042683737534379, 0.3894302265357516, 0.6524865860849279, a
0.3807495295258301, 0.7042683737534379, 0.14741680328812906, 0.5776760886924828, a
0.2527683308741494, 0.6026808811411911, 0.41568169884833095, 0.6201035244363309, a
0.2527683308741494, 0.6026808811411911, 0.3418819028763746, 0.6276947485467694, a
0.2527683308741494, 0.6026808811411911, 0.37815819979786475, 0.5785799151059445, a
0.2527683308741494, 0.6026808811411911, 0.2796469851941739, 0.6393656173524874, a
0.2527683308741494, 0.6026808811411911, 0.450906627373979, 0.5991664233481724, a
0.2527683308741494, 0.6026808811411911, 0.4053345670956664, 0.48325184190241377, a
0.2527683308741494, 0.6026808811411911, 0.26133905435444216, 0.5488900899037613, a
0.2527683308741494, 0.6026808811411911, 0.25401610008778425, 0.39922723937923577, a
0.2527683308741494, 0.6026808811411911, 0.29974353782664087, 0.5113801542226702, a
0.2527683308741494, 0.6026808811411911, 0.4216102196580801, 0.5234270450376366, a
0.2527683308741494, 0.6026808811411911, 0.31223860830881933, 0.671146335307751, a
0.2527683308741494, 0.6026808811411911, 0.45066332836407924, 0.5521292891527368, a
0.2527683308741494, 0.6026808811411911, 0.310120403659271, 0.5784775565426917, a
0.2527683308741494, 0.6026808811411911, 0.3503167709873248, 0.4812519857603532, a
0.2527683308741494, 0.6026808811411911, 0.3573392806486074, 0.5318518097739906, a
0.2527683308741494, 0.6026808811411911, 0.3894302265357516, 0.6524865860849279, a
0.2527683308741494, 0.6026808811411911, 0.14741680328812906, 0.5776760886924828, a
0.41568169884833095, 0.6201035244363309, 0.3418819028763746, 0.6276947485467694, a
0.41568169884833095, 0.6201035244363309, 0.37815819979786475, 0.5785799151059445, a
0.41568169884833095, 0.6201035244363309, 0.2796469851941739, 0.6393656173524874, a
0.41568169884833095, 0.6201035244363309, 0.450906627373979, 0.5991664233481724, a
0.41568169884833095, 0.6201035244363309, 0.4053345670956664, 0.48325184190241377, a
0.41568169884833095, 0.6201035244363309, 0.26133905435444216, 0.5488900899037613, a
0.41568169884833095, 0.6201035244363309, 0.25401610008778425, 0.39922723937923577, a
0.41568169884833095, 0.6201035244363309, 0.29974353782664087, 0.5113801542226702, a
0.41568169884833095, 0.6201035244363309, 0.4216102196580801, 0.5234270450376366, a
0.41568169884833095, 0.6201035244363309, 0.31223860830881933, 0.671146335307751, a
0.41568169884833095, 0.6201035244363309, 0.45066332836407924, 0.5521292891527368, a
0.41568169884833095, 0.6201035244363309, 0.310120403659271, 0.5784775565426917, a
0.41568169884833095, 0.6201035244363309, 0.3503167709873248, 0.4812519857603532, a
0.41568169884833095, 0.6201035244363309, 0.3573392806486074, 0.5318518097739906, a
0.41568169884833095, 0.6201035244363309, 0.3894302265357516, 0.6524865860849279, a
0.41568169884833095, 0.6201035244363309, 0.14741680328812906, 0.5776760886924828, a
0.3418819028763746, 0.6276947485467694, 0.37815819979786475, 0.5785799151059445, a
0.3418819028763746, 0.6276947485467694, 0.2796469851941739, 0.6393656173524874, a
0.3418819028763746, 0.6276947485467694, 0.450906627373979, 0.5991664233481724, a
0.3418819028763746, 0.6276947485467694, 0.4053345670956664, 0.48325184190241377, a
0.3418819028763746, 0.6276947485467694, 0.26133905435444216, 0.5488900899037613, a
0.3418819028763746, 0.6276947485467694, 0.25401610008778425, 0.39922723937923577, a
0.3418819028763746, 0.6276947485467694, 0.29974353782664087, 0.5113801542226702, a
0.3418819028763746, 0.6276947485467694, 0.4216102196580801, 0.5234270450376366, a
0.3418819028763746, 0.6276947485467694, 0.31223860830881933, 0.671146335307751, a
0.3418819028763746, 0.6276947485467694, 0.45066332836407924, 0.5521292891527368, a
0.3418819028763746, 0.6276947485467694, 0.310120403659271, 0.5784775565426917, a
0.3418819028763746, 0.6276947485467694, 0.3503167709873248, 0.4812519857603532, a
0.3418819028763746, 0.6276947485467694, 0.3573392806486074, 0.5318518097739906, a
0.3418819028763746, 0.6276947485467694, 0.3894302265357516, 0.6524865860849279, a
0.3418819028763746, 0.6276947485467694, 0.14741680328812906, 0.5776760886924828, a
0.37815819979786475, 0.5785799151059445, 0.2796469851941739, 0.6393656173524874, a
0.37815819979786475, 0.5785799151059445, 0.450906627373979, 0.5991664233481724, a
0.37815819979786475, 0.5785799151059445, 0.4053345670956664, 0.48325184190241377, a
0.37815819979786475, 0.5785799151059445, 0.26133905435444216, 0.5488900899037613, a
0.37815819979786475, 0.5785799151059445, 0.25401610008778425, 0.39922723937923577, a
0.37815819979786475, 0.5785799151059445, 0.29974353782664087, 0.5113801542226702, a
0.37815819979786475, 0.5785799151059445, 0.4216102196580801, 0.5234270450376366, a
0.37815819979786475, 0.5785799151059445, 0.31223860830881933, 0.671146335307751, a
0.37815819979786475, 0.5785799151059445, 0.45066332836407924, 0.5521292891527368, a
0.37815819979786475, 0.5785799151059445, 0.310120403659271, 0.5784775565426917, a
0.37815819979786475, 0.5785799151059445, 0.3503167709873248, 0.4812519857603532, a
0.37815819979786475, 0.5785799151059445, 0.3573392806486074, 0.5318518097739906, a
0.37815819979786475, 0.5785799151059445, 0.3894302265357516, 0.6524865860849279, a
0.37815819979786475, 0.5785799151059445, 0.14741680328812906, 0.5776760886924828, a
0.2796469851941739, 0.6393656173524874, 0.450906627373979, 0.5991664233481724, a
0.2796469851941739, 0.6393656173524874, 0.4053345670956664, 0.48325184190241377, a
0.2796469851941739, 0.6393656173524874, 0.26133905435444216, 0.5488900899037613, a
0.2796469851941739, 0.6393656173524874, 0.25401610008778425, 0.39922723937923577, a
0.2796469851941739, 0.6393656173524874, 0.29974353782664087, 0.5113801542226702, a
0.2796469851941739, 0.6393656173524874, 0.4216102196580801, 0.5234270450376366, a
0.2796469851941739, 0.6393656173524874, 0.31223860830881933, 0.671146335307751, a
0.2796469851941739, 0.6393656173524874, 0.45066332836407924, 0.5521292891527368, a
0.2796469851941739, 0.6393656173524874, 0.310120403659271, 0.5784775565426917, a
0.2796469851941739, 0.6393656173524874, 0.3503167709873248, 0.4812519857603532, a
0.2796469851941739, 0.6393656173524874, 0.3573392806486074, 0.5318518097739906, a
0.2796469851941739, 0.6393656173524874, 0.3894302265357516, 0.6524865860849279, a
0.2796469851941739, 0.6393656173524874, 0.14741680328812906, 0.5776760886924828, a
0.450906627373979, 0.5991664233481724, 0.4053345670956664, 0.48325184190241377, a
0.450906627373979, 0.5991664233481724, 0.26133905435444216, 0.5488900899037613, a
0.450906627373979, 0.5991664233481724, 0.25401610008778425, 0.39922723937923577, a
0.450906627373979, 0.5991664233481724, 0.29974353782664087, 0.5113801542226702, a
0.450906627373979, 0.5991664233481724, 0.4216102196580801, 0.5234270450376366, a
0.450906627373979, 0.5991664233481724, 0.31223860830881933, 0.671146335307751, a
0.450906627373979, 0.5991664233481724, 0.45066332836407924, 0.5521292891527368, a
0.450906627373979, 0.5991664233481724, 0.310120403659271, 0.5784775565426917, a
0.450906627373979, 0.5991664233481724, 0.3503167709873248, 0.4812519857603532, a
0.450906627373979, 0.5991664233481724, 0.3573392806486074, 0.5318518097739906, a
0.450906627373979, 0.5991664233481724, 0.3894302265357516, 0.6524865860849279, a
0.450906627373979, 0.5991664233481724, 0.14741680328812906, 0.5776760886924828, a
0.4053345670956664, 0.48325184190241377, 0.26133905435444216, 0.5488900899037613, a
0.4053345670956664, 0.48325184190241377, 0.25401610008778425, 0.39922723937923577, a
0.4053345670956664, 0.48325184190241377, 0.29974353782664087, 0.5113801542226702, a
0.4053345670956664, 0.48325184190241377, 0.4216102196580801, 0.5234270450376366, a
0.4053345670956664, 0.48325184190241377, 0.31223860830881933, 0.671146335307751, a
0.4053345670956664, 0.48325184190241377, 0.45066332836407924, 0.5521292891527368, a
0.4053345670956664, 0.48325184190241377, 0.310120403659271, 0.5784775565426917, a
0.4053345670956664, 0.48325184190241377, 0.3503167709873248, 0.4812519857603532, a
0.4053345670956664, 0.48325184190241377, 0.3573392806486074, 0.5318518097739906, a
0.4053345670956664, 0.48325184190241377, 0.3894302265357516, 0.6524865860849279, a
0.4053345670956664, 0.48325184190241377, 0.14741680328812906, 0.5776760886924828, a
0.26133905435444216, 0.5488900899037613, 0.25401610008778425, 0.39922723937923577, a
0.26133905435444216, 0.5488900899037613, 0.29974353782664087, 0.5113801542226702, a
0.26133905435444216, 0.5488900899037613, 0.4216102196580801, 0.5234270450376366, a
0.26133905435444216, 0.5488900899037613, 0.31223860830881933, 0.671146335307751, a
0.26133905435444216, 0.5488900899037613, 0.45066332836407924, 0.5521292891527368, a
0.26133905435444216, 0.5488900899037613, 0.310120403659271, 0.5784775565426917, a
0.26133905435444216, 0.5488900899037613, 0.3503167709873248, 0.4812519857603532, a
0.26133905435444216, 0.5488900899037613, 0.3573392806486074, 0.5318518097739906, a
0.26133905435444216, 0.5488900899037613, 0.3894302265357516, 0.6524865860849279, a
0.26133905435444216, 0.5488900899037613, 0.14741680328812906, 0.5776760886924828, a
0.25401610008778425, 0.39922723937923577, 0.29974353782664087, 0.5113801542226702, a
0.25401610008778425, 0.39922723937923577, 0.4216102196580801, 0.5234270450376366, a
0.25401610008778425, 0.39922723937923577, 0.31223860830881933, 0.671146335307751, a
0.25401610008778425, 0.39922723937923577, 0.45066332836407924, 0.5521292891527368, a
0.25401610008778425, 0.39922723937923577, 0.310120403659271, 0.5784775565426917, a
0.25401610008778425, 0.39922723937923577, 0.3503167709873248, 0.4812519857603532, a
0.25401610008778425, 0.39922723937923577, 0.3573392806486074, 0.5318518097739906, a
0.25401610008778425, 0.39922723937923577, 0.3894302265357516, 0.6524865860849279, a
0.25401610008778425, 0.39922723937923577, 0.14741680328812906, 0.5776760886924828, a
0.29974353782664087, 0.5113801542226702, 0.4216102196580801, 0.5234270450376366, a
0.29974353782664087, 0.5113801542226702, 0.31223860830881933, 0.671146335307751, a
0.29974353782664087, 0.5113801542226702, 0.45066332836407924, 0.5521292891527368, a
0.29974353782664087, 0.5113801542226702, 0.310120403659271, 0.5784775565426917, a
0.29974353782664087, 0.5113801542226702, 0.3503167709873248, 0.4812519857603532, a
0.29974353782664087, 0.5113801542226702, 0.3573392806486074, 0.5318518097739906, a
0.29974353782664087, 0.5113801542226702, 0.3894302265357516, 0.6524865860849279, a
0.29974353782664087, 0.5113801542226702, 0.14741680328812906, 0.5776760886924828, a
0.4216102196580801, 0.5234270450376366, 0.31223860830881933, 0.671146335307751, a
0.4216102196580801, 0.5234270450376366, 0.45066332836407924, 0.5521292891527368, a
0.4216102196580801, 0.5234270450376366, 0.310120403659271, 0.5784775565426917, a
0.4216102196580801, 0.5234270450376366, 0.3503167709873248, 0.4812519857603532, a
0.4216102196580801, 0.5234270450376366, 0.3573392806486074, 0.5318518097739906, a
0.4216102196580801, 0.5234270450376366, 0.3894302265357516, 0.6524865860849279, a
0.4216102196580801, 0.5234270450376366, 0.14741680328812906, 0.5776760886924828, a
0.31223860830881933, 0.671146335307751, 0.45066332836407924, 0.5521292891527368, a
0.31223860830881933, 0.671146335307751, 0.310120403659271, 0.5784775565426917, a
0.31223860830881933, 0.671146335307751, 0.3503167709873248, 0.4812519857603532, a
0.31223860830881933, 0.671146335307751, 0.3573392806486074, 0.5318518097739906, a
0.31223860830881933, 0.671146335307751, 0.3894302265357516, 0.6524865860849279, a
0.31223860830881933, 0.671146335307751, 0.14741680328812906, 0.5776760886924828, a
0.45066332836407924, 0.5521292891527368, 0.310120403659271, 0.5784775565426917, a
0.45066332836407924, 0.5521292891527368, 0.3503167709873248, 0.4812519857603532, a
0.45066332836407924, 0.5521292891527368, 0.3573392806486074, 0.5318518097739906, a
0.45066332836407924, 0.5521292891527368, 0.3894302265357516, 0.6524865860849279, a
0.45066332836407924, 0.5521292891527368, 0.14741680328812906, 0.5776760886924828, a
0.310120403659271, 0.5784775565426917, 0.3503167709873248, 0.4812519857603532, a
0.310120403659271, 0.5784775565426917, 0.3573392806486074, 0.5318518097739906, a
0.310120403659271, 0.5784775565426917, 0.3894302265357516, 0.6524865860849279, a
0.310120403659271, 0.5784775565426917, 0.14741680328812906, 0.5776760886924828, a
0.3503167709873248, 0.4812519857603532, 0.3573392806486074, 0.5318518097739906, a
0.3503167709873248, 0.4812519857603532, 0.3894302265357516, 0.6524865860849279, a
0.3503167709873248, 0.4812519857603532, 0.14741680328812906, 0.5776760886924828, a
0.3573392806486074, 0.5318518097739906, 0.3894302265357516, 0.6524865860849279, a
0.3573392806486074, 0.5318518097739906, 0.14741680328812906, 0.5776760886924828, a
0.3894302265357516, 0.6524865860849279, 0.14741680328812906, 0.5776760886924828, a
0.14741680328812906, 0.5776760886924828, -0.6741594953528496, 0.5686427616785394, a
-0.6741594953528496, 0.5686427616785394, -0.9178359238346003, 0.5551880100986498, a
-0.6741594953528496, 0.5686427616785394, -0.841092451471168, 0.5559304030584834, a
-0.6741594953528496, 0.5686427616785394, -0.8673103442528808, 0.5116074030521023, a
-0.6741594953528496, 0.5686427616785394, -0.8687200197929079, 0.6022357728438478, a
-0.6741594953528496, 0.5686427616785394, -0.884055192524491, 0.6638867672670816, a
-0.6741594953528496, 0.5686427616785394, -0.7924098019642964, 0.5692554371635994, a
-0.6741594953528496, 0.5686427616785394, -0.9183606461975895, 0.4975550277774667, a
-0.6741594953528496, 0.5686427616785394, -0.9284371113719496, 0.6061840436433074, a
-0.6741594953528496, 0.5686427616785394, -0.8978389181545949, 0.4463642143719764, a
-0.6741594953528496, 0.5686427616785394, -0.8383702339646593, 0.6524437577919647, a
-0.6741594953528496, 0.5686427616785394, -0.8048389653224127, 0.6208561911671342, a
-0.6741594953528496, 0.5686427616785394, -0.8056749226860898, 0.5054854228654102, a
-0.6741594953528496, 0.5686427616785394, -0.9781373502752079, 0.5132414033754639, a
-0.6741594953528496, 0.5686427616785394, -0.8440452086949225, 0.45985287513477974, a
-0.6741594953528496, 0.5686427616785394, -0.953086289263147, 0.46651163559008, a
-0.6741594953528496, 0.5686427616785394, -0.9325346405908936, 0.6502423258343469, a
-0.6741594953528496, 0.5686427616785394, -0.9718502920525828, 0.5598640821517454, a
-0.6741594953528496, 0.5686427616785394, -0.6286251122008559, 0.3813598334381121, a
-0.9999999999999999, 0.6008007887483245, -0.9178359238346003, 0.5551880100986498, a
-0.9999999999999999, 0.6008007887483245, -0.841092451471168, 0.5559304030584834, a
-0.9999999999999999, 0.6008007887483245, -0.8673103442528808, 0.5116074030521023, a
-0.9999999999999999, 0.6008007887483245, -0.8687200197929079, 0.6022357728438478, a
-0.9999999999999999, 0.6008007887483245, -0.884055192524491, 0.6638867672670816, a
-0.9999999999999999, 0.6008007887483245, -0.7924098019642964, 0.5692554371635994, a
-0.9999999999999999, 0.6008007887483245, -0.9183606461975895, 0.4975550277774667, a
-0.9999999999999999, 0.6008007887483245, -0.9284371113719496, 0.6061840436433074, a
-0.9999999999999999, 0.6008007887483245, -0.8978389181545949, 0.4463642143719764, a
-0.9999999999999999, 0.6008007887483245, -0.8383702339646593, 0.6524437577919647, a
-0.9999999999999999, 0.6008007887483245, -0.8048389653224127, 0.6208561911671342, a
-0.9999999999999999, 0.6008007887483245, -0.8056749226860898, 0.5054854228654102, a
-0.9999999999999999, 0.6008007887483245, -0.9781373502752079, 0.5132414033754639, a
-0.9999999999999999, 0.6008007887483245, -0.8440452086949225, 0.45985287513477974, a
-0.9999999999999999, 0.6008007887483245, -0.953086289263147, 0.46651163559008, a
-0.9999999999999999, 0.6008007887483245, -0.9325346405908936, 0.6502423258343469, a
-0.9999999999999999, 0.6008007887483245, -0.9718502920525828, 0.5598640821517454, a
-0.9999999999999999, 0.6008007887483245, -0.6286251122008559, 0.3813598334381121, a
-0.9178359238346003, 0.5551880100986498, -0.841092451471168, 0.5559304030584834, a
-0.9178359238346003, 0.5551880100986498, -0.8673103442528808, 0.5116074030521023, a
-0.9178359238346003, 0.5551880100986498, -0.8687200197929079, 0.6022357728438478, a
-0.9178359238346003, 0.5551880100986498, -0.884055192524491, 0.6638867672670816, a
-0.9178359238346003, 0.5551880100986498, -0.7924098019642964, 0.5692554371635994, a
-0.9178359238346003, 0.5551880100986498, -0.9183606461975895, 0.4975550277774667, a
-0.9178359238346003, 0.5551880100986498, -0.9284371113719496, 0.6061840436433074, a
-0.9178359238346003, 0.5551880100986498, -0.8978389181545949, 0.4463642143719764, a
-0.9178359238346003, 0.5551880100986498, -0.8383702339646593, 0.6524437577919647, a
-0.9178359238346003, 0.5551880100986498, -0.8048389653224127, 0.6208561911671342, a
-0.9178359238346003, 0.5551880100986498, -0.8056749226860898, 0.5054854228654102, a
-0.9178359238346003, 0.5551880100986498, -0.9781373502752079, 0.5132414033754639, a
-0.9178359238346003, 0.5551880100986498, -0.8440452086949225, 0.45985287513477974, a
-0.9178359238346003, 0.5551880100986498, -0.953086289263147, 0.46651163559008, a
-0.9178359238346003, 0.5551880100986498, -0.9325346405908936, 0.6502423258343469, a
-0.9178359238346003, 0.5551880100986498, -0.9718502920525828, 0.5598640821517454, a
-0.9178359238346003, 0.5551880100986498, -0.6286251122008559, 0.3813598334381121, a
-0.841092451471168, 0.5559304030584834, -0.8673103442528808, 0.5116074030521023, a
-0.841092451471168, 0.5559304030584834, -0.8687200197929079, 0.6022357728438478, a
-0.841092451471168, 0.5559304030584834, -0.884055192524491, 0.6638867672670816, a
-0.841092451471168, 0.5559304030584834, -0.7924098019642964, 0.5692554371635994, a
-0.841092451471168, 0.5559304030584834, -0.9183606461975895, 0.4975550277774667, a
-0.841092451471168, 0.5559304030584834, -0.9284371113719496, 0.6061840436433074, a
-0.841092451471168, 0.5559304030584834, -0.8978389181545949, 0.4463642143719764, a
-0.841092451471168, 0.5559304030584834, -0.8383702339646593, 0.6524437577919647, a
-0.841092451471168, 0.5559304030584834, -0.8048389653224127, 0.6208561911671342, a
-0.841092451471168, 0.5559304030584834, -0.8056749226860898, 0.5054854228654102, a
-0.841092451471168, 0.5559304030584834, -0.9781373502752079, 0.5132414033754639, a
-0.841092451471168, 0.5559304030584834, -0.8440452086949225, 0.45985287513477974, a
-0.841092451471168, 0.5559304030584834, -0.953086289263147, 0.46651163559008, a
-0.841092451471168, 0.5559304030584834, -0.9325346405908936, 0.6502423258343469, a
-0.841092451471168, 0.5559304030584834, -0.9718502920525828, 0.5598640821517454, a
-0.841092451471168, 0.5559304030584834, -0.6286251122008559, 0.3813598334381121, a
-0.8673103442528808, 0.5116074030521023, -0.8687200197929079, 0.6022357728438478, a
-0.8673103442528808, 0.5116074030521023, -0.884055192524491, 0.6638867672670816, a
-0.8673103442528808, 0.5116074030521023, -0.7924098019642964, 0.5692554371635994, a
-0.8673103442528808, 0.5116074030521023, -0.9183606461975895, 0.4975550277774667, a
-0.8673103442528808, 0.5116074030521023, -0.9284371113719496, 0.6061840436433074, a
-0.8673103442528808, 0.5116074030521023, -0.8978389181545949, 0.4463642143719764, a
-0.8673103442528808, 0.5116074030521023, -0.8383702339646593, 0.6524437577919647, a
-0.8673103442528808, 0.5116074030521023, -0.8048389653224127, 0.6208561911671342, a
-0.8673103442528808, 0.5116074030521023, -0.8056749226860898, 0.5054854228654102, a
-0.8673103442528808, 0.5116074030521023, -0.9781373502752079, 0.5132414033754639, a
-0.8673103442528808, 0.5116074030521023, -0.8440452086949225, 0.45985287513477974, a
-0.8673103442528808, 0.5116074030521023, -0.953086289263147, 0.46651163559008, a
-0.8673103442528808, 0.5116074030521023, -0.9325346405908936, 0.6502423258343469, a
-0.8673103442528808, 0.5116074030521023, -0.9718502920525828, 0.5598640821517454, a
-0.8673103442528808, 0.5116074030521023, -0.6286251122008559, 0.3813598334381121, a
-0.8687200197929079, 0.6022357728438478, -0.884055192524491, 0.6638867672670816, a
-0.8687200197929079, 0.6022357728438478, -0.7924098019642964, 0.5692554371635994, a
-0.8687200197929079, 0.6022357728438478, -0.9183606461975895, 0.4975550277774667, a
-0.8687200197929079, 0.6022357728438478, -0.9284371113719496, 0.6061840436433074, a
-0.8687200197929079, 0.6022357728438478, -0.8978389181545949, 0.4463642143719764, a
-0.8687200197929079, 0.6022357728438478, -0.8383702339646593, 0.6524437577919647, a
-0.8687200197929079, 0.6022357728438478, -0.8048389653224127, 0.6208561911671342, a
-0.8687200197929079, 0.6022357728438478, -0.8056749226860898, 0.5054854228654102, a
-0.8687200197929079, 0.6022357728438478, -0.9781373502752079, 0.5132414033754639, a
-0.8687200197929079, 0.6022357728438478, -0.8440452086949225, 0.45985287513477974, a
-0.8687200197929079, 0.6022357728438478, -0.953086289263147, 0.46651163559008, a
-0.8687200197929079, 0.6022357728438478, -0.9325346405908936, 0.6502423258343469, a
-0.8687200197929079, 0.6022357728438478, -0.9718502920525828, 0.5598640821517454, a
-0.8687200197929079, 0.6022357728438478, -0.6286251122008559, 0.3813598334381121, a
-0.884055192524491, 0.6638867672670816, -0.7924098019642964, 0.5692554371635994, a
-0.884055192524491, 0.6638867672670816, -0.9183606461975895, 0.4975550277774667, a
-0.884055192524491, 0.6638867672670816, -0.9284371113719496, 0.6061840436433074, a
-0.884055192524491, 0.6638867672670816, -0.8978389181545949, 0.4463642143719764, a
-0.884055192524491, 0.6638867672670816, -0.8383702339646593, 0.6524437577919647, a
-0.884055192524491, 0.6638867672670816, -0.8048389653224127, 0.6208561911671342, a
-0.884055192524491, 0.6638867672670816, -0.8056749226860898, 0.5054854228654102, a
-0.884055192524491, 0.6638867672670816, -0.9781373502752079, 0.5132414033754639, a
-0.884055192524491, 0.6638867672670816, -0.8440452086949225, 0.45985287513477974, a
-0.884055192524491, 0.6638867672670816, -0.953086289263147, 0.46651163559008, a
-0.884055192524491, 0.6638867672670816, -0.9325346405908936, 0.6502423258343469, a
-0.884055192524491, 0.6638867672670816, -0.9718502920525828, 0.5598640821517454, a
-0.884055192524491, 0.6638867672670816, -0.6286251122008559, 0.3813598334381121, a
-0.7924098019642964, 0.5692554371635994, -0.9183606461975895, 0.4975550277774667, a
-0.7924098019642964, 0.5692554371635994, -0.9284371113719496, 0.6061840436433074, a
-0.7924098019642964, 0.5692554371635994, -0.8978389181545949, 0.4463642143719764, a
-0.7924098019642964, 0.5692554371635994, -0.8383702339646593, 0.6524437577919647, a
-0.7924098019642964, 0.5692554371635994, -0.8048389653224127, 0.6208561911671342, a
-0.7924098019642964, 0.5692554371635994, -0.8056749226860898, 0.5054854228654102, a
-0.7924098019642964, 0.5692554371635994, -0.9781373502752079, 0.5132414033754639, a
-0.7924098019642964, 0.5692554371635994, -0.8440452086949225, 0.45985287513477974, a
-0.7924098019642964, 0.5692554371635994, -0.953086289263147, 0.46651163559008, a
-0.7924098019642964, 0.5692554371635994, -0.9325346405908936, 0.6502423258343469, a
-0.7924098019642964, 0.5692554371635994, -0.9718502920525828, 0.5598640821517454, a
-0.7924098019642964, 0.5692554371635994, -0.6286251122008559, 0.3813598334381121, a
-0.9183606461975895, 0.4975550277774667, -0.9284371113719496, 0.6061840436433074, a
-0.9183606461975895, 0.4975550277774667, -0.8978389181545949, 0.4463642143719764, a
-0.9183606461975895, 0.4975550277774667, -0.8383702339646593, 0.6524437577919647, a
-0.9183606461975895, 0.4975550277774667, -0.8048389653224127, 0.6208561911671342, a
-0.9183606461975895, 0.4975550277774667, -0.8056749226860898, 0.5054854228654102, a
-0.9183606461975895, 0.4975550277774667, -0.9781373502752079, 0.5132414033754639, a
-0.9183606461975895, 0.4975550277774667, -0.8440452086949225, 0.45985287513477974, a
-0.9183606461975895, 0.4975550277774667, -0.953086289263147, 0.46651163559008, a
-0.9183606461975895, 0.4975550277774667, -0.9325346405908936, 0.6502423258343469, a
-0.9183606461975895, 0.4975550277774667, -0.9718502920525828, 0.5598640821517454, a
-0.9183606461975895, 0.4975550277774667, -0.6286251122008559, 0.3813598334381121, a
-0.9284371113719496, 0.6061840436433074, -0.8978389181545949, 0.4463642143719764, a
-0.9284371113719496, 0.6061840436433074, -0.8383702339646593, 0.6524437577919647, a
-0.9284371113719496, 0.6061840436433074, -0.8048389653224127, 0.6208561911671342, a
-0.9284371113719496, 0.6061840436433074, -0.8056749226860898, 0.5054854228654102, a
-0.9284371113719496, 0.6061840436433074, -0.9781373502752079, 0.5132414033754639, a
-0.9284371113719496, 0.6061840436433074, -0.8440452086949225, 0.45985287513477974, a
-0.9284371113719496, 0.6061840436433074, -0.953086289263147, 0.46651163559008, a
-0.9284371113719496, 0.6061840436433074, -0.9325346405908936, 0.6502423258343469, a
-0.9284371113719496, 0.6061840436433074, -0.9718502920525828, 0.5598640821517454, a
-0.9284371113719496, 0.6061840436433074, -0.6286251122008559, 0.3813598334381121, a
-0.8978389181545949, 0.4463642143719764, -0.8383702339646593, 0.6524437577919647, a
-0.8978389181545949, 0.4463642143719764, -0.8048389653224127, 0.6208561911671342, a
-0.8978389181545949, 0.4463642143719764, -0.8056749226860898, 0.5054854228654102, a
-0.8978389181545949, 0.4463642143719764, -0.9781373502752079, 0.5132414033754639, a
-0.8978389181545949, 0.4463642143719764, -0.8440452086949225, 0.45985287513477974, a
-0.8978389181545949, 0.4463642143719764, -0.953086289263147, 0.46651163559008, a
-0.8978389181545949, 0.4463642143719764, -0.9325346405908936, 0.6502423258343469, a
-0.8978389181545949, 0.4463642143719764, -0.9718502920525828, 0.5598640821517454, a
-0.8978389181545949, 0.4463642143719764, -0.6286251122008559, 0.3813598334381121, a
-0.8383702339646593, 0.6524437577919647, -0.8048389653224127, 0.6208561911671342, a
-0.8383702339646593, 0.6524437577919647, -0.8056749226860898, 0.5054854228654102, a
-0.8383702339646593, 0.6524437577919647, -0.9781373502752079, 0.5132414033754639, a
-0.8383702339646593, 0.6524437577919647, -0.8440452086949225, 0.45985287513477974, a
-0.8383702339646593, 0.6524437577919647, -0.953086289263147, 0.46651163559008, a
-0.8383702339646593, 0.6524437577919647, -0.9325346405908936, 0.6502423258343469, a
-0.8383702339646593, 0.6524437577919647, -0.9718502920525828, 0.5598640821517454, a
-0.8383702339646593, 0.6524437577919647, -0.6286251122008559, 0.3813598334381121, a
-0.8048389653224127, 0.6208561911671342, -0.8056749226860898, 0.5054854228654102, a
-0.8048389653224127, 0.6208561911671342, -0.9781373502752079, 0.5132414033754639, a
-0.8048389653224127, 0.6208561911671342, -0.8440452086949225, 0.45985287513477974, a
-0.8048389653224127, 0.6208561911671342, -0.953086289263147, 0.46651163559008, a
-0.8048389653224127, 0.6208561911671342, -0.9325346405908936, 0.6502423258343469, a
-0.8048389653224127, 0.6208561911671342, -0.9718502920525828, 0.5598640821517454, a
-0.8048389653224127, 0.6208561911671342, -0.6286251122008559, 0.3813598334381121, a
-0.8056749226860898, 0.5054854228654102, -0.9781373502752079, 0.5132414033754639, a
-0.8056749226860898, 0.5054854228654102, -0.8440452086949225, 0.45985287513477974, a
-0.8056749226860898, 0.5054854228654102, -0.953086289263147, 0.46651163559008, a
-0.8056749226860898, 0.5054854228654102, -0.9325346405908936, 0.6502423258343469, a
-0.8056749226860898, 0.5054854228654102, -0.9718502920525828, 0.5598640821517454, a
-0.8056749226860898, 0.5054854228654102, -0.6286251122008559, 0.3813598334381121, a
-0.9781373502752079, 0.5132414033754639, -0.8440452086949225, 0.45985287513477974, a
-0.9781373502752079, 0.5132414033754639, -0.953086289263147, 0.46651163559008, a
-0.9781373502752079, 0.5132414033754639, -0.9325346405908936, 0.6502423258343469, a
-0.9781373502752079, 0.5132414033754639, -0.9718502920525828, 0.5598640821517454, a
-0.9781373502752079, 0.5132414033754639, -0.6286251122008559, 0.3813598334381121, a
-0.8440452086949225, 0.45985287513477974, -0.953086289263147, 0.46651163559008, a
-0.8440452086949225, 0.45985287513477974, -0.9325346405908936, 0.6502423258343469, a
-0.8440452086949225, 0.45985287513477974, -0.9718502920525828, 0.5598640821517454, a
-0.8440452086949225, 0.45985287513477974, -0.6286251122008559, 0.3813598334381121, a
-0.953086289263147, 0.46651163559008, -0.9325346405908936, 0.6502423258343469, a
-0.953086289263147, 0.46651163559008, -0.9718502920525828, 0.5598640821517454, a
-0.953086289263147, 0.46651163559008, -0.6286251122008559, 0.3813598334381121, a
-0.9325346405908936, 0.6502423258343469, -0.9718502920525828, 0.5598640821517454, a
-0.9325346405908936, 0.6502423258343469, -0.6286251122008559, 0.3813598334381121, a
-0.9718502920525828, 0.5598640821517454, -0.6286251122008559, 0.3813598334381121, a
-0.6286251122008559, 0.3813598334381121, 0.5079055780133463, -0.3825709367610236, a
0.5079055780133463, -0.3825709367610236, 0.7576066634733802, -0.6203365814638174, a
0.5079055780133463, -0.3825709367610236, 0.875418565779105, -0.5448620588977399, a
0.5079055780133463, -0.3825709367610236, 0.8621590676961924, -0.4978909262492266, a
0.5079055780133463, -0.3825709367610236, 0.8203234494894821, -0.46513941096434275, a
0.5079055780133463, -0.3825709367610236, 0.8072064382311552, -0.6713171012161199, a
0.5079055780133463, -0.3825709367610236, 0.819856382184045, -0.6246957631318436, a
0.5079055780133463, -0.3825709367610236, 0.7093558662318431, -0.6544808197813212, a
0.5079055780133463, -0.3825709367610236, 0.6892599567353604, -0.6067330558982192, a
0.5079055780133463, -0.3825709367610236, 0.7204363027101536, -0.48769147670436175, a
0.5079055780133463, -0.3825709367610236, 0.6906272389380148, -0.536689980348159, a
0.5079055780133463, -0.3825709367610236, 0.730257770117334, -0.5710453844567529, a
0.5079055780133463, -0.3825709367610236, 0.7695377429484324, -0.4607326875654499, a
0.5079055780133463, -0.3825709367610236, 0.7582786574640201, -0.5184159174200773, a
0.5079055780133463, -0.3825709367610236, 0.8620390263713161, -0.5894161635239639, a
0.5079055780133463, -0.3825709367610236, 0.7555948816325233, -0.675635783238472, a
0.5079055780133463, -0.3825709367610236, 0.8140174167807799, -0.5187980944972505, a
0.5079055780133463, -0.3825709367610236, 0.8004420351447084, -0.5721839015527831, a
0.5079055780133463, -0.3825709367610236, 0.6056608108314245, -0.5783360032815553, a
0.8845024697741163, -0.6435243901504097, 0.7576066634733802, -0.6203365814638174, a
0.8845024697741163, -0.6435243901504097, 0.875418565779105, -0.5448620588977399, a
0.8845024697741163, -0.6435243901504097, 0.8621590676961924, -0.4978909262492266, a
0.8845024697741163, -0.6435243901504097, 0.8203234494894821, -0.46513941096434275, a
0.8845024697741163, -0.6435243901504097, 0.8072064382311552, -0.6713171012161199, a
0.8845024697741163, -0.6435243901504097, 0.819856382184045, -0.6246957631318436, a
0.8845024697741163, -0.6435243901504097, 0.7093558662318431, -0.6544808197813212, a
0.8845024697741163, -0.6435243901504097, 0.6892599567353604, -0.6067330558982192, a
0.8845024697741163, -0.6435243901504097, 0.7204363027101536, -0.48769147670436175, a
0.8845024697741163, -0.6435243901504097, 0.6906272389380148, -0.536689980348159, a
0.8845024697741163, -0.6435243901504097, 0.730257770117334, -0.5710453844567529, a
0.8845024697741163, -0.6435243901504097, 0.7695377429484324, -0.4607326875654499, a
0.8845024697741163, -0.6435243901504097, 0.7582786574640201, -0.5184159174200773, a
0.8845024697741163, -0.6435243901504097, 0.8620390263713161, -0.5894161635239639, a
0.8845024697741163, -0.6435243901504097, 0.7555948816325233, -0.675635783238472, a
0.8845024697741163, -0.6435243901504097, 0.8140174167807799, -0.5187980944972505, a
0.8845024697741163, -0.6435243901504097, 0.8004420351447084, -0.5721839015527831, a
0.8845024697741163, -0.6435243901504097, 0.6056608108314245, -0.5783360032815553, a
0.7576066634733802, -0.6203365814638174, 0.875418565779105, -0.5448620588977399, a
0.7576066634733802, -0.6203365814638174, 0.8621590676961924, -0.4978909262492266, a
0.7576066634733802, -0.6203365814638174, 0.8203234494894821, -0.46513941096434275, a
0.7576066634733802, -0.6203365814638174, 0.8072064382311552, -0.6713171012161199, a
0.7576066634733802, -0.6203365814638174, 0.819856382184045, -0.6246957631318436, a
0.7576066634733802, -0.6203365814638174, 0.7093558662318431, -0.6544808197813212, a
0.7576066634733802, -0.6203365814638174, 0.6892599567353604, -0.6067330558982192, a
0.7576066634733802, -0.6203365814638174, 0.7204363027101536, -0.48769147670436175, a
0.7576066634733802, -0.6203365814638174, 0.6906272389380148, -0.536689980348159, a
0.7576066634733802, -0.6203365814638174, 0.730257770117334, -0.5710453844567529, a
0.7576066634733802, -0.6203365814638174, 0.7695377429484324, -0.4607326875654499, a
0.7576066634733802, -0.6203365814638174, 0.7582786574640201, -0.5184159174200773, a
0.7576066634733802, -0.6203365814638174, 0.8620390263713161, -0.5894161635239639, a
0.7576066634733802, -0.6203365814638174, 0.7555948816325233, -0.675635783238472, a
0.7576066634733802, -0.6203365814638174, 0.8140174167807799, -0.5187980944972505, a
0.7576066634733802, -0.6203365814638174, 0.8004420351447084, -0.5721839015527831, a
0.7576066634733802, -0.6203365814638174, 0.6056608108314245, -0.5783360032815553, a
0.875418565779105, -0.5448620588977399, 0.8621590676961924, -0.4978909262492266, a
0.875418565779105, -0.5448620588977399, 0.8203234494894821, -0.46513941096434275, a
0.875418565779105, -0.5448620588977399, 0.8072064382311552, -0.6713171012161199, a
0.875418565779105, -0.5448620588977399, 0.819856382184045, -0.6246957631318436, a
0.875418565779105, -0.5448620588977399, 0.7093558662318431, -0.6544808197813212, a
0.875418565779105, -0.5448620588977399, 0.6892599567353604, -0.6067330558982192, a
0.875418565779105, -0.5448620588977399, 0.7204363027101536, -0.48769147670436175, a
0.875418565779105, -0.5448620588977399, 0.6906272389380148, -0.536689980348159, a
0.875418565779105, -0.5448620588977399, 0.730257770117334, -0.5710453844567529, a
0.875418565779105, -0.5448620588977399, 0.7695377429484324, -0.4607326875654499, a
0.875418565779105, -0.5448620588977399, 0.7582786574640201, -0.5184159174200773, a
0.875418565779105, -0.5448620588977399, 0.8620390263713161, -0.5894161635239639, a
0.875418565779105, -0.5448620588977399, 0.7555948816325233, -0.675635783238472, a
0.875418565779105, -0.5448620588977399, 0.8140174167807799, -0.5187980944972505, a
0.875418565779105, -0.5448620588977399, 0.8004420351447084, -0.5721839015527831, a
0.875418565779105, -0.5448620588977399, 0.6056608108314245, -0.5783360032815553, a
0.8621590676961924, -0.4978909262492266, 0.8203234494894821, -0.46513941096434275, a
0.8621590676961924, -0.4978909262492266, 0.8072064382311552, -0.6713171012161199, a
0.8621590676961924, -0.4978909262492266, 0.819856382184045, -0.6246957631318436, a
0.8621590676961924, -0.4978909262492266, 0.7093558662318431, -0.6544808197813212, a
0.8621590676961924, -0.4978909262492266, 0.6892599567353604, -0.6067330558982192, a
0.8621590676961924, -0.4978909262492266, 0.7204363027101536, -0.48769147670436175, a
0.8621590676961924, -0.4978909262492266, 0.6906272389380148, -0.536689980348159, a
0.8621590676961924, -0.4978909262492266, 0.730257770117334, -0.5710453844567529, a
0.8621590676961924, -0.4978909262492266, 0.7695377429484324, -0.4607326875654499, a
0.8621590676961924, -0.4978909262492266, 0.7582786574640201, -0.5184159174200773, a
0.8621590676961924, -0.4978909262492266, 0.8620390263713161, -0.5894161635239639, a
0.8621590676961924, -0.4978909262492266, 0.7555948816325233, -0.675635783238472, a
0.8621590676961924, -0.4978909262492266, 0.8140174167807799, -0.5187980944972505, a
0.8621590676961924, -0.4978909262492266, 0.8004420351447084, -0.5721839015527831, a
0.8621590676961924, -0.4978909262492266, 0.6056608108314245, -0.5783360032815553, a
0.8203234494894821, -0.46513941096434275, 0.8072064382311552, -0.6713171012161199, a
0.8203234494894821, -0.46513941096434275, 0.819856382184045, -0.6246957631318436, a
0.8203234494894821, -0.46513941096434275, 0.7093558662318431, -0.6544808197813212, a
0.8203234494894821, -0.46513941096434275, 0.6892599567353604, -0.6067330558982192, a
0.8203234494894821, -0.46513941096434275, 0.7204363027101536, -0.48769147670436175, a
0.8203234494894821, -0.46513941096434275, 0.6906272389380148, -0.536689980348159, a
0.8203234494894821, -0.46513941096434275, 0.730257770117334, -0.5710453844567529, a
0.8203234494894821, -0.46513941096434275, 0.7695377429484324, -0.4607326875654499, a
0.8203234494894821, -0.46513941096434275, 0.7582786574640201, -0.5184159174200773, a
0.8203234494894821, -0.46513941096434275, 0.8620390263713161, -0.5894161635239639, a
0.8203234494894821, -0.46513941096434275, 0.7555948816325233, -0.675635783238472, a
0.8203234494894821, -0.46513941096434275, 0.8140174167807799, -0.5187980944972505, a
0.8203234494894821, -0.46513941096434275, 0.8004420351447084, -0.5721839015527831, a
0.8203234494894821, -0.46513941096434275, 0.6056608108314245, -0.5783360032815553, a
0.8072064382311552, -0.6713171012161199, 0.819856382184045, -0.6246957631318436, a
0.8072064382311552, -0.6713171012161199, 0.7093558662318431, -0.6544808197813212, a
0.8072064382311552, -0.6713171012161199, 0.6892599567353604, -0.6067330558982192, a
0.8072064382311552, -0.6713171012161199, 0.7204363027101536, -0.48769147670436175, a
0.8072064382311552, -0.6713171012161199, 0.6906272389380148, -0.536689980348159, a
0.8072064382311552, -0.6713171012161199, 0.730257770117334, -0.5710453844567529, a
0.8072064382311552, -0.6713171012161199, 0.7695377429484324, -0.4607326875654499, a
0.8072064382311552, -0.6713171012161199, 0.7582786574640201, -0.5184159174200773, a
0.8072064382311552, -0.6713171012161199, 0.8620390263713161, -0.5894161635239639, a
0.8072064382311552, -0.6713171012161199, 0.7555948816325233, -0.675635783238472, a
0.8072064382311552, -0.6713171012161199, 0.8140174167807799, -0.5187980944972505, a
0.8072064382311552, -0.6713171012161199, 0.8004420351447084, -0.5721839015527831, a
0.8072064382311552, -0.6713171012161199, 0.6056608108314245, -0.5783360032815553, a
0.819856382184045, -0.6246957631318436, 0.7093558662318431, -0.6544808197813212, a
0.819856382184045, -0.6246957631318436, 0.6892599567353604, -0.6067330558982192, a
0.819856382184045, -0.6246957631318436, 0.7204363027101536, -0.48769147670436175, a
0.819856382184045, -0.6246957631318436, 0.6906272389380148, -0.536689980348159, a
0.819856382184045, -0.6246957631318436, 0.730257770117334, -0.5710453844567529, a
0.819856382184045, -0.6246957631318436, 0.7695377429484324, -0.4607326875654499, a
0.819856382184045, -0.6246957631318436, 0.7582786574640201, -0.5184159174200773, a
0.819856382184045, -0.6246957631318436, 0.8620390263713161, -0.5894161635239639, a
0.819856382184045, -0.6246957631318436, 0.7555948816325233, -0.675635783238472, a
0.819856382184045, -0.6246957631318436, 0.8140174167807799, -0.5187980944972505, a
0.819856382184045, -0.6246957631318436, 0.8004420351447084, -0.5721839015527831, a
0.819856382184045, -0.6246957631318436, 0.6056608108314245, -0.5783360032815553, a
0.7093558662318431, -0.6544808197813212, 0.6892599567353604, -0.6067330558982192, a
0.7093558662318431, -0.6544808197813212, 0.7204363027101536, -0.48769147670436175, a
0.7093558662318431, -0.6544808197813212, 0.6906272389380148, -0.536689980348159, a
0.7093558662318431, -0.6544808197813212, 0.730257770117334, -0.5710453844567529, a
0.7093558662318431, -0.6544808197813212, 0.7695377429484324, -0.4607326875654499, a
0.7093558662318431, -0.6544808197813212, 0.7582786574640201, -0.5184159174200773, a
0.7093558662318431, -0.6544808197813212, 0.8620390263713161, -0.5894161635239639, a
0.7093558662318431, -0.6544808197813212, 0.7555948816325233, -0.675635783238472, a
0.7093558662318431, -0.6544808197813212, 0.8140174167807799, -0.5187980944972505, a
0.7093558662318431, -0.6544808197813212, 0.8004420351447084, -0.5721839015527831, a
0.7093558662318431, -0.6544808197813212, 0.6056608108314245, -0.5783360032815553, a
0.6892599567353604, -0.6067330558982192, 0.7204363027101536, -0.48769147670436175, a
0.6892599567353604, -0.6067330558982192, 0.6906272389380148, -0.536689980348159, a
0.6892599567353604, -0.6067330558982192, 0.730257770117334, -0.5710453844567529, a
0.6892599567353604, -0.6067330558982192, 0.7695377429484324, -0.4607326875654499, a
0.6892599567353604, -0.6067330558982192, 0.7582786574640201, -0.5184159174200773, a
0.6892599567353604, -0.6067330558982192, 0.8620390263713161, -0.5894161635239639, a
0.6892599567353604, -0.6067330558982192, 0.7555948816325233, -0.675635783238472, a
0.6892599567353604, -0.6067330558982192, 0.8140174167807799, -0.5187980944972505, a
0.6892599567353604, -0.6067330558982192, 0.8004420351447084, -0.5721839015527831, a
0.6892599567353604, -0.6067330558982192, 0.6056608108314245, -0.5783360032815553, a
0.7204363027101536, -0.48769147670436175, 0.6906272389380148, -0.536689980348159, a
0.7204363027101536, -0.48769147670436175, 0.730257770117334, -0.5710453844567529, a
0.7204363027101536, -0.48769147670436175, 0.7695377429484324, -0.4607326875654499, a
0.7204363027101536, -0.48769147670436175, 0.7582786574640201, -0.5184159174200773, a
0.7204363027101536, -0.48769147670436175, 0.8620390263713161, -0.5894161635239639, a
0.7204363027101536, -0.48769147670436175, 0.7555948816325233, -0.675635783238472, a
0.7204363027101536, -0.48769147670436175, 0.8140174167807799, -0.5187980944972505, a
0.7204363027101536, -0.48769147670436175, 0.8004420351447084, -0.5721839015527831, a
0.7204363027101536, -0.48769147670436175, 0.6056608108314245, -0.5783360032815553, a
0.6906272389380148, -0.536689980348159, 0.730257770117334, -0.5710453844567529, a
0.6906272389380148, -0.536689980348159, 0.7695377429484324, -0.4607326875654499, a
0.6906272389380148, -0.536689980348159, 0.7582786574640201, -0.5184159174200773, a
0.6906272389380148, -0.536689980348159, 0.8620390263713161, -0.5894161635239639, a
0.6906272389380148, -0.536689980348159, 0.7555948816325233, -0.675635783238472, a
0.6906272389380148, -0.536689980348159, 0.8140174167807799, -0.5187980944972505, a
0.6906272389380148, -0.536689980348159, 0.8004420351447084, -0.5721839015527831, a
0.6906272389380148, -0.536689980348159, 0.6056608108314245, -0.5783360032815553, a
0.730257770117334, -0.5710453844567529, 0.7695377429484324, -0.4607326875654499, a
0.730257770117334, -0.5710453844567529, 0.7582786574640201, -0.5184159174200773, a
0.730257770117334, -0.5710453844567529, 0.8620390263713161, -0.5894161635239639, a
0.730257770117334, -0.5710453844567529, 0.7555948816325233, -0.675635783238472, a
0.730257770117334, -0.5710453844567529, 0.8140174167807799, -0.5187980944972505, a
0.730257770117334, -0.5710453844567529, 0.8004420351447084, -0.5721839015527831, a
0.730257770117334, -0.5710453844567529, 0.6056608108314245, -0.5783360032815553, a
0.7695377429484324, -0.4607326875654499, 0.7582786574640201, -0.5184159174200773, a
0.7695377429484324, -0.4607326875654499, 0.8620390263713161, -0.5894161635239639, a
0.7695377429484324, -0.4607326875654499, 0.7555948816325233, -0.675635783238472, a
0.7695377429484324, -0.4607326875654499, 0.8140174167807799, -0.5187980944972505, a
0.7695377429484324, -0.4607326875654499, 0.8004420351447084, -0.5721839015527831, a
0.7695377429484324, -0.4607326875654499, 0.6056608108314245, -0.5783360032815553, a
0.7582786574640201, -0.5184159174200773, 0.8620390263713161, -0.5894161635239639, a
0.7582786574640201, -0.5184159174200773, 0.7555948816325233, -0.675635783238472, a
0.7582786574640201, -0.5184159174200773, 0.8140174167807799, -0.5187980944972505, a
0.7582786574640201, -0.5184159174200773, 0.8004420351447084, -0.5721839015527831, a
0.7582786574640201, -0.5184159174200773, 0.6056608108314245, -0.5783360032815553, a
0.8620390263713161, -0.5894161635239639, 0.7555948816325233, -0.675635783238472, a
0.8620390263713161, -0.5894161635239639, 0.8140174167807799, -0.5187980944972505, a
0.8620390263713161, -0.5894161635239639, 0.8004420351447084, -0.5721839015527831, a
0.8620390263713161, -0.5894161635239639, 0.6056608108314245, -0.5783360032815553, a
0.7555948816325233, -0.675635783238472, 0.8140174167807799, -0.5187980944972505, a
0.7555948816325233, -0.675635783238472, 0.8004420351447084, -0.5721839015527831, a
0.7555948816325233, -0.675635783238472, 0.6056608108314245, -0.5783360032815553, a
0.8140174167807799, -0.5187980944972505, 0.8004420351447084, -0.5721839015527831, a
0.8140174167807799, -0.5187980944972505, 0.6056608108314245, -0.5783360032815553, a
0.8004420351447084, -0.5721839015527831, 0.6056608108314245, -0.5783360032815553, a
