-0.036047612437114934, 0.6602554154471505, -0.13242444289584512, 0.8243172788916888, a
-0.036047612437114934, 0.6602554154471505, -0.12953481692279328, 0.9064619821182184, a
-0.036047612437114934, 0.6602554154471505, 0.10890492565503246, 0.7579403932431139, a
-0.036047612437114934, 0.6602554154471505, -0.12142917272786757, 0.9435335591912859, a
-0.036047612437114934, 0.6602554154471505, -0.14648438537117744, 0.8704813377358365, a
-0.036047612437114934, 0.6602554154471505, 0.0029011443810098235, 0.8419076643683289, a
-0.036047612437114934, 0.6602554154471505, -0.012414695474949933, 0.9050762969424464, a
-0.036047612437114934, 0.6602554154471505, -0.08246749724304095, 0.9628724035718672, a
-0.036047612437114934, 0.6602554154471505, -0.039094319454485785, 0.8094217311019999, a
-0.036047612437114934, 0.6602554154471505, -0.095416239143354, 0.8509155648092179, a
-0.036047612437114934, 0.6602554154471505, -0.08521923068214275, 0.8038381758038183, a
-0.036047612437114934, 0.6602554154471505, -0.04598138993518885, 0.9399537181745776, a
-0.036047612437114934, 0.6602554154471505, 0.035765385601745685, 0.9279519229085031, a
-0.036047612437114934, 0.6602554154471505, -0.04107400906134775, 0.8624233487694254, a
-0.036047612437114934, 0.6602554154471505, 0.033487154523027224, 0.8826288678534384, a
-0.036047612437114934, 0.6602554154471505, -0.07947732174048114, 0.8993999573503281, a
-0.036047612437114934, 0.6602554154471505, 0.001401734404769949, 0.9568192938352374, a
-0.036047612437114934, 0.6602554154471505, 0.0683946493471531, 0.7948734382703821, a
-0.036047612437114934, 0.6602554154471505, 0.06753373174780329, -0.24569863802571457, a
-0.03853394000563396, 1.0, -0.13242444289584512, 0.8243172788916888, a
-0.03853394000563396, 1.0, -0.12953481692279328, 0.9064619821182184, a
-0.03853394000563396, 1.0, 0.10890492565503246, 0.7579403932431139, a
-0.03853394000563396, 1.0, -0.12142917272786757, 0.9435335591912859, a
-0.03853394000563396, 1.0, -0.14648438537117744, 0.8704813377358365, a
-0.03853394000563396, 1.0, 0.0029011443810098235, 0.8419076643683289, a
-0.03853394000563396, 1.0, -0.012414695474949933, 0.9050762969424464, a
-0.03853394000563396, 1.0, -0.08246749724304095, 0.9628724035718672, a
-0.03853394000563396, 1.0, -0.039094319454485785, 0.8094217311019999, a
-0.03853394000563396, 1.0, -0.095416239143354, 0.8509155648092179, a
-0.03853394000563396, 1.0, -0.08521923068214275, 0.8038381758038183, a
-0.03853394000563396, 1.0, -0.04598138993518885, 0.9399537181745776, a
-0.03853394000563396, 1.0, 0.035765385601745685, 0.9279519229085031, a
-0.03853394000563396, 1.0, -0.04107400906134775, 0.8624233487694254, a
-0.03853394000563396, 1.0, 0.033487154523027224, 0.8826288678534384, a
-0.03853394000563396, 1.0, -0.07947732174048114, 0.8993999573503281, a
-0.03853394000563396, 1.0, 0.001401734404769949, 0.9568192938352374, a
-0.03853394000563396, 1.0, 0.0683946493471531, 0.7948734382703821, a
-0.13242444289584512, 0.8243172788916888, -0.12953481692279328, 0.9064619821182184, a
-0.13242444289584512, 0.8243172788916888, 0.10890492565503246, 0.7579403932431139, a
-0.13242444289584512, 0.8243172788916888, -0.12142917272786757, 0.9435335591912859, a
-0.13242444289584512, 0.8243172788916888, -0.14648438537117744, 0.8704813377358365, a
-0.13242444289584512, 0.8243172788916888, 0.0029011443810098235, 0.8419076643683289, a
-0.13242444289584512, 0.8243172788916888, -0.012414695474949933, 0.9050762969424464, a
-0.13242444289584512, 0.8243172788916888, -0.08246749724304095, 0.9628724035718672, a
-0.13242444289584512, 0.8243172788916888, -0.039094319454485785, 0.8094217311019999, a
-0.13242444289584512, 0.8243172788916888, -0.095416239143354, 0.8509155648092179, a
-0.13242444289584512, 0.8243172788916888, -0.08521923068214275, 0.8038381758038183, a
-0.13242444289584512, 0.8243172788916888, -0.04598138993518885, 0.9399537181745776, a
-0.13242444289584512, 0.8243172788916888, 0.035765385601745685, 0.9279519229085031, a
-0.13242444289584512, 0.8243172788916888, -0.04107400906134775, 0.8624233487694254, a
-0.13242444289584512, 0.8243172788916888, 0.033487154523027224, 0.8826288678534384, a
-0.13242444289584512, 0.8243172788916888, -0.07947732174048114, 0.8993999573503281, a
-0.13242444289584512, 0.8243172788916888, 0.001401734404769949, 0.9568192938352374, a
-0.13242444289584512, 0.8243172788916888, 0.0683946493471531, 0.7948734382703821, a
-0.12953481692279328, 0.9064619821182184, 0.10890492565503246, 0.7579403932431139, a
-0.12953481692279328, 0.9064619821182184, -0.12142917272786757, 0.9435335591912859, a
-0.12953481692279328, 0.9064619821182184, -0.14648438537117744, 0.8704813377358365, a
-0.12953481692279328, 0.9064619821182184, 0.0029011443810098235, 0.8419076643683289, a
-0.12953481692279328, 0.9064619821182184, -0.012414695474949933, 0.9050762969424464, a
-0.12953481692279328, 0.9064619821182184, -0.08246749724304095, 0.9628724035718672, a
-0.12953481692279328, 0.9064619821182184, -0.039094319454485785, 0.8094217311019999, a
-0.12953481692279328, 0.9064619821182184, -0.095416239143354, 0.8509155648092179, a
-0.12953481692279328, 0.9064619821182184, -0.08521923068214275, 0.8038381758038183, a
-0.12953481692279328, 0.9064619821182184, -0.04598138993518885, 0.9399537181745776, a
-0.12953481692279328, 0.9064619821182184, 0.035765385601745685, 0.9279519229085031, a
-0.12953481692279328, 0.9064619821182184, -0.04107400906134775, 0.8624233487694254, a
-0.12953481692279328, 0.9064619821182184, 0.033487154523027224, 0.8826288678534384, a
-0.12953481692279328, 0.9064619821182184, -0.07947732174048114, 0.8993999573503281, a
-0.12953481692279328, 0.9064619821182184, 0.001401734404769949, 0.9568192938352374, a
-0.12953481692279328, 0.9064619821182184, 0.0683946493471531, 0.7948734382703821, a
0.10890492565503246, 0.7579403932431139, -0.12142917272786757, 0.9435335591912859, a
0.10890492565503246, 0.7579403932431139, -0.14648438537117744, 0.8704813377358365, a
0.10890492565503246, 0.7579403932431139, 0.0029011443810098235, 0.8419076643683289, a
0.10890492565503246, 0.7579403932431139, -0.012414695474949933, 0.9050762969424464, a
0.10890492565503246, 0.7579403932431139, -0.08246749724304095, 0.9628724035718672, a
0.10890492565503246, 0.7579403932431139, -0.039094319454485785, 0.8094217311019999, a
0.10890492565503246, 0.7579403932431139, -0.095416239143354, 0.8509155648092179, a
0.10890492565503246, 0.7579403932431139, -0.08521923068214275, 0.8038381758038183, a
0.10890492565503246, 0.7579403932431139, -0.04598138993518885, 0.9399537181745776, a
0.10890492565503246, 0.7579403932431139, 0.035765385601745685, 0.9279519229085031, a
0.10890492565503246, 0.7579403932431139, -0.04107400906134775, 0.8624233487694254, a
0.10890492565503246, 0.7579403932431139, 0.033487154523027224, 0.8826288678534384, a
0.10890492565503246, 0.7579403932431139, -0.07947732174048114, 0.8993999573503281, a
0.10890492565503246, 0.7579403932431139, 0.001401734404769949, 0.9568192938352374, a
0.10890492565503246, 0.7579403932431139, 0.0683946493471531, 0.7948734382703821, a
0.10890492565503246, 0.7579403932431139, 0.5456328090498451, 0.3935429178404015, b
0.10890492565503246, 0.7579403932431139, 0.5972151886783239, 0.35980699663327376, b
-0.12142917272786757, 0.9435335591912859, -0.14648438537117744, 0.8704813377358365, a
-0.12142917272786757, 0.9435335591912859, 0.0029011443810098235, 0.8419076643683289, a
-0.12142917272786757, 0.9435335591912859, -0.012414695474949933, 0.9050762969424464, a
-0.12142917272786757, 0.9435335591912859, -0.08246749724304095, 0.9628724035718672, a
-0.12142917272786757, 0.9435335591912859, -0.039094319454485785, 0.8094217311019999, a
-0.12142917272786757, 0.9435335591912859, -0.095416239143354, 0.8509155648092179, a
-0.12142917272786757, 0.9435335591912859, -0.08521923068214275, 0.8038381758038183, a
-0.12142917272786757, 0.9435335591912859, -0.04598138993518885, 0.9399537181745776, a
-0.12142917272786757, 0.9435335591912859, 0.035765385601745685, 0.9279519229085031, a
-0.12142917272786757, 0.9435335591912859, -0.04107400906134775, 0.8624233487694254, a
-0.12142917272786757, 0.9435335591912859, 0.033487154523027224, 0.8826288678534384, a
-0.12142917272786757, 0.9435335591912859, -0.07947732174048114, 0.8993999573503281, a
-0.12142917272786757, 0.9435335591912859, 0.001401734404769949, 0.9568192938352374, a
-0.12142917272786757, 0.9435335591912859, 0.0683946493471531, 0.7948734382703821, a
-0.14648438537117744, 0.8704813377358365, 0.0029011443810098235, 0.8419076643683289, a
-0.14648438537117744, 0.8704813377358365, -0.012414695474949933, 0.9050762969424464, a
-0.14648438537117744, 0.8704813377358365, -0.08246749724304095, 0.9628724035718672, a
-0.14648438537117744, 0.8704813377358365, -0.039094319454485785, 0.8094217311019999, a
-0.14648438537117744, 0.8704813377358365, -0.095416239143354, 0.8509155648092179, a
-0.14648438537117744, 0.8704813377358365, -0.08521923068214275, 0.8038381758038183, a
-0.14648438537117744, 0.8704813377358365, -0.04598138993518885, 0.9399537181745776, a
-0.14648438537117744, 0.8704813377358365, 0.035765385601745685, 0.9279519229085031, a
-0.14648438537117744, 0.8704813377358365, -0.04107400906134775, 0.8624233487694254, a
-0.14648438537117744, 0.8704813377358365, 0.033487154523027224, 0.8826288678534384, a
-0.14648438537117744, 0.8704813377358365, -0.07947732174048114, 0.8993999573503281, a
-0.14648438537117744, 0.8704813377358365, 0.001401734404769949, 0.9568192938352374, a
-0.14648438537117744, 0.8704813377358365, 0.0683946493471531, 0.7948734382703821, a
0.0029011443810098235, 0.8419076643683289, -0.012414695474949933, 0.9050762969424464, a
0.0029011443810098235, 0.8419076643683289, -0.08246749724304095, 0.9628724035718672, a
0.0029011443810098235, 0.8419076643683289, -0.039094319454485785, 0.8094217311019999, a
0.0029011443810098235, 0.8419076643683289, -0.095416239143354, 0.8509155648092179, a
0.0029011443810098235, 0.8419076643683289, -0.08521923068214275, 0.8038381758038183, a
0.0029011443810098235, 0.8419076643683289, -0.04598138993518885, 0.9399537181745776, a
0.0029011443810098235, 0.8419076643683289, 0.035765385601745685, 0.9279519229085031, a
0.0029011443810098235, 0.8419076643683289, -0.04107400906134775, 0.8624233487694254, a
0.0029011443810098235, 0.8419076643683289, 0.033487154523027224, 0.8826288678534384, a
0.0029011443810098235, 0.8419076643683289, -0.07947732174048114, 0.8993999573503281, a
0.0029011443810098235, 0.8419076643683289, 0.001401734404769949, 0.9568192938352374, a
0.0029011443810098235, 0.8419076643683289, 0.0683946493471531, 0.7948734382703821, a
-0.012414695474949933, 0.9050762969424464, -0.08246749724304095, 0.9628724035718672, a
-0.012414695474949933, 0.9050762969424464, -0.039094319454485785, 0.8094217311019999, a
-0.012414695474949933, 0.9050762969424464, -0.095416239143354, 0.8509155648092179, a
-0.012414695474949933, 0.9050762969424464, -0.08521923068214275, 0.8038381758038183, a
-0.012414695474949933, 0.9050762969424464, -0.04598138993518885, 0.9399537181745776, a
-0.012414695474949933, 0.9050762969424464, 0.035765385601745685, 0.9279519229085031, a
-0.012414695474949933, 0.9050762969424464, -0.04107400906134775, 0.8624233487694254, a
-0.012414695474949933, 0.9050762969424464, 0.033487154523027224, 0.8826288678534384, a
-0.012414695474949933, 0.9050762969424464, -0.07947732174048114, 0.8993999573503281, a
-0.012414695474949933, 0.9050762969424464, 0.001401734404769949, 0.9568192938352374, a
-0.012414695474949933, 0.9050762969424464, 0.0683946493471531, 0.7948734382703821, a
-0.08246749724304095, 0.9628724035718672, -0.039094319454485785, 0.8094217311019999, a
-0.08246749724304095, 0.9628724035718672, -0.095416239143354, 0.8509155648092179, a
-0.08246749724304095, 0.9628724035718672, -0.08521923068214275, 0.8038381758038183, a
-0.08246749724304095, 0.9628724035718672, -0.04598138993518885, 0.9399537181745776, a
-0.08246749724304095, 0.9628724035718672, 0.035765385601745685, 0.9279519229085031, a
-0.08246749724304095, 0.9628724035718672, -0.04107400906134775, 0.8624233487694254, a
-0.08246749724304095, 0.9628724035718672, 0.033487154523027224, 0.8826288678534384, a
-0.08246749724304095, 0.9628724035718672, -0.07947732174048114, 0.8993999573503281, a
-0.08246749724304095, 0.9628724035718672, 0.001401734404769949, 0.9568192938352374, a
-0.08246749724304095, 0.9628724035718672, 0.0683946493471531, 0.7948734382703821, a
-0.039094319454485785, 0.8094217311019999, -0.095416239143354, 0.8509155648092179, a
-0.039094319454485785, 0.8094217311019999, -0.08521923068214275, 0.8038381758038183, a
-0.039094319454485785, 0.8094217311019999, -0.04598138993518885, 0.9399537181745776, a
-0.039094319454485785, 0.8094217311019999, 0.035765385601745685, 0.9279519229085031, a
-0.039094319454485785, 0.8094217311019999, -0.04107400906134775, 0.8624233487694254, a
-0.039094319454485785, 0.8094217311019999, 0.033487154523027224, 0.8826288678534384, a
-0.039094319454485785, 0.8094217311019999, -0.07947732174048114, 0.8993999573503281, a
-0.039094319454485785, 0.8094217311019999, 0.001401734404769949, 0.9568192938352374, a
-0.039094319454485785, 0.8094217311019999, 0.0683946493471531, 0.7948734382703821, a
-0.095416239143354, 0.8509155648092179, -0.08521923068214275, 0.8038381758038183, a
-0.095416239143354, 0.8509155648092179, -0.04598138993518885, 0.9399537181745776, a
-0.095416239143354, 0.8509155648092179, 0.035765385601745685, 0.9279519229085031, a
-0.095416239143354, 0.8509155648092179, -0.04107400906134775, 0.8624233487694254, a
-0.095416239143354, 0.8509155648092179, 0.033487154523027224, 0.8826288678534384, a
-0.095416239143354, 0.8509155648092179, -0.07947732174048114, 0.8993999573503281, a
-0.095416239143354, 0.8509155648092179, 0.001401734404769949, 0.9568192938352374, a
-0.095416239143354, 0.8509155648092179, 0.0683946493471531, 0.7948734382703821, a
-0.08521923068214275, 0.8038381758038183, -0.04598138993518885, 0.9399537181745776, a
-0.08521923068214275, 0.8038381758038183, 0.035765385601745685, 0.9279519229085031, a
-0.08521923068214275, 0.8038381758038183, -0.04107400906134775, 0.8624233487694254, a
-0.08521923068214275, 0.8038381758038183, 0.033487154523027224, 0.8826288678534384, a
-0.08521923068214275, 0.8038381758038183, -0.07947732174048114, 0.8993999573503281, a
-0.08521923068214275, 0.8038381758038183, 0.001401734404769949, 0.9568192938352374, a
-0.08521923068214275, 0.8038381758038183, 0.0683946493471531, 0.7948734382703821, a
-0.04598138993518885, 0.9399537181745776, 0.035765385601745685, 0.9279519229085031, a
-0.04598138993518885, 0.9399537181745776, -0.04107400906134775, 0.8624233487694254, a
-0.04598138993518885, 0.9399537181745776, 0.033487154523027224, 0.8826288678534384, a
-0.04598138993518885, 0.9399537181745776, -0.07947732174048114, 0.8993999573503281, a
-0.04598138993518885, 0.9399537181745776, 0.001401734404769949, 0.9568192938352374, a
-0.04598138993518885, 0.9399537181745776, 0.0683946493471531, 0.7948734382703821, a
0.035765385601745685, 0.9279519229085031, -0.04107400906134775, 0.8624233487694254, a
0.035765385601745685, 0.9279519229085031, 0.033487154523027224, 0.8826288678534384, a
0.035765385601745685, 0.9279519229085031, -0.07947732174048114, 0.8993999573503281, a
0.035765385601745685, 0.9279519229085031, 0.001401734404769949, 0.9568192938352374, a
0.035765385601745685, 0.9279519229085031, 0.0683946493471531, 0.7948734382703821, a
-0.04107400906134775, 0.8624233487694254, 0.033487154523027224, 0.8826288678534384, a
-0.04107400906134775, 0.8624233487694254, -0.07947732174048114, 0.8993999573503281, a
-0.04107400906134775, 0.8624233487694254, 0.001401734404769949, 0.9568192938352374, a
-0.04107400906134775, 0.8624233487694254, 0.0683946493471531, 0.7948734382703821, a
0.033487154523027224, 0.8826288678534384, -0.07947732174048114, 0.8993999573503281, a
0.033487154523027224, 0.8826288678534384, 0.001401734404769949, 0.9568192938352374, a
0.033487154523027224, 0.8826288678534384, 0.0683946493471531, 0.7948734382703821, a
-0.07947732174048114, 0.8993999573503281, 0.001401734404769949, 0.9568192938352374, a
-0.07947732174048114, 0.8993999573503281, 0.0683946493471531, 0.7948734382703821, a
0.001401734404769949, 0.9568192938352374, 0.0683946493471531, 0.7948734382703821, a
0.0683946493471531, 0.7948734382703821, 0.5456328090498451, 0.3935429178404015, a
0.5456328090498451, 0.3935429178404015, 0.6310371065419271, 0.26541699435811755, a
0.5456328090498451, 0.3935429178404015, 0.66423106365807, 0.32223426646250813, a
0.5456328090498451, 0.3935429178404015, 0.6771339764348543, 0.17875260978092114, a
0.5456328090498451, 0.3935429178404015, 0.7768401511059725, 0.33155985659714554, a
0.5456328090498451, 0.3935429178404015, 0.7010627974474578, 0.3464266825306653, a
0.5456328090498451, 0.3935429178404015, 0.7251436645439037, 0.1674370723290792, a
0.5456328090498451, 0.3935429178404015, 0.7791977643244808, 0.2940113539390884, a
0.5456328090498451, 0.3935429178404015, 0.7272105578082426, 0.28469683061728723, a
0.5456328090498451, 0.3935429178404015, 0.7531909758650391, 0.24350825807708518, a
0.5456328090498451, 0.3935429178404015, 0.7394536193046884, 0.3496563221654572, a
0.5456328090498451, 0.3935429178404015, 0.5972151886783239, 0.35980699663327376, a
0.5456328090498451, 0.3935429178404015, 0.7895379589929902, 0.23162907211194217, a
0.5456328090498451, 0.3935429178404015, 0.7202404279786332, 0.21147626103332812, a
0.5456328090498451, 0.3935429178404015, 0.6802527042806702, 0.23373600404369343, a
0.5456328090498451, 0.3935429178404015, 0.6781163054275233, 0.2821500379991337, a
0.5456328090498451, 0.3935429178404015, 0.6397813097277111, 0.21301005632314154, a
0.5456328090498451, 0.3935429178404015, 0.7688946043273713, 0.1890068891849592, a
0.5456328090498451, 0.3935429178404015, 0.48527764109836075, 0.1160636996937968, a
0.8240922073878433, 0.2539345388444681, 0.6310371065419271, 0.26541699435811755, a
0.8240922073878433, 0.2539345388444681, 0.66423106365807, 0.32223426646250813, a
0.8240922073878433, 0.2539345388444681, 0.6771339764348543, 0.17875260978092114, a
0.8240922073878433, 0.2539345388444681, 0.7768401511059725, 0.33155985659714554, a
0.8240922073878433, 0.2539345388444681, 0.7010627974474578, 0.3464266825306653, a
0.8240922073878433, 0.2539345388444681, 0.7251436645439037, 0.1674370723290792, a
0.8240922073878433, 0.2539345388444681, 0.7791977643244808, 0.2940113539390884, a
0.8240922073878433, 0.2539345388444681, 0.7272105578082426, 0.28469683061728723, a
0.8240922073878433, 0.2539345388444681, 0.7531909758650391, 0.24350825807708518, a
0.8240922073878433, 0.2539345388444681, 0.7394536193046884, 0.3496563221654572, a
0.8240922073878433, 0.2539345388444681, 0.5972151886783239, 0.35980699663327376, a
0.8240922073878433, 0.2539345388444681, 0.7895379589929902, 0.23162907211194217, a
0.8240922073878433, 0.2539345388444681, 0.7202404279786332, 0.21147626103332812, a
0.8240922073878433, 0.2539345388444681, 0.6802527042806702, 0.23373600404369343, a
0.8240922073878433, 0.2539345388444681, 0.6781163054275233, 0.2821500379991337, a
0.8240922073878433, 0.2539345388444681, 0.6397813097277111, 0.21301005632314154, a
0.8240922073878433, 0.2539345388444681, 0.7688946043273713, 0.1890068891849592, a
0.8240922073878433, 0.2539345388444681, 0.48527764109836075, 0.1160636996937968, a
0.6310371065419271, 0.26541699435811755, 0.66423106365807, 0.32223426646250813, a
0.6310371065419271, 0.26541699435811755, 0.6771339764348543, 0.17875260978092114, a
0.6310371065419271, 0.26541699435811755, 0.7768401511059725, 0.33155985659714554, a
0.6310371065419271, 0.26541699435811755, 0.7010627974474578, 0.3464266825306653, a
0.6310371065419271, 0.26541699435811755, 0.7251436645439037, 0.1674370723290792, a
0.6310371065419271, 0.26541699435811755, 0.7791977643244808, 0.2940113539390884, a
0.6310371065419271, 0.26541699435811755, 0.7272105578082426, 0.28469683061728723, a
0.6310371065419271, 0.26541699435811755, 0.7531909758650391, 0.24350825807708518, a
0.6310371065419271, 0.26541699435811755, 0.7394536193046884, 0.3496563221654572, a
0.6310371065419271, 0.26541699435811755, 0.5972151886783239, 0.35980699663327376, a
0.6310371065419271, 0.26541699435811755, 0.7895379589929902, 0.23162907211194217, a
0.6310371065419271, 0.26541699435811755, 0.7202404279786332, 0.21147626103332812, a
0.6310371065419271, 0.26541699435811755, 0.6802527042806702, 0.23373600404369343, a
0.6310371065419271, 0.26541699435811755, 0.6781163054275233, 0.2821500379991337, a
0.6310371065419271, 0.26541699435811755, 0.6397813097277111, 0.21301005632314154, a
0.6310371065419271, 0.26541699435811755, 0.7688946043273713, 0.1890068891849592, a
0.6310371065419271, 0.26541699435811755, 0.48527764109836075, 0.1160636996937968, a
0.66423106365807, 0.32223426646250813, 0.6771339764348543, 0.17875260978092114, a
0.66423106365807, 0.32223426646250813, 0.7768401511059725, 0.33155985659714554, a
0.66423106365807, 0.32223426646250813, 0.7010627974474578, 0.3464266825306653, a
0.66423106365807, 0.32223426646250813, 0.7251436645439037, 0.1674370723290792, a
0.66423106365807, 0.32223426646250813, 0.7791977643244808, 0.2940113539390884, a
0.66423106365807, 0.32223426646250813, 0.7272105578082426, 0.28469683061728723, a
0.66423106365807, 0.32223426646250813, 0.7531909758650391, 0.24350825807708518, a
0.66423106365807, 0.32223426646250813, 0.7394536193046884, 0.3496563221654572, a
0.66423106365807, 0.32223426646250813, 0.5972151886783239, 0.35980699663327376, a
0.66423106365807, 0.32223426646250813, 0.7895379589929902, 0.23162907211194217, a
0.66423106365807, 0.32223426646250813, 0.7202404279786332, 0.21147626103332812, a
0.66423106365807, 0.32223426646250813, 0.6802527042806702, 0.23373600404369343, a
0.66423106365807, 0.32223426646250813, 0.6781163054275233, 0.2821500379991337, a
0.66423106365807, 0.32223426646250813, 0.6397813097277111, 0.21301005632314154, a
0.66423106365807, 0.32223426646250813, 0.7688946043273713, 0.1890068891849592, a
0.66423106365807, 0.32223426646250813, 0.48527764109836075, 0.1160636996937968, a
0.6771339764348543, 0.17875260978092114, 0.7768401511059725, 0.33155985659714554, a
0.6771339764348543, 0.17875260978092114, 0.7010627974474578, 0.3464266825306653, a
0.6771339764348543, 0.17875260978092114, 0.7251436645439037, 0.1674370723290792, a
0.6771339764348543, 0.17875260978092114, 0.7791977643244808, 0.2940113539390884, a
0.6771339764348543, 0.17875260978092114, 0.7272105578082426, 0.28469683061728723, a
0.6771339764348543, 0.17875260978092114, 0.7531909758650391, 0.24350825807708518, a
0.6771339764348543, 0.17875260978092114, 0.7394536193046884, 0.3496563221654572, a
0.6771339764348543, 0.17875260978092114, 0.5972151886783239, 0.35980699663327376, a
0.6771339764348543, 0.17875260978092114, 0.7895379589929902, 0.23162907211194217, a
0.6771339764348543, 0.17875260978092114, 0.7202404279786332, 0.21147626103332812, a
0.6771339764348543, 0.17875260978092114, 0.6802527042806702, 0.23373600404369343, a
0.6771339764348543, 0.17875260978092114, 0.6781163054275233, 0.2821500379991337, a
0.6771339764348543, 0.17875260978092114, 0.6397813097277111, 0.21301005632314154, a
0.6771339764348543, 0.17875260978092114, 0.7688946043273713, 0.1890068891849592, a
0.6771339764348543, 0.17875260978092114, 0.48527764109836075, 0.1160636996937968, a
0.7768401511059725, 0.33155985659714554, 0.7010627974474578, 0.3464266825306653, a
0.7768401511059725, 0.33155985659714554, 0.7251436645439037, 0.1674370723290792, a
0.7768401511059725, 0.33155985659714554, 0.7791977643244808, 0.2940113539390884, a
0.7768401511059725, 0.33155985659714554, 0.7272105578082426, 0.28469683061728723, a
0.7768401511059725, 0.33155985659714554, 0.7531909758650391, 0.24350825807708518, a
0.7768401511059725, 0.33155985659714554, 0.7394536193046884, 0.3496563221654572, a
0.7768401511059725, 0.33155985659714554, 0.5972151886783239, 0.35980699663327376, a
0.7768401511059725, 0.33155985659714554, 0.7895379589929902, 0.23162907211194217, a
0.7768401511059725, 0.33155985659714554, 0.7202404279786332, 0.21147626103332812, a
0.7768401511059725, 0.33155985659714554, 0.6802527042806702, 0.23373600404369343, a
0.7768401511059725, 0.33155985659714554, 0.6781163054275233, 0.2821500379991337, a
0.7768401511059725, 0.33155985659714554, 0.6397813097277111, 0.21301005632314154, a
0.7768401511059725, 0.33155985659714554, 0.7688946043273713, 0.1890068891849592, a
0.7768401511059725, 0.33155985659714554, 0.48527764109836075, 0.1160636996937968, a
0.7010627974474578, 0.3464266825306653, 0.7251436645439037, 0.1674370723290792, a
0.7010627974474578, 0.3464266825306653, 0.7791977643244808, 0.2940113539390884, a
0.7010627974474578, 0.3464266825306653, 0.7272105578082426, 0.28469683061728723, a
0.7010627974474578, 0.3464266825306653, 0.7531909758650391, 0.24350825807708518, a
0.7010627974474578, 0.3464266825306653, 0.7394536193046884, 0.3496563221654572, a
0.7010627974474578, 0.3464266825306653, 0.5972151886783239, 0.35980699663327376, a
0.7010627974474578, 0.3464266825306653, 0.7895379589929902, 0.23162907211194217, a
0.7010627974474578, 0.3464266825306653, 0.7202404279786332, 0.21147626103332812, a
0.7010627974474578, 0.3464266825306653, 0.6802527042806702, 0.23373600404369343, a
0.7010627974474578, 0.3464266825306653, 0.6781163054275233, 0.2821500379991337, a
0.7010627974474578, 0.3464266825306653, 0.6397813097277111, 0.21301005632314154, a
0.7010627974474578, 0.3464266825306653, 0.7688946043273713, 0.1890068891849592, a
0.7010627974474578, 0.3464266825306653, 0.48527764109836075, 0.1160636996937968, a
0.7251436645439037, 0.1674370723290792, 0.7791977643244808, 0.2940113539390884, a
0.7251436645439037, 0.1674370723290792, 0.7272105578082426, 0.28469683061728723, a
0.7251436645439037, 0.1674370723290792, 0.7531909758650391, 0.24350825807708518, a
0.7251436645439037, 0.1674370723290792, 0.7394536193046884, 0.3496563221654572, a
0.7251436645439037, 0.1674370723290792, 0.5972151886783239, 0.35980699663327376, a
0.7251436645439037, 0.1674370723290792, 0.7895379589929902, 0.23162907211194217, a
0.7251436645439037, 0.1674370723290792, 0.7202404279786332, 0.21147626103332812, a
0.7251436645439037, 0.1674370723290792, 0.6802527042806702, 0.23373600404369343, a
0.7251436645439037, 0.1674370723290792, 0.6781163054275233, 0.2821500379991337, a
0.7251436645439037, 0.1674370723290792, 0.6397813097277111, 0.21301005632314154, a
0.7251436645439037, 0.1674370723290792, 0.7688946043273713, 0.1890068891849592, a
0.7251436645439037, 0.1674370723290792, 0.48527764109836075, 0.1160636996937968, a
0.7791977643244808, 0.2940113539390884, 0.7272105578082426, 0.28469683061728723, a
0.7791977643244808, 0.2940113539390884, 0.7531909758650391, 0.24350825807708518, a
0.7791977643244808, 0.2940113539390884, 0.7394536193046884, 0.3496563221654572, a
0.7791977643244808, 0.2940113539390884, 0.5972151886783239, 0.35980699663327376, a
0.7791977643244808, 0.2940113539390884, 0.7895379589929902, 0.23162907211194217, a
0.7791977643244808, 0.2940113539390884, 0.7202404279786332, 0.21147626103332812, a
0.7791977643244808, 0.2940113539390884, 0.6802527042806702, 0.23373600404369343, a
0.7791977643244808, 0.2940113539390884, 0.6781163054275233, 0.2821500379991337, a
0.7791977643244808, 0.2940113539390884, 0.6397813097277111, 0.21301005632314154, a
0.7791977643244808, 0.2940113539390884, 0.7688946043273713, 0.1890068891849592, a
0.7791977643244808, 0.2940113539390884, 0.48527764109836075, 0.1160636996937968, a
0.7272105578082426, 0.28469683061728723, 0.7531909758650391, 0.24350825807708518, a
0.7272105578082426, 0.28469683061728723, 0.7394536193046884, 0.3496563221654572, a
0.7272105578082426, 0.28469683061728723, 0.5972151886783239, 0.35980699663327376, a
0.7272105578082426, 0.28469683061728723, 0.7895379589929902, 0.23162907211194217, a
0.7272105578082426, 0.28469683061728723, 0.7202404279786332, 0.21147626103332812, a
0.7272105578082426, 0.28469683061728723, 0.6802527042806702, 0.23373600404369343, a
0.7272105578082426, 0.28469683061728723, 0.6781163054275233, 0.2821500379991337, a
0.7272105578082426, 0.28469683061728723, 0.6397813097277111, 0.21301005632314154, a
0.7272105578082426, 0.28469683061728723, 0.7688946043273713, 0.1890068891849592, a
0.7272105578082426, 0.28469683061728723, 0.48527764109836075, 0.1160636996937968, a
0.7531909758650391, 0.24350825807708518, 0.7394536193046884, 0.3496563221654572, a
0.7531909758650391, 0.24350825807708518, 0.5972151886783239, 0.35980699663327376, a
0.7531909758650391, 0.24350825807708518, 0.7895379589929902, 0.23162907211194217, a
0.7531909758650391, 0.24350825807708518, 0.7202404279786332, 0.21147626103332812, a
0.7531909758650391, 0.24350825807708518, 0.6802527042806702, 0.23373600404369343, a
0.7531909758650391, 0.24350825807708518, 0.6781163054275233, 0.2821500379991337, a
0.7531909758650391, 0.24350825807708518, 0.6397813097277111, 0.21301005632314154, a
0.7531909758650391, 0.24350825807708518, 0.7688946043273713, 0.1890068891849592, a
0.7531909758650391, 0.24350825807708518, 0.48527764109836075, 0.1160636996937968, a
0.7394536193046884, 0.3496563221654572, 0.5972151886783239, 0.35980699663327376, a
0.7394536193046884, 0.3496563221654572, 0.7895379589929902, 0.23162907211194217, a
0.7394536193046884, 0.3496563221654572, 0.7202404279786332, 0.21147626103332812, a
0.7394536193046884, 0.3496563221654572, 0.6802527042806702, 0.23373600404369343, a
0.7394536193046884, 0.3496563221654572, 0.6781163054275233, 0.2821500379991337, a
0.7394536193046884, 0.3496563221654572, 0.6397813097277111, 0.21301005632314154, a
0.7394536193046884, 0.3496563221654572, 0.7688946043273713, 0.1890068891849592, a
0.7394536193046884, 0.3496563221654572, 0.48527764109836075, 0.1160636996937968, a
0.5972151886783239, 0.35980699663327376, 0.7895379589929902, 0.23162907211194217, a
0.5972151886783239, 0.35980699663327376, 0.7202404279786332, 0.21147626103332812, a
0.5972151886783239, 0.35980699663327376, 0.6802527042806702, 0.23373600404369343, a
0.5972151886783239, 0.35980699663327376, 0.6781163054275233, 0.2821500379991337, a
0.5972151886783239, 0.35980699663327376, 0.6397813097277111, 0.21301005632314154, a
0.5972151886783239, 0.35980699663327376, 0.7688946043273713, 0.1890068891849592, a
0.5972151886783239, 0.35980699663327376, 0.48527764109836075, 0.1160636996937968, a
0.7895379589929902, 0.23162907211194217, 0.7202404279786332, 0.21147626103332812, a
0.7895379589929902, 0.23162907211194217, 0.6802527042806702, 0.23373600404369343, a
0.7895379589929902, 0.23162907211194217, 0.6781163054275233, 0.2821500379991337, a
0.7895379589929902, 0.23162907211194217, 0.6397813097277111, 0.21301005632314154, a
0.7895379589929902, 0.23162907211194217, 0.7688946043273713, 0.1890068891849592, a
0.7895379589929902, 0.23162907211194217, 0.48527764109836075, 0.1160636996937968, a
0.7202404279786332, 0.21147626103332812, 0.6802527042806702, 0.23373600404369343, a
0.7202404279786332, 0.21147626103332812, 0.6781163054275233, 0.2821500379991337, a
0.7202404279786332, 0.21147626103332812, 0.6397813097277111, 0.21301005632314154, a
0.7202404279786332, 0.21147626103332812, 0.7688946043273713, 0.1890068891849592, a
0.7202404279786332, 0.21147626103332812, 0.48527764109836075, 0.1160636996937968, a
0.6802527042806702, 0.23373600404369343, 0.6781163054275233, 0.2821500379991337, a
0.6802527042806702, 0.23373600404369343, 0.6397813097277111, 0.21301005632314154, a
0.6802527042806702, 0.23373600404369343, 0.7688946043273713, 0.1890068891849592, a
0.6802527042806702, 0.23373600404369343, 0.48527764109836075, 0.1160636996937968, a
0.6781163054275233, 0.2821500379991337, 0.6397813097277111, 0.21301005632314154, a
0.6781163054275233, 0.2821500379991337, 0.7688946043273713, 0.1890068891849592, a
0.6781163054275233, 0.2821500379991337, 0.48527764109836075, 0.1160636996937968, a
0.6397813097277111, 0.21301005632314154, 0.7688946043273713, 0.1890068891849592, a
0.6397813097277111, 0.21301005632314154, 0.48527764109836075, 0.1160636996937968, a
0.7688946043273713, 0.1890068891849592, 0.48527764109836075, 0.1160636996937968, a
0.48527764109836075, 0.1160636996937968, -0.5178800833134308, -0.5328839765762019, a
-0.5178800833134308, -0.5328839765762019, -0.7979308778355563, -0.7736603291197294, a
-0.5178800833134308, -0.5328839765762019, -0.7834969178199734, -0.5932177903629277, a
-0.5178800833134308, -0.5328839765762019, -0.8150956235204747, -0.6824940824917783, a
-0.5178800833134308, -0.5328839765762019, -0.772103318600328, -0.7311704551109474, a
-0.5178800833134308, -0.5328839765762019, -0.7374639060695586, -0.5983493783235115, a
-0.5178800833134308, -0.5328839765762019, -0.6799831477953415, -0.751482717063861, a
-0.5178800833134308, -0.5328839765762019, -0.6892697989368174, -0.6602259780518026, a
-0.5178800833134308, -0.5328839765762019, -0.8275987582700404, -0.6190307117082268, a
-0.5178800833134308, -0.5328839765762019, -0.7555560615718844, -0.6795790324869366, a
-0.5178800833134308, -0.5328839765762019, -0.8513903657114728, -0.6644975055780277, a
-0.5178800833134308, -0.5328839765762019, -0.7148207378526449, -0.7791422331395447, a
-0.5178800833134308, -0.5328839765762019, -0.8223967025433011, -0.7237583972299869, a
-0.5178800833134308, -0.5328839765762019, -0.7236443059845732, -0.6363041735470518, a
-0.5178800833134308, -0.5328839765762019, -0.6810423699072596, -0.7066689704055167, a
-0.5178800833134308, -0.5328839765762019, -0.7866987029312734, -0.640010170141763, a
-0.5178800833134308, -0.5328839765762019, -0.7259058232035281, -0.7251135369629321, a
-0.5178800833134308, -0.5328839765762019, -0.7555727476876636, -0.7866870228794207, a
-0.5178800833134308, -0.5328839765762019, -0.6161809587029727, -0.6539564066695075, a
-0.8593424765381354, -0.7533412921004096, -0.7979308778355563, -0.7736603291197294, a
-0.8593424765381354, -0.7533412921004096, -0.7834969178199734, -0.5932177903629277, a
-0.8593424765381354, -0.7533412921004096, -0.8150956235204747, -0.6824940824917783, a
-0.8593424765381354, -0.7533412921004096, -0.772103318600328, -0.7311704551109474, a
-0.8593424765381354, -0.7533412921004096, -0.7374639060695586, -0.5983493783235115, a
-0.8593424765381354, -0.7533412921004096, -0.6799831477953415, -0.751482717063861, a
-0.8593424765381354, -0.7533412921004096, -0.6892697989368174, -0.6602259780518026, a
-0.8593424765381354, -0.7533412921004096, -0.8275987582700404, -0.6190307117082268, a
-0.8593424765381354, -0.7533412921004096, -0.7555560615718844, -0.6795790324869366, a
-0.8593424765381354, -0.7533412921004096, -0.8513903657114728, -0.6644975055780277, a
-0.8593424765381354, -0.7533412921004096, -0.7148207378526449, -0.7791422331395447, a
-0.8593424765381354, -0.7533412921004096, -0.8223967025433011, -0.7237583972299869, a
-0.8593424765381354, -0.7533412921004096, -0.7236443059845732, -0.6363041735470518, a
-0.8593424765381354, -0.7533412921004096, -0.6810423699072596, -0.7066689704055167, a
-0.8593424765381354, -0.7533412921004096, -0.7866987029312734, -0.640010170141763, a
-0.8593424765381354, -0.7533412921004096, -0.7259058232035281, -0.7251135369629321, a
-0.8593424765381354, -0.7533412921004096, -0.7555727476876636, -0.7866870228794207, a
-0.8593424765381354, -0.7533412921004096, -0.6161809587029727, -0.6539564066695075, a
-0.7979308778355563, -0.7736603291197294, -0.7834969178199734, -0.5932177903629277, a
-0.7979308778355563, -0.7736603291197294, -0.8150956235204747, -0.6824940824917783, a
-0.7979308778355563, -0.7736603291197294, -0.772103318600328, -0.7311704551109474, a
-0.7979308778355563, -0.7736603291197294, -0.7374639060695586, -0.5983493783235115, a
-0.7979308778355563, -0.7736603291197294, -0.6799831477953415, -0.751482717063861, a
-0.7979308778355563, -0.7736603291197294, -0.6892697989368174, -0.6602259780518026, a
-0.7979308778355563, -0.7736603291197294, -0.8275987582700404, -0.6190307117082268, a
-0.7979308778355563, -0.7736603291197294, -0.7555560615718844, -0.6795790324869366, a
-0.7979308778355563, -0.7736603291197294, -0.8513903657114728, -0.6644975055780277, a
-0.7979308778355563, -0.7736603291197294, -0.7148207378526449, -0.7791422331395447, a
-0.7979308778355563, -0.7736603291197294, -0.8223967025433011, -0.7237583972299869, a
-0.7979308778355563, -0.7736603291197294, -0.7236443059845732, -0.6363041735470518, a
-0.7979308778355563, -0.7736603291197294, -0.6810423699072596, -0.7066689704055167, a
-0.7979308778355563, -0.7736603291197294, -0.7866987029312734, -0.640010170141763, a
-0.7979308778355563, -0.7736603291197294, -0.7259058232035281, -0.7251135369629321, a
-0.7979308778355563, -0.7736603291197294, -0.7555727476876636, -0.7866870228794207, a
-0.7979308778355563, -0.7736603291197294, -0.6161809587029727, -0.6539564066695075, a
-0.7834969178199734, -0.5932177903629277, -0.8150956235204747, -0.6824940824917783, a
-0.7834969178199734, -0.5932177903629277, -0.772103318600328, -0.7311704551109474, a
-0.7834969178199734, -0.5932177903629277, -0.7374639060695586, -0.5983493783235115, a
-0.7834969178199734, -0.5932177903629277, -0.6799831477953415, -0.751482717063861, a
-0.7834969178199734, -0.5932177903629277, -0.6892697989368174, -0.6602259780518026, a
-0.7834969178199734, -0.5932177903629277, -0.8275987582700404, -0.6190307117082268, a
-0.7834969178199734, -0.5932177903629277, -0.7555560615718844, -0.6795790324869366, a
-0.7834969178199734, -0.5932177903629277, -0.8513903657114728, -0.6644975055780277, a
-0.7834969178199734, -0.5932177903629277, -0.7148207378526449, -0.7791422331395447, a
-0.7834969178199734, -0.5932177903629277, -0.8223967025433011, -0.7237583972299869, a
-0.7834969178199734, -0.5932177903629277, -0.7236443059845732, -0.6363041735470518, a
-0.7834969178199734, -0.5932177903629277, -0.6810423699072596, -0.7066689704055167, a
-0.7834969178199734, -0.5932177903629277, -0.7866987029312734, -0.640010170141763, a
-0.7834969178199734, -0.5932177903629277, -0.7259058232035281, -0.7251135369629321, a
-0.7834969178199734, -0.5932177903629277, -0.7555727476876636, -0.7866870228794207, a
-0.7834969178199734, -0.5932177903629277, -0.6161809587029727, -0.6539564066695075, a
-0.8150956235204747, -0.6824940824917783, -0.772103318600328, -0.7311704551109474, a
-0.8150956235204747, -0.6824940824917783, -0.7374639060695586, -0.5983493783235115, a
-0.8150956235204747, -0.6824940824917783, -0.6799831477953415, -0.751482717063861, a
-0.8150956235204747, -0.6824940824917783, -0.6892697989368174, -0.6602259780518026, a
-0.8150956235204747, -0.6824940824917783, -0.8275987582700404, -0.6190307117082268, a
-0.8150956235204747, -0.6824940824917783, -0.7555560615718844, -0.6795790324869366, a
-0.8150956235204747, -0.6824940824917783, -0.8513903657114728, -0.6644975055780277, a
-0.8150956235204747, -0.6824940824917783, -0.7148207378526449, -0.7791422331395447, a
-0.8150956235204747, -0.6824940824917783, -0.8223967025433011, -0.7237583972299869, a
-0.8150956235204747, -0.6824940824917783, -0.7236443059845732, -0.6363041735470518, a
-0.8150956235204747, -0.6824940824917783, -0.6810423699072596, -0.7066689704055167, a
-0.8150956235204747, -0.6824940824917783, -0.7866987029312734, -0.640010170141763, a
-0.8150956235204747, -0.6824940824917783, -0.7259058232035281, -0.7251135369629321, a
-0.8150956235204747, -0.6824940824917783, -0.7555727476876636, -0.7866870228794207, a
-0.8150956235204747, -0.6824940824917783, -0.6161809587029727, -0.6539564066695075, a
-0.772103318600328, -0.7311704551109474, -0.7374639060695586, -0.5983493783235115, a
-0.772103318600328, -0.7311704551109474, -0.6799831477953415, -0.751482717063861, a
-0.772103318600328, -0.7311704551109474, -0.6892697989368174, -0.6602259780518026, a
-0.772103318600328, -0.7311704551109474, -0.8275987582700404, -0.6190307117082268, a
-0.772103318600328, -0.7311704551109474, -0.7555560615718844, -0.6795790324869366, a
-0.772103318600328, -0.7311704551109474, -0.8513903657114728, -0.6644975055780277, a
-0.772103318600328, -0.7311704551109474, -0.7148207378526449, -0.7791422331395447, a
-0.772103318600328, -0.7311704551109474, -0.8223967025433011, -0.7237583972299869, a
-0.772103318600328, -0.7311704551109474, -0.7236443059845732, -0.6363041735470518, a
-0.772103318600328, -0.7311704551109474, -0.6810423699072596, -0.7066689704055167, a
-0.772103318600328, -0.7311704551109474, -0.7866987029312734, -0.640010170141763, a
-0.772103318600328, -0.7311704551109474, -0.7259058232035281, -0.7251135369629321, a
-0.772103318600328, -0.7311704551109474, -0.7555727476876636, -0.7866870228794207, a
-0.772103318600328, -0.7311704551109474, -0.6161809587029727, -0.6539564066695075, a
-0.7374639060695586, -0.5983493783235115, -0.6799831477953415, -0.751482717063861, a
-0.7374639060695586, -0.5983493783235115, -0.6892697989368174, -0.6602259780518026, a
-0.7374639060695586, -0.5983493783235115, -0.8275987582700404, -0.6190307117082268, a
-0.7374639060695586, -0.5983493783235115, -0.7555560615718844, -0.6795790324869366, a
-0.7374639060695586, -0.5983493783235115, -0.8513903657114728, -0.6644975055780277, a
-0.7374639060695586, -0.5983493783235115, -0.7148207378526449, -0.7791422331395447, a
-0.7374639060695586, -0.5983493783235115, -0.8223967025433011, -0.7237583972299869, a
-0.7374639060695586, -0.5983493783235115, -0.7236443059845732, -0.6363041735470518, a
-0.7374639060695586, -0.5983493783235115, -0.6810423699072596, -0.7066689704055167, a
-0.7374639060695586, -0.5983493783235115, -0.7866987029312734, -0.640010170141763, a
-0.7374639060695586, -0.5983493783235115, -0.7259058232035281, -0.7251135369629321, a
-0.7374639060695586, -0.5983493783235115, -0.7555727476876636, -0.7866870228794207, a
-0.7374639060695586, -0.5983493783235115, -0.6161809587029727, -0.6539564066695075, a
-0.6799831477953415, -0.751482717063861, -0.6892697989368174, -0.6602259780518026, a
-0.6799831477953415, -0.751482717063861, -0.8275987582700404, -0.6190307117082268, a
-0.6799831477953415, -0.751482717063861, -0.7555560615718844, -0.6795790324869366, a
-0.6799831477953415, -0.751482717063861, -0.8513903657114728, -0.6644975055780277, a
-0.6799831477953415, -0.751482717063861, -0.7148207378526449, -0.7791422331395447, a
-0.6799831477953415, -0.751482717063861, -0.8223967025433011, -0.7237583972299869, a
-0.6799831477953415, -0.751482717063861, -0.7236443059845732, -0.6363041735470518, a
-0.6799831477953415, -0.751482717063861, -0.6810423699072596, -0.7066689704055167, a
-0.6799831477953415, -0.751482717063861, -0.7866987029312734, -0.640010170141763, a
-0.6799831477953415, -0.751482717063861, -0.7259058232035281, -0.7251135369629321, a
-0.6799831477953415, -0.751482717063861, -0.7555727476876636, -0.7866870228794207, a
-0.6799831477953415, -0.751482717063861, -0.6161809587029727, -0.6539564066695075, a
-0.6892697989368174, -0.6602259780518026, -0.8275987582700404, -0.6190307117082268, a
-0.6892697989368174, -0.6602259780518026, -0.7555560615718844, -0.6795790324869366, a
-0.6892697989368174, -0.6602259780518026, -0.8513903657114728, -0.6644975055780277, a
-0.6892697989368174, -0.6602259780518026, -0.7148207378526449, -0.7791422331395447, a
-0.6892697989368174, -0.6602259780518026, -0.8223967025433011, -0.7237583972299869, a
-0.6892697989368174, -0.6602259780518026, -0.7236443059845732, -0.6363041735470518, a
-0.6892697989368174, -0.6602259780518026, -0.6810423699072596, -0.7066689704055167, a
-0.6892697989368174, -0.6602259780518026, -0.7866987029312734, -0.640010170141763, a
-0.6892697989368174, -0.6602259780518026, -0.7259058232035281, -0.7251135369629321, a
-0.6892697989368174, -0.6602259780518026, -0.7555727476876636, -0.7866870228794207, a
-0.6892697989368174, -0.6602259780518026, -0.6161809587029727, -0.6539564066695075, a
-0.8275987582700404, -0.6190307117082268, -0.7555560615718844, -0.6795790324869366, a
-0.8275987582700404, -0.6190307117082268, -0.8513903657114728, -0.6644975055780277, a
-0.8275987582700404, -0.6190307117082268, -0.7148207378526449, -0.7791422331395447, a
-0.8275987582700404, -0.6190307117082268, -0.8223967025433011, -0.7237583972299869, a
-0.8275987582700404, -0.6190307117082268, -0.7236443059845732, -0.6363041735470518, a
-0.8275987582700404, -0.6190307117082268, -0.6810423699072596, -0.7066689704055167, a
-0.8275987582700404, -0.6190307117082268, -0.7866987029312734, -0.640010170141763, a
-0.8275987582700404, -0.6190307117082268, -0.7259058232035281, -0.7251135369629321, a
-0.8275987582700404, -0.6190307117082268, -0.7555727476876636, -0.7866870228794207, a
-0.8275987582700404, -0.6190307117082268, -0.6161809587029727, -0.6539564066695075, a
-0.7555560615718844, -0.6795790324869366, -0.8513903657114728, -0.6644975055780277, a
-0.7555560615718844, -0.6795790324869366, -0.7148207378526449, -0.7791422331395447, a
-0.7555560615718844, -0.6795790324869366, -0.8223967025433011, -0.7237583972299869, a
-0.7555560615718844, -0.6795790324869366, -0.7236443059845732, -0.6363041735470518, a
-0.7555560615718844, -0.6795790324869366, -0.6810423699072596, -0.7066689704055167, a
-0.7555560615718844, -0.6795790324869366, -0.7866987029312734, -0.640010170141763, a
-0.7555560615718844, -0.6795790324869366, -0.7259058232035281, -0.7251135369629321, a
-0.7555560615718844, -0.6795790324869366, -0.7555727476876636, -0.7866870228794207, a
-0.7555560615718844, -0.6795790324869366, -0.6161809587029727, -0.6539564066695075, a
-0.8513903657114728, -0.6644975055780277, -0.7148207378526449, -0.7791422331395447, a
-0.8513903657114728, -0.6644975055780277, -0.8223967025433011, -0.7237583972299869, a
-0.8513903657114728, -0.6644975055780277, -0.7236443059845732, -0.6363041735470518, a
-0.8513903657114728, -0.6644975055780277, -0.6810423699072596, -0.7066689704055167, a
-0.8513903657114728, -0.6644975055780277, -0.7866987029312734, -0.640010170141763, a
-0.8513903657114728, -0.6644975055780277, -0.7259058232035281, -0.7251135369629321, a
-0.8513903657114728, -0.6644975055780277, -0.7555727476876636, -0.7866870228794207, a
-0.8513903657114728, -0.6644975055780277, -0.6161809587029727, -0.6539564066695075, a
-0.7148207378526449, -0.7791422331395447, -0.8223967025433011, -0.7237583972299869, a
-0.7148207378526449, -0.7791422331395447, -0.7236443059845732, -0.6363041735470518, a
-0.7148207378526449, -0.7791422331395447, -0.6810423699072596, -0.7066689704055167, a
-0.7148207378526449, -0.7791422331395447, -0.7866987029312734, -0.640010170141763, a
-0.7148207378526449, -0.7791422331395447, -0.7259058232035281, -0.7251135369629321, a
-0.7148207378526449, -0.7791422331395447, -0.7555727476876636, -0.7866870228794207, a
-0.7148207378526449, -0.7791422331395447, -0.6161809587029727, -0.6539564066695075, a
-0.8223967025433011, -0.7237583972299869, -0.7236443059845732, -0.6363041735470518, a
-0.8223967025433011, -0.7237583972299869, -0.6810423699072596, -0.7066689704055167, a
-0.8223967025433011, -0.7237583972299869, -0.7866987029312734, -0.640010170141763, a
-0.8223967025433011, -0.7237583972299869, -0.7259058232035281, -0.7251135369629321, a
-0.8223967025433011, -0.7237583972299869, -0.7555727476876636, -0.7866870228794207, a
-0.8223967025433011, -0.7237583972299869, -0.6161809587029727, -0.6539564066695075, a
-0.7236443059845732, -0.6363041735470518, -0.6810423699072596, -0.7066689704055167, a
-0.7236443059845732, -0.6363041735470518, -0.7866987029312734, -0.640010170141763, a
-0.7236443059845732, -0.6363041735470518, -0.7259058232035281, -0.7251135369629321, a
-0.7236443059845732, -0.6363041735470518, -0.7555727476876636, -0.7866870228794207, a
-0.7236443059845732, -0.6363041735470518, -0.6161809587029727, -0.6539564066695075, a
-0.6810423699072596, -0.7066689704055167, -0.7866987029312734, -0.640010170141763, a
-0.6810423699072596, -0.7066689704055167, -0.7259058232035281, -0.7251135369629321, a
-0.6810423699072596, -0.7066689704055167, -0.7555727476876636, -0.7866870228794207, a
-0.6810423699072596, -0.7066689704055167, -0.6161809587029727, -0.6539564066695075, a
-0.7866987029312734, -0.640010170141763, -0.7259058232035281, -0.7251135369629321, a
-0.7866987029312734, -0.640010170141763, -0.7555727476876636, -0.7866870228794207, a
-0.7866987029312734, -0.640010170141763, -0.6161809587029727, -0.6539564066695075, a
-0.7259058232035281, -0.7251135369629321, -0.7555727476876636, -0.7866870228794207, a
-0.7259058232035281, -0.7251135369629321, -0.6161809587029727, -0.6539564066695075, a
-0.7555727476876636, -0.7866870228794207, -0.6161809587029727, -0.6539564066695075, a
-0.6161809587029727, -0.6539564066695075, -0.061443023253001126, -0.49336160038674765, a
-0.061443023253001126, -0.49336160038674765, 0.01242078047874109, -0.4170317463781803, a
-0.061443023253001126, -0.49336160038674765, 0.0735265766824524, -0.4145468333981007, a
-0.061443023253001126, -0.49336160038674765, 0.013018930937885814, -0.4612390096445366, a
-0.061443023253001126, -0.49336160038674765, 0.14621782980883935, -0.5422732314336286, a
-0.061443023253001126, -0.49336160038674765, 0.09291708045974695, -0.5054431748933614, a
-0.061443023253001126, -0.49336160038674765, 0.0561696833249431, -0.5427126906317101, a
-0.061443023253001126, -0.49336160038674765, 0.13418625807652163, -0.37453456176908384, a
-0.061443023253001126, -0.49336160038674765, 0.12415677635819812, -0.42478220193361355, a
-0.061443023253001126, -0.49336160038674765, 0.08791015129185191, -0.3658565136115512, a
-0.061443023253001126, -0.49336160038674765, 0.10278650819360222, -0.5461075076406635, a
-0.061443023253001126, -0.49336160038674765, 0.06452119083230416, -0.46254420205421015, a
-0.061443023253001126, -0.49336160038674765, 0.039017268602340116, -0.38078469139418053, a
-0.061443023253001126, -0.49336160038674765, 0.029257845116877065, -0.5053372894685518, a
-0.061443023253001126, -0.49336160038674765, 0.1690669628382305, -0.5048545690298886, a
-0.061443023253001126, -0.49336160038674765, 0.17655845708129056, -0.4434670001625667, a
-0.061443023253001126, -0.49336160038674765, 0.1737636274093114, -0.39966021883784414, a
-0.061443023253001126, -0.49336160038674765, 0.1313761956564694, -0.47337602389726996, a
-0.061443023253001126, -0.49336160038674765, 0.06753373174780329, -0.24569863802571457, a
0.21161209835060582, -0.4739432064108761, 0.01242078047874109, -0.4170317463781803, a
0.21161209835060582, -0.4739432064108761, 0.0735265766824524, -0.4145468333981007, a
0.21161209835060582, -0.4739432064108761, 0.013018930937885814, -0.4612390096445366, a
0.21161209835060582, -0.4739432064108761, 0.14621782980883935, -0.5422732314336286, a
0.21161209835060582, -0.4739432064108761, 0.09291708045974695, -0.5054431748933614, a
0.21161209835060582, -0.4739432064108761, 0.0561696833249431, -0.5427126906317101, a
0.21161209835060582, -0.4739432064108761, 0.13418625807652163, -0.37453456176908384, a
0.21161209835060582, -0.4739432064108761, 0.12415677635819812, -0.42478220193361355, a
0.21161209835060582, -0.4739432064108761, 0.08791015129185191, -0.3658565136115512, a
0.21161209835060582, -0.4739432064108761, 0.10278650819360222, -0.5461075076406635, a
0.21161209835060582, -0.4739432064108761, 0.06452119083230416, -0.46254420205421015, a
0.21161209835060582, -0.4739432064108761, 0.039017268602340116, -0.38078469139418053, a
0.21161209835060582, -0.4739432064108761, 0.029257845116877065, -0.5053372894685518, a
0.21161209835060582, -0.4739432064108761, 0.1690669628382305, -0.5048545690298886, a
0.21161209835060582, -0.4739432064108761, 0.17655845708129056, -0.4434670001625667, a
0.21161209835060582, -0.4739432064108761, 0.1737636274093114, -0.39966021883784414, a
0.21161209835060582, -0.4739432064108761, 0.1313761956564694, -0.47337602389726996, a
0.21161209835060582, -0.4739432064108761, 0.06753373174780329, -0.24569863802571457, a
0.01242078047874109, -0.4170317463781803, 0.0735265766824524, -0.4145468333981007, a
0.01242078047874109, -0.4170317463781803, 0.013018930937885814, -0.4612390096445366, a
0.01242078047874109, -0.4170317463781803, 0.14621782980883935, -0.5422732314336286, a
0.01242078047874109, -0.4170317463781803, 0.09291708045974695, -0.5054431748933614, a
0.01242078047874109, -0.4170317463781803, 0.0561696833249431, -0.5427126906317101, a
0.01242078047874109, -0.4170317463781803, 0.13418625807652163, -0.37453456176908384, a
0.01242078047874109, -0.4170317463781803, 0.12415677635819812, -0.42478220193361355, a
0.01242078047874109, -0.4170317463781803, 0.08791015129185191, -0.3658565136115512, a
0.01242078047874109, -0.4170317463781803, 0.10278650819360222, -0.5461075076406635, a
0.01242078047874109, -0.4170317463781803, 0.06452119083230416, -0.46254420205421015, a
0.01242078047874109, -0.4170317463781803, 0.039017268602340116, -0.38078469139418053, a
0.01242078047874109, -0.4170317463781803, 0.029257845116877065, -0.5053372894685518, a
0.01242078047874109, -0.4170317463781803, 0.1690669628382305, -0.5048545690298886, a
0.01242078047874109, -0.4170317463781803, 0.17655845708129056, -0.4434670001625667, a
0.01242078047874109, -0.4170317463781803, 0.1737636274093114, -0.39966021883784414, a
0.01242078047874109, -0.4170317463781803, 0.1313761956564694, -0.47337602389726996, a
0.01242078047874109, -0.4170317463781803, 0.06753373174780329, -0.24569863802571457, a
0.0735265766824524, -0.4145468333981007, 0.013018930937885814, -0.4612390096445366, a
0.0735265766824524, -0.4145468333981007, 0.14621782980883935, -0.5422732314336286, a
0.0735265766824524, -0.4145468333981007, 0.09291708045974695, -0.5054431748933614, a
0.0735265766824524, -0.4145468333981007, 0.0561696833249431, -0.5427126906317101, a
0.0735265766824524, -0.4145468333981007, 0.13418625807652163, -0.37453456176908384, a
0.0735265766824524, -0.4145468333981007, 0.12415677635819812, -0.42478220193361355, a
0.0735265766824524, -0.4145468333981007, 0.08791015129185191, -0.3658565136115512, a
0.0735265766824524, -0.4145468333981007, 0.10278650819360222, -0.5461075076406635, a
0.0735265766824524, -0.4145468333981007, 0.06452119083230416, -0.46254420205421015, a
0.0735265766824524, -0.4145468333981007, 0.039017268602340116, -0.38078469139418053, a
0.0735265766824524, -0.4145468333981007, 0.029257845116877065, -0.5053372894685518, a
0.0735265766824524, -0.4145468333981007, 0.1690669628382305, -0.5048545690298886, a
0.0735265766824524, -0.4145468333981007, 0.17655845708129056, -0.4434670001625667, a
0.0735265766824524, -0.4145468333981007, 0.1737636274093114, -0.39966021883784414, a
0.0735265766824524, -0.4145468333981007, 0.1313761956564694, -0.47337602389726996, a
0.0735265766824524, -0.4145468333981007, 0.06753373174780329, -0.24569863802571457, a
0.013018930937885814, -0.4612390096445366, 0.14621782980883935, -0.5422732314336286, a
0.013018930937885814, -0.4612390096445366, 0.09291708045974695, -0.5054431748933614, a
0.013018930937885814, -0.4612390096445366, 0.0561696833249431, -0.5427126906317101, a
0.013018930937885814, -0.4612390096445366, 0.13418625807652163, -0.37453456176908384, a
0.013018930937885814, -0.4612390096445366, 0.12415677635819812, -0.42478220193361355, a
0.013018930937885814, -0.4612390096445366, 0.08791015129185191, -0.3658565136115512, a
0.013018930937885814, -0.4612390096445366, 0.10278650819360222, -0.5461075076406635, a
0.013018930937885814, -0.4612390096445366, 0.06452119083230416, -0.46254420205421015, a
0.013018930937885814, -0.4612390096445366, 0.039017268602340116, -0.38078469139418053, a
0.013018930937885814, -0.4612390096445366, 0.029257845116877065, -0.5053372894685518, a
0.013018930937885814, -0.4612390096445366, 0.1690669628382305, -0.5048545690298886, a
0.013018930937885814, -0.4612390096445366, 0.17655845708129056, -0.4434670001625667, a
0.013018930937885814, -0.4612390096445366, 0.1737636274093114, -0.39966021883784414, a
0.013018930937885814, -0.4612390096445366, 0.1313761956564694, -0.47337602389726996, a
0.013018930937885814, -0.4612390096445366, 0.06753373174780329, -0.24569863802571457, a
0.14621782980883935, -0.5422732314336286, 0.09291708045974695, -0.5054431748933614, a
0.14621782980883935, -0.5422732314336286, 0.0561696833249431, -0.5427126906317101, a
0.14621782980883935, -0.5422732314336286, 0.13418625807652163, -0.37453456176908384, a
0.14621782980883935, -0.5422732314336286, 0.12415677635819812, -0.42478220193361355, a
0.14621782980883935, -0.5422732314336286, 0.08791015129185191, -0.3658565136115512, a
0.14621782980883935, -0.5422732314336286, 0.10278650819360222, -0.5461075076406635, a
0.14621782980883935, -0.5422732314336286, 0.06452119083230416, -0.46254420205421015, a
0.14621782980883935, -0.5422732314336286, 0.039017268602340116, -0.38078469139418053, a
0.14621782980883935, -0.5422732314336286, 0.029257845116877065, -0.5053372894685518, a
0.14621782980883935, -0.5422732314336286, 0.1690669628382305, -0.5048545690298886, a
0.14621782980883935, -0.5422732314336286, 0.17655845708129056, -0.4434670001625667, a
0.14621782980883935, -0.5422732314336286, 0.1737636274093114, -0.39966021883784414, a
0.14621782980883935, -0.5422732314336286, 0.1313761956564694, -0.47337602389726996, a
0.14621782980883935, -0.5422732314336286, 0.06753373174780329, -0.24569863802571457, a
0.09291708045974695, -0.5054431748933614, 0.0561696833249431, -0.5427126906317101, a
0.09291708045974695, -0.5054431748933614, 0.13418625807652163, -0.37453456176908384, a
0.09291708045974695, -0.5054431748933614, 0.12415677635819812, -0.42478220193361355, a
0.09291708045974695, -0.5054431748933614, 0.08791015129185191, -0.3658565136115512, a
0.09291708045974695, -0.5054431748933614, 0.10278650819360222, -0.5461075076406635, a
0.09291708045974695, -0.5054431748933614, 0.06452119083230416, -0.46254420205421015, a
0.09291708045974695, -0.5054431748933614, 0.039017268602340116, -0.38078469139418053, a
0.09291708045974695, -0.5054431748933614, 0.029257845116877065, -0.5053372894685518, a
0.09291708045974695, -0.5054431748933614, 0.1690669628382305, -0.5048545690298886, a
0.09291708045974695, -0.5054431748933614, 0.17655845708129056, -0.4434670001625667, a
0.09291708045974695, -0.5054431748933614, 0.1737636274093114, -0.39966021883784414, a
0.09291708045974695, -0.5054431748933614, 0.1313761956564694, -0.47337602389726996, a
0.09291708045974695, -0.5054431748933614, 0.06753373174780329, -0.24569863802571457, a
0.0561696833249431, -0.5427126906317101, 0.13418625807652163, -0.37453456176908384, a
0.0561696833249431, -0.5427126906317101, 0.12415677635819812, -0.42478220193361355, a
0.0561696833249431, -0.5427126906317101, 0.08791015129185191, -0.3658565136115512, a
0.0561696833249431, -0.5427126906317101, 0.10278650819360222, -0.5461075076406635, a
0.0561696833249431, -0.5427126906317101, 0.06452119083230416, -0.46254420205421015, a
0.0561696833249431, -0.5427126906317101, 0.039017268602340116, -0.38078469139418053, a
0.0561696833249431, -0.5427126906317101, 0.029257845116877065, -0.5053372894685518, a
0.0561696833249431, -0.5427126906317101, 0.1690669628382305, -0.5048545690298886, a
0.0561696833249431, -0.5427126906317101, 0.17655845708129056, -0.4434670001625667, a
0.0561696833249431, -0.5427126906317101, 0.1737636274093114, -0.39966021883784414, a
0.0561696833249431, -0.5427126906317101, 0.1313761956564694, -0.47337602389726996, a
0.0561696833249431, -0.5427126906317101, 0.06753373174780329, -0.24569863802571457, a
0.13418625807652163, -0.37453456176908384, 0.12415677635819812, -0.42478220193361355, a
0.13418625807652163, -0.37453456176908384, 0.08791015129185191, -0.3658565136115512, a
0.13418625807652163, -0.37453456176908384, 0.10278650819360222, -0.5461075076406635, a
0.13418625807652163, -0.37453456176908384, 0.06452119083230416, -0.46254420205421015, a
0.13418625807652163, -0.37453456176908384, 0.039017268602340116, -0.38078469139418053, a
0.13418625807652163, -0.37453456176908384, 0.029257845116877065, -0.5053372894685518, a
0.13418625807652163, -0.37453456176908384, 0.1690669628382305, -0.5048545690298886, a
0.13418625807652163, -0.37453456176908384, 0.17655845708129056, -0.4434670001625667, a
0.13418625807652163, -0.37453456176908384, 0.1737636274093114, -0.39966021883784414, a
0.13418625807652163, -0.37453456176908384, 0.1313761956564694, -0.47337602389726996, a
0.13418625807652163, -0.37453456176908384, 0.06753373174780329, -0.24569863802571457, a
0.12415677635819812, -0.42478220193361355, 0.08791015129185191, -0.3658565136115512, a
0.12415677635819812, -0.42478220193361355, 0.10278650819360222, -0.5461075076406635, a
0.12415677635819812, -0.42478220193361355, 0.06452119083230416, -0.46254420205421015, a
0.12415677635819812, -0.42478220193361355, 0.039017268602340116, -0.38078469139418053, a
0.12415677635819812, -0.42478220193361355, 0.029257845116877065, -0.5053372894685518, a
0.12415677635819812, -0.42478220193361355, 0.1690669628382305, -0.5048545690298886, a
0.12415677635819812, -0.42478220193361355, 0.17655845708129056, -0.4434670001625667, a
0.12415677635819812, -0.42478220193361355, 0.1737636274093114, -0.39966021883784414, a
0.12415677635819812, -0.42478220193361355, 0.1313761956564694, -0.47337602389726996, a
0.12415677635819812, -0.42478220193361355, 0.06753373174780329, -0.24569863802571457, a
0.08791015129185191, -0.3658565136115512, 0.10278650819360222, -0.5461075076406635, a
0.08791015129185191, -0.3658565136115512, 0.06452119083230416, -0.46254420205421015, a
0.08791015129185191, -0.3658565136115512, 0.039017268602340116, -0.38078469139418053, a
0.08791015129185191, -0.3658565136115512, 0.029257845116877065, -0.5053372894685518, a
0.08791015129185191, -0.3658565136115512, 0.1690669628382305, -0.5048545690298886, a
0.08791015129185191, -0.3658565136115512, 0.17655845708129056, -0.4434670001625667, a
0.08791015129185191, -0.3658565136115512, 0.1737636274093114, -0.39966021883784414, a
0.08791015129185191, -0.3658565136115512, 0.1313761956564694, -0.47337602389726996, a
0.08791015129185191, -0.3658565136115512, 0.06753373174780329, -0.24569863802571457, a
0.10278650819360222, -0.5461075076406635, 0.06452119083230416, -0.46254420205421015, a
0.10278650819360222, -0.5461075076406635, 0.039017268602340116, -0.38078469139418053, a
0.10278650819360222, -0.5461075076406635, 0.029257845116877065, -0.5053372894685518, a
0.10278650819360222, -0.5461075076406635, 0.1690669628382305, -0.5048545690298886, a
0.10278650819360222, -0.5461075076406635, 0.17655845708129056, -0.4434670001625667, a
0.10278650819360222, -0.5461075076406635, 0.1737636274093114, -0.39966021883784414, a
0.10278650819360222, -0.5461075076406635, 0.1313761956564694, -0.47337602389726996, a
0.10278650819360222, -0.5461075076406635, 0.06753373174780329, -0.24569863802571457, a
0.06452119083230416, -0.46254420205421015, 0.039017268602340116, -0.38078469139418053, a
0.06452119083230416, -0.46254420205421015, 0.029257845116877065, -0.5053372894685518, a
0.06452119083230416, -0.46254420205421015, 0.1690669628382305, -0.5048545690298886, a
0.06452119083230416, -0.46254420205421015, 0.17655845708129056, -0.4434670001625667, a
0.06452119083230416, -0.46254420205421015, 0.1737636274093114, -0.39966021883784414, a
0.06452119083230416, -0.46254420205421015, 0.1313761956564694, -0.47337602389726996, a
0.06452119083230416, -0.46254420205421015, 0.06753373174780329, -0.24569863802571457, a
0.039017268602340116, -0.38078469139418053, 0.029257845116877065, -0.5053372894685518, a
0.039017268602340116, -0.38078469139418053, 0.1690669628382305, -0.5048545690298886, a
0.039017268602340116, -0.38078469139418053, 0.17655845708129056, -0.4434670001625667, a
0.039017268602340116, -0.38078469139418053, 0.1737636274093114, -0.39966021883784414, a
0.039017268602340116, -0.38078469139418053, 0.1313761956564694, -0.47337602389726996, a
0.039017268602340116, -0.38078469139418053, 0.06753373174780329, -0.24569863802571457, a
0.029257845116877065, -0.5053372894685518, 0.1690669628382305, -0.5048545690298886, a
0.029257845116877065, -0.5053372894685518, 0.17655845708129056, -0.4434670001625667, a
0.029257845116877065, -0.5053372894685518, 0.1737636274093114, -0.39966021883784414, a
0.029257845116877065, -0.5053372894685518, 0.1313761956564694, -0.47337602389726996, a
0.029257845116877065, -0.5053372894685518, 0.06753373174780329, -0.24569863802571457, a
0.1690669628382305, -0.5048545690298886, 0.17655845708129056, -0.4434670001625667, a
0.1690669628382305, -0.5048545690298886, 0.1737636274093114, -0.39966021883784414, a
0.1690669628382305, -0.5048545690298886, 0.1313761956564694, -0.47337602389726996, a
0.1690669628382305, -0.5048545690298886, 0.06753373174780329, -0.24569863802571457, a
0.17655845708129056, -0.4434670001625667, 0.1737636274093114, -0.39966021883784414, a
0.17655845708129056, -0.4434670001625667, 0.1313761956564694, -0.47337602389726996, a
0.17655845708129056, -0.4434670001625667, 0.06753373174780329, -0.24569863802571457, a
0.1737636274093114, -0.39966021883784414, 0.1313761956564694, -0.47337602389726996, a
0.1737636274093114, -0.39966021883784414, 0.06753373174780329, -0.24569863802571457, a
0.1313761956564694, -0.47337602389726996, 0.06753373174780329, -0.24569863802571457, a
