-0.036047612437114934, 0.6602554154471505, a
-0.03853394000563396, 1.0, a
-0.13242444289584512, 0.8243172788916888, a
-0.12953481692279328, 0.9064619821182184, a
0.10890492565503246, 0.7579403932431139, a
-0.12142917272786757, 0.9435335591912859, a
-0.14648438537117744, 0.8704813377358365, a
0.0029011443810098235, 0.8419076643683289, a
-0.012414695474949933, 0.9050762969424464, a
-0.08246749724304095, 0.9628724035718672, a
-0.039094319454485785, 0.8094217311019999, a
-0.095416239143354, 0.8509155648092179, a
-0.08521923068214275, 0.8038381758038183, a
-0.04598138993518885, 0.9399537181745776, a
0.035765385601745685, 0.9279519229085031, a
-0.04107400906134775, 0.8624233487694254, a
0.033487154523027224, 0.8826288678534384, a
-0.07947732174048114, 0.8993999573503281, a
0.001401734404769949, 0.9568192938352374, a
0.0683946493471531, 0.7948734382703821, a
0.5456328090498451, 0.3935429178404015, b
0.8240922073878433, 0.2539345388444681, b
0.6310371065419271, 0.26541699435811755, b
0.66423106365807, 0.32223426646250813, b
0.6771339764348543, 0.17875260978092114, b
0.7768401511059725, 0.33155985659714554, b
0.7010627974474578, 0.3464266825306653, b
0.7251436645439037, 0.1674370723290792, b
0.7791977643244808, 0.2940113539390884, b
0.7272105578082426, 0.28469683061728723, b
0.7531909758650391, 0.24350825807708518, b
0.7394536193046884, 0.3496563221654572, b
0.5972151886783239, 0.35980699663327376, b
0.7895379589929902, 0.23162907211194217, b
0.7202404279786332, 0.21147626103332812, b
0.6802527042806702, 0.23373600404369343, b
0.6781163054275233, 0.2821500379991337, b
0.6397813097277111, 0.21301005632314154, b
0.7688946043273713, 0.1890068891849592, b
0.48527764109836075, 0.1160636996937968, b
-0.5178800833134308, -0.5328839765762019, c
-0.8593424765381354, -0.7533412921004096, c
-0.7979308778355563, -0.7736603291197294, c
-0.7834969178199734, -0.5932177903629277, c
-0.8150956235204747, -0.6824940824917783, c
-0.772103318600328, -0.7311704551109474, c
-0.7374639060695586, -0.5983493783235115, c
-0.6799831477953415, -0.751482717063861, c
-0.6892697989368174, -0.6602259780518026, c
-0.8275987582700404, -0.6190307117082268, c
-0.7555560615718844, -0.6795790324869366, c
-0.8513903657114728, -0.6644975055780277, c
-0.7148207378526449, -0.7791422331395447, c
-0.8223967025433011, -0.7237583972299869, c
-0.7236443059845732, -0.6363041735470518, c
-0.6810423699072596, -0.7066689704055167, c
-0.7866987029312734, -0.640010170141763, c
-0.7259058232035281, -0.7251135369629321, c
-0.7555727476876636, -0.7866870228794207, c
-0.6161809587029727, -0.6539564066695075, c
-0.061443023253001126, -0.49336160038674765, d
0.21161209835060582, -0.4739432064108761, d
0.01242078047874109, -0.4170317463781803, d
0.0735265766824524, -0.4145468333981007, d
0.013018930937885814, -0.4612390096445366, d
0.14621782980883935, -0.5422732314336286, d
0.09291708045974695, -0.5054431748933614, d
0.0561696833249431, -0.5427126906317101, d
0.13418625807652163, -0.37453456176908384, d
0.12415677635819812, -0.42478220193361355, d
0.08791015129185191, -0.3658565136115512, d
0.10278650819360222, -0.5461075076406635, d
0.06452119083230416, -0.46254420205421015, d
0.039017268602340116, -0.38078469139418053, d
0.029257845116877065, -0.5053372894685518, d
0.1690669628382305, -0.5048545690298886, d
0.17655845708129056, -0.4434670001625667, d
0.1737636274093114, -0.39966021883784414, d
0.1313761956564694, -0.47337602389726996, d
0.06753373174780329, -0.24569863802571457, d
