-0.43055059802974976, -0.3678683015871383, -0.6765296315186745, -0.6704543683708818, a
-0.43055059802974976, -0.3678683015871383, -0.8338244449727776, -0.35623265534977316, a
-0.43055059802974976, -0.3678683015871383, -0.51881961954716, -0.36473587217350206, a
-0.43055059802974976, -0.3678683015871383, -0.5884399149124644, -0.5838865193080985, a
-0.43055059802974976, -0.3678683015871383, -0.8259003743598017, -0.4955090374414351, a
-0.43055059802974976, -0.3678683015871383, -0.7556051621639107, -0.5926801508783328, a
-0.43055059802974976, -0.3678683015871383, -0.9418641843631028, -0.6089215284566905, a
-0.43055059802974976, -0.3678683015871383, -0.6767131689519599, -0.4944757361143205, a
-0.43055059802974976, -0.3678683015871383, -0.915527150107598, -0.418339208430766, a
-0.43055059802974976, -0.3678683015871383, -0.8038884947141154, -0.757561426681861, a
-0.43055059802974976, -0.3678683015871383, -0.7406610390124361, -0.3943236764216432, a
-0.43055059802974976, -0.3678683015871383, -0.6146025283083354, -0.7670424372300566, a
-0.43055059802974976, -0.3678683015871383, -0.5453493782668376, -0.6861898435823501, a
-0.43055059802974976, -0.3678683015871383, -0.7149096410834099, -0.7929398091125857, a
-0.43055059802974976, -0.3678683015871383, -0.4330054688579708, -0.48126046741608297, a
-0.43055059802974976, -0.3678683015871383, -0.9477162133676955, -0.5128213757172193, a
-0.43055059802974976, -0.3678683015871383, -0.8454520094093568, -0.6532953999903498, a
-0.43055059802974976, -0.3678683015871383, -0.5780491903084596, -0.28478496275181664, a
-0.43055059802974976, -0.3678683015871383, 0.5311267866644345, 0.3627667436512258, a
-0.9298474957149054, -0.7392064141740177, -0.6765296315186745, -0.6704543683708818, a
-0.9298474957149054, -0.7392064141740177, -0.8338244449727776, -0.35623265534977316, a
-0.9298474957149054, -0.7392064141740177, -0.51881961954716, -0.36473587217350206, a
-0.9298474957149054, -0.7392064141740177, -0.5884399149124644, -0.5838865193080985, a
-0.9298474957149054, -0.7392064141740177, -0.8259003743598017, -0.4955090374414351, a
-0.9298474957149054, -0.7392064141740177, -0.7556051621639107, -0.5926801508783328, a
-0.9298474957149054, -0.7392064141740177, -0.9418641843631028, -0.6089215284566905, a
-0.9298474957149054, -0.7392064141740177, -0.6767131689519599, -0.4944757361143205, a
-0.9298474957149054, -0.7392064141740177, -0.915527150107598, -0.418339208430766, a
-0.9298474957149054, -0.7392064141740177, -0.8038884947141154, -0.757561426681861, a
-0.9298474957149054, -0.7392064141740177, -0.7406610390124361, -0.3943236764216432, a
-0.9298474957149054, -0.7392064141740177, -0.6146025283083354, -0.7670424372300566, a
-0.9298474957149054, -0.7392064141740177, -0.5453493782668376, -0.6861898435823501, a
-0.9298474957149054, -0.7392064141740177, -0.7149096410834099, -0.7929398091125857, a
-0.9298474957149054, -0.7392064141740177, -0.4330054688579708, -0.48126046741608297, a
-0.9298474957149054, -0.7392064141740177, -0.9477162133676955, -0.5128213757172193, a
-0.9298474957149054, -0.7392064141740177, -0.8454520094093568, -0.6532953999903498, a
-0.9298474957149054, -0.7392064141740177, -0.5780491903084596, -0.28478496275181664, a
-0.6765296315186745, -0.6704543683708818, -0.8338244449727776, -0.35623265534977316, a
-0.6765296315186745, -0.6704543683708818, -0.51881961954716, -0.36473587217350206, a
-0.6765296315186745, -0.6704543683708818, -0.5884399149124644, -0.5838865193080985, a
-0.6765296315186745, -0.6704543683708818, -0.8259003743598017, -0.4955090374414351, a
-0.6765296315186745, -0.6704543683708818, -0.7556051621639107, -0.5926801508783328, a
-0.6765296315186745, -0.6704543683708818, -0.9418641843631028, -0.6089215284566905, a
-0.6765296315186745, -0.6704543683708818, -0.6767131689519599, -0.4944757361143205, a
-0.6765296315186745, -0.6704543683708818, -0.915527150107598, -0.418339208430766, a
-0.6765296315186745, -0.6704543683708818, -0.8038884947141154, -0.757561426681861, a
-0.6765296315186745, -0.6704543683708818, -0.7406610390124361, -0.3943236764216432, a
-0.6765296315186745, -0.6704543683708818, -0.6146025283083354, -0.7670424372300566, a
-0.6765296315186745, -0.6704543683708818, -0.5453493782668376, -0.6861898435823501, a
-0.6765296315186745, -0.6704543683708818, -0.7149096410834099, -0.7929398091125857, a
-0.6765296315186745, -0.6704543683708818, -0.4330054688579708, -0.48126046741608297, a
-0.6765296315186745, -0.6704543683708818, -0.9477162133676955, -0.5128213757172193, a
-0.6765296315186745, -0.6704543683708818, -0.8454520094093568, -0.6532953999903498, a
-0.6765296315186745, -0.6704543683708818, -0.5780491903084596, -0.28478496275181664, a
-0.8338244449727776, -0.35623265534977316, -0.51881961954716, -0.36473587217350206, a
-0.8338244449727776, -0.35623265534977316, -0.5884399149124644, -0.5838865193080985, a
-0.8338244449727776, -0.35623265534977316, -0.8259003743598017, -0.4955090374414351, a
-0.8338244449727776, -0.35623265534977316, -0.7556051621639107, -0.5926801508783328, a
-0.8338244449727776, -0.35623265534977316, -0.9418641843631028, -0.6089215284566905, a
-0.8338244449727776, -0.35623265534977316, -0.6767131689519599, -0.4944757361143205, a
-0.8338244449727776, -0.35623265534977316, -0.915527150107598, -0.418339208430766, a
-0.8338244449727776, -0.35623265534977316, -0.8038884947141154, -0.757561426681861, a
-0.8338244449727776, -0.35623265534977316, -0.7406610390124361, -0.3943236764216432, a
-0.8338244449727776, -0.35623265534977316, -0.6146025283083354, -0.7670424372300566, a
-0.8338244449727776, -0.35623265534977316, -0.5453493782668376, -0.6861898435823501, a
-0.8338244449727776, -0.35623265534977316, -0.7149096410834099, -0.7929398091125857, a
-0.8338244449727776, -0.35623265534977316, -0.4330054688579708, -0.48126046741608297, a
-0.8338244449727776, -0.35623265534977316, -0.9477162133676955, -0.5128213757172193, a
-0.8338244449727776, -0.35623265534977316, -0.8454520094093568, -0.6532953999903498, a
-0.8338244449727776, -0.35623265534977316, -0.5780491903084596, -0.28478496275181664, a
-0.51881961954716, -0.36473587217350206, -0.5884399149124644, -0.5838865193080985, a
-0.51881961954716, -0.36473587217350206, -0.8259003743598017, -0.4955090374414351, a
-0.51881961954716, -0.36473587217350206, -0.7556051621639107, -0.5926801508783328, a
-0.51881961954716, -0.36473587217350206, -0.9418641843631028, -0.6089215284566905, a
-0.51881961954716, -0.36473587217350206, -0.6767131689519599, -0.4944757361143205, a
-0.51881961954716, -0.36473587217350206, -0.915527150107598, -0.418339208430766, a
-0.51881961954716, -0.36473587217350206, -0.8038884947141154, -0.757561426681861, a
-0.51881961954716, -0.36473587217350206, -0.7406610390124361, -0.3943236764216432, a
-0.51881961954716, -0.36473587217350206, -0.6146025283083354, -0.7670424372300566, a
-0.51881961954716, -0.36473587217350206, -0.5453493782668376, -0.6861898435823501, a
-0.51881961954716, -0.36473587217350206, -0.7149096410834099, -0.7929398091125857, a
-0.51881961954716, -0.36473587217350206, -0.4330054688579708, -0.48126046741608297, a
-0.51881961954716, -0.36473587217350206, -0.9477162133676955, -0.5128213757172193, a
-0.51881961954716, -0.36473587217350206, -0.8454520094093568, -0.6532953999903498, a
-0.51881961954716, -0.36473587217350206, -0.5780491903084596, -0.28478496275181664, a
-0.51881961954716, -0.36473587217350206, 0.4587536748470107, 0.394971908194373, b
-0.5884399149124644, -0.5838865193080985, -0.8259003743598017, -0.4955090374414351, a
-0.5884399149124644, -0.5838865193080985, -0.7556051621639107, -0.5926801508783328, a
-0.5884399149124644, -0.5838865193080985, -0.9418641843631028, -0.6089215284566905, a
-0.5884399149124644, -0.5838865193080985, -0.6767131689519599, -0.4944757361143205, a
-0.5884399149124644, -0.5838865193080985, -0.915527150107598, -0.418339208430766, a
-0.5884399149124644, -0.5838865193080985, -0.8038884947141154, -0.757561426681861, a
-0.5884399149124644, -0.5838865193080985, -0.7406610390124361, -0.3943236764216432, a
-0.5884399149124644, -0.5838865193080985, -0.6146025283083354, -0.7670424372300566, a
-0.5884399149124644, -0.5838865193080985, -0.5453493782668376, -0.6861898435823501, a
-0.5884399149124644, -0.5838865193080985, -0.7149096410834099, -0.7929398091125857, a
-0.5884399149124644, -0.5838865193080985, -0.4330054688579708, -0.48126046741608297, a
-0.5884399149124644, -0.5838865193080985, -0.9477162133676955, -0.5128213757172193, a
-0.5884399149124644, -0.5838865193080985, -0.8454520094093568, -0.6532953999903498, a
-0.5884399149124644, -0.5838865193080985, -0.5780491903084596, -0.28478496275181664, a
-0.8259003743598017, -0.4955090374414351, -0.7556051621639107, -0.5926801508783328, a
-0.8259003743598017, -0.4955090374414351, -0.9418641843631028, -0.6089215284566905, a
-0.8259003743598017, -0.4955090374414351, -0.6767131689519599, -0.4944757361143205, a
-0.8259003743598017, -0.4955090374414351, -0.915527150107598, -0.418339208430766, a
-0.8259003743598017, -0.4955090374414351, -0.8038884947141154, -0.757561426681861, a
-0.8259003743598017, -0.4955090374414351, -0.7406610390124361, -0.3943236764216432, a
-0.8259003743598017, -0.4955090374414351, -0.6146025283083354, -0.7670424372300566, a
-0.8259003743598017, -0.4955090374414351, -0.5453493782668376, -0.6861898435823501, a
-0.8259003743598017, -0.4955090374414351, -0.7149096410834099, -0.7929398091125857, a
-0.8259003743598017, -0.4955090374414351, -0.4330054688579708, -0.48126046741608297, a
-0.8259003743598017, -0.4955090374414351, -0.9477162133676955, -0.5128213757172193, a
-0.8259003743598017, -0.4955090374414351, -0.8454520094093568, -0.6532953999903498, a
-0.8259003743598017, -0.4955090374414351, -0.5780491903084596, -0.28478496275181664, a
-0.7556051621639107, -0.5926801508783328, -0.9418641843631028, -0.6089215284566905, a
-0.7556051621639107, -0.5926801508783328, -0.6767131689519599, -0.4944757361143205, a
-0.7556051621639107, -0.5926801508783328, -0.915527150107598, -0.418339208430766, a
-0.7556051621639107, -0.5926801508783328, -0.8038884947141154, -0.757561426681861, a
-0.7556051621639107, -0.5926801508783328, -0.7406610390124361, -0.3943236764216432, a
-0.7556051621639107, -0.5926801508783328, -0.6146025283083354, -0.7670424372300566, a
-0.7556051621639107, -0.5926801508783328, -0.5453493782668376, -0.6861898435823501, a
-0.7556051621639107, -0.5926801508783328, -0.7149096410834099, -0.7929398091125857, a
-0.7556051621639107, -0.5926801508783328, -0.4330054688579708, -0.48126046741608297, a
-0.7556051621639107, -0.5926801508783328, -0.9477162133676955, -0.5128213757172193, a
-0.7556051621639107, -0.5926801508783328, -0.8454520094093568, -0.6532953999903498, a
-0.7556051621639107, -0.5926801508783328, -0.5780491903084596, -0.28478496275181664, a
-0.9418641843631028, -0.6089215284566905, -0.6767131689519599, -0.4944757361143205, a
-0.9418641843631028, -0.6089215284566905, -0.915527150107598, -0.418339208430766, a
-0.9418641843631028, -0.6089215284566905, -0.8038884947141154, -0.757561426681861, a
-0.9418641843631028, -0.6089215284566905, -0.7406610390124361, -0.3943236764216432, a
-0.9418641843631028, -0.6089215284566905, -0.6146025283083354, -0.7670424372300566, a
-0.9418641843631028, -0.6089215284566905, -0.5453493782668376, -0.6861898435823501, a
-0.9418641843631028, -0.6089215284566905, -0.7149096410834099, -0.7929398091125857, a
-0.9418641843631028, -0.6089215284566905, -0.4330054688579708, -0.48126046741608297, a
-0.9418641843631028, -0.6089215284566905, -0.9477162133676955, -0.5128213757172193, a
-0.9418641843631028, -0.6089215284566905, -0.8454520094093568, -0.6532953999903498, a
-0.9418641843631028, -0.6089215284566905, -0.5780491903084596, -0.28478496275181664, a
-0.6767131689519599, -0.4944757361143205, -0.915527150107598, -0.418339208430766, a
-0.6767131689519599, -0.4944757361143205, -0.8038884947141154, -0.757561426681861, a
-0.6767131689519599, -0.4944757361143205, -0.7406610390124361, -0.3943236764216432, a
-0.6767131689519599, -0.4944757361143205, -0.6146025283083354, -0.7670424372300566, a
-0.6767131689519599, -0.4944757361143205, -0.5453493782668376, -0.6861898435823501, a
-0.6767131689519599, -0.4944757361143205, -0.7149096410834099, -0.7929398091125857, a
-0.6767131689519599, -0.4944757361143205, -0.4330054688579708, -0.48126046741608297, a
-0.6767131689519599, -0.4944757361143205, -0.9477162133676955, -0.5128213757172193, a
-0.6767131689519599, -0.4944757361143205, -0.8454520094093568, -0.6532953999903498, a
-0.6767131689519599, -0.4944757361143205, -0.5780491903084596, -0.28478496275181664, a
-0.915527150107598, -0.418339208430766, -0.8038884947141154, -0.757561426681861, a
-0.915527150107598, -0.418339208430766, -0.7406610390124361, -0.3943236764216432, a
-0.915527150107598, -0.418339208430766, -0.6146025283083354, -0.7670424372300566, a
-0.915527150107598, -0.418339208430766, -0.5453493782668376, -0.6861898435823501, a
-0.915527150107598, -0.418339208430766, -0.7149096410834099, -0.7929398091125857, a
-0.915527150107598, -0.418339208430766, -0.4330054688579708, -0.48126046741608297, a
-0.915527150107598, -0.418339208430766, -0.9477162133676955, -0.5128213757172193, a
-0.915527150107598, -0.418339208430766, -0.8454520094093568, -0.6532953999903498, a
-0.915527150107598, -0.418339208430766, -0.5780491903084596, -0.28478496275181664, a
-0.8038884947141154, -0.757561426681861, -0.7406610390124361, -0.3943236764216432, a
-0.8038884947141154, -0.757561426681861, -0.6146025283083354, -0.7670424372300566, a
-0.8038884947141154, -0.757561426681861, -0.5453493782668376, -0.6861898435823501, a
-0.8038884947141154, -0.757561426681861, -0.7149096410834099, -0.7929398091125857, a
-0.8038884947141154, -0.757561426681861, -0.4330054688579708, -0.48126046741608297, a
-0.8038884947141154, -0.757561426681861, -0.9477162133676955, -0.5128213757172193, a
-0.8038884947141154, -0.757561426681861, -0.8454520094093568, -0.6532953999903498, a
-0.8038884947141154, -0.757561426681861, -0.5780491903084596, -0.28478496275181664, a
-0.7406610390124361, -0.3943236764216432, -0.6146025283083354, -0.7670424372300566, a
-0.7406610390124361, -0.3943236764216432, -0.5453493782668376, -0.6861898435823501, a
-0.7406610390124361, -0.3943236764216432, -0.7149096410834099, -0.7929398091125857, a
-0.7406610390124361, -0.3943236764216432, -0.4330054688579708, -0.48126046741608297, a
-0.7406610390124361, -0.3943236764216432, -0.9477162133676955, -0.5128213757172193, a
-0.7406610390124361, -0.3943236764216432, -0.8454520094093568, -0.6532953999903498, a
-0.7406610390124361, -0.3943236764216432, -0.5780491903084596, -0.28478496275181664, a
-0.6146025283083354, -0.7670424372300566, -0.5453493782668376, -0.6861898435823501, a
-0.6146025283083354, -0.7670424372300566, -0.7149096410834099, -0.7929398091125857, a
-0.6146025283083354, -0.7670424372300566, -0.4330054688579708, -0.48126046741608297, a
-0.6146025283083354, -0.7670424372300566, -0.9477162133676955, -0.5128213757172193, a
-0.6146025283083354, -0.7670424372300566, -0.8454520094093568, -0.6532953999903498, a
-0.6146025283083354, -0.7670424372300566, -0.5780491903084596, -0.28478496275181664, a
-0.5453493782668376, -0.6861898435823501, -0.7149096410834099, -0.7929398091125857, a
-0.5453493782668376, -0.6861898435823501, -0.4330054688579708, -0.48126046741608297, a
-0.5453493782668376, -0.6861898435823501, -0.9477162133676955, -0.5128213757172193, a
-0.5453493782668376, -0.6861898435823501, -0.8454520094093568, -0.6532953999903498, a
-0.5453493782668376, -0.6861898435823501, -0.5780491903084596, -0.28478496275181664, a
-0.7149096410834099, -0.7929398091125857, -0.4330054688579708, -0.48126046741608297, a
-0.7149096410834099, -0.7929398091125857, -0.9477162133676955, -0.5128213757172193, a
-0.7149096410834099, -0.7929398091125857, -0.8454520094093568, -0.6532953999903498, a
-0.7149096410834099, -0.7929398091125857, -0.5780491903084596, -0.28478496275181664, a
-0.4330054688579708, -0.48126046741608297, -0.9477162133676955, -0.5128213757172193, a
-0.4330054688579708, -0.48126046741608297, -0.8454520094093568, -0.6532953999903498, a
-0.4330054688579708, -0.48126046741608297, -0.5780491903084596, -0.28478496275181664, a
-0.4330054688579708, -0.48126046741608297, 0.5651110916487582, 0.28152981690717327, b
-0.9477162133676955, -0.5128213757172193, -0.8454520094093568, -0.6532953999903498, a
-0.9477162133676955, -0.5128213757172193, -0.5780491903084596, -0.28478496275181664, a
-0.8454520094093568, -0.6532953999903498, -0.5780491903084596, -0.28478496275181664, a
-0.5780491903084596, -0.28478496275181664, 0.396443618882778, 0.47685361124248604, a
0.396443618882778, 0.47685361124248604, 0.5358188889772721, 0.6470110967652439, a
0.396443618882778, 0.47685361124248604, 0.5651110916487582, 0.28152981690717327, a
0.396443618882778, 0.47685361124248604, 0.7209257183191177, 0.3959161632187833, a
0.396443618882778, 0.47685361124248604, 0.8514195852857208, 0.35245149528339237, a
0.396443618882778, 0.47685361124248604, 0.8052373154379551, 0.7878105930994472, a
0.396443618882778, 0.47685361124248604, 0.7084350516332263, 0.7652634941045436, a
0.396443618882778, 0.47685361124248604, 0.9005609941718773, 0.5873094429252733, a
0.396443618882778, 0.47685361124248604, 0.928750524687819, 0.45309857546179794, a
0.396443618882778, 0.47685361124248604, 0.6367172311862467, 0.5229543740340071, a
0.396443618882778, 0.47685361124248604, 0.9147702016718684, 0.7043218534669844, a
0.396443618882778, 0.47685361124248604, 0.8124827431371211, 0.6834017572007225, a
0.396443618882778, 0.47685361124248604, 0.4587536748470107, 0.394971908194373, a
0.396443618882778, 0.47685361124248604, 0.62041494960786, 0.6742509552017738, a
0.396443618882778, 0.47685361124248604, 0.7105951720213829, 0.6128407346733815, a
0.396443618882778, 0.47685361124248604, 0.7974776849748433, 0.5390126329759979, a
0.396443618882778, 0.47685361124248604, 0.6095480566134398, 0.7780931579871329, a
0.396443618882778, 0.47685361124248604, 0.812666418201993, 0.4376548180706554, a
0.396443618882778, 0.47685361124248604, 0.5311267866644345, 0.3627667436512258, a
1.0, 0.565015966724529, 0.5358188889772721, 0.6470110967652439, a
1.0, 0.565015966724529, 0.5651110916487582, 0.28152981690717327, a
1.0, 0.565015966724529, 0.7209257183191177, 0.3959161632187833, a
1.0, 0.565015966724529, 0.8514195852857208, 0.35245149528339237, a
1.0, 0.565015966724529, 0.8052373154379551, 0.7878105930994472, a
1.0, 0.565015966724529, 0.7084350516332263, 0.7652634941045436, a
1.0, 0.565015966724529, 0.9005609941718773, 0.5873094429252733, a
1.0, 0.565015966724529, 0.928750524687819, 0.45309857546179794, a
1.0, 0.565015966724529, 0.6367172311862467, 0.5229543740340071, a
1.0, 0.565015966724529, 0.9147702016718684, 0.7043218534669844, a
1.0, 0.565015966724529, 0.8124827431371211, 0.6834017572007225, a
1.0, 0.565015966724529, 0.4587536748470107, 0.394971908194373, a
1.0, 0.565015966724529, 0.62041494960786, 0.6742509552017738, a
1.0, 0.565015966724529, 0.7105951720213829, 0.6128407346733815, a
1.0, 0.565015966724529, 0.7974776849748433, 0.5390126329759979, a
1.0, 0.565015966724529, 0.6095480566134398, 0.7780931579871329, a
1.0, 0.565015966724529, 0.812666418201993, 0.4376548180706554, a
1.0, 0.565015966724529, 0.5311267866644345, 0.3627667436512258, a
0.5358188889772721, 0.6470110967652439, 0.5651110916487582, 0.28152981690717327, a
0.5358188889772721, 0.6470110967652439, 0.7209257183191177, 0.3959161632187833, a
0.5358188889772721, 0.6470110967652439, 0.8514195852857208, 0.35245149528339237, a
0.5358188889772721, 0.6470110967652439, 0.8052373154379551, 0.7878105930994472, a
0.5358188889772721, 0.6470110967652439, 0.7084350516332263, 0.7652634941045436, a
0.5358188889772721, 0.6470110967652439, 0.9005609941718773, 0.5873094429252733, a
0.5358188889772721, 0.6470110967652439, 0.928750524687819, 0.45309857546179794, a
0.5358188889772721, 0.6470110967652439, 0.6367172311862467, 0.5229543740340071, a
0.5358188889772721, 0.6470110967652439, 0.9147702016718684, 0.7043218534669844, a
0.5358188889772721, 0.6470110967652439, 0.8124827431371211, 0.6834017572007225, a
0.5358188889772721, 0.6470110967652439, 0.4587536748470107, 0.394971908194373, a
0.5358188889772721, 0.6470110967652439, 0.62041494960786, 0.6742509552017738, a
0.5358188889772721, 0.6470110967652439, 0.7105951720213829, 0.6128407346733815, a
0.5358188889772721, 0.6470110967652439, 0.7974776849748433, 0.5390126329759979, a
0.5358188889772721, 0.6470110967652439, 0.6095480566134398, 0.7780931579871329, a
0.5358188889772721, 0.6470110967652439, 0.812666418201993, 0.4376548180706554, a
0.5358188889772721, 0.6470110967652439, 0.5311267866644345, 0.3627667436512258, a
0.5651110916487582, 0.28152981690717327, 0.7209257183191177, 0.3959161632187833, a
0.5651110916487582, 0.28152981690717327, 0.8514195852857208, 0.35245149528339237, a
0.5651110916487582, 0.28152981690717327, 0.8052373154379551, 0.7878105930994472, a
0.5651110916487582, 0.28152981690717327, 0.7084350516332263, 0.7652634941045436, a
0.5651110916487582, 0.28152981690717327, 0.9005609941718773, 0.5873094429252733, a
0.5651110916487582, 0.28152981690717327, 0.928750524687819, 0.45309857546179794, a
0.5651110916487582, 0.28152981690717327, 0.6367172311862467, 0.5229543740340071, a
0.5651110916487582, 0.28152981690717327, 0.9147702016718684, 0.7043218534669844, a
0.5651110916487582, 0.28152981690717327, 0.8124827431371211, 0.6834017572007225, a
0.5651110916487582, 0.28152981690717327, 0.4587536748470107, 0.394971908194373, a
0.5651110916487582, 0.28152981690717327, 0.62041494960786, 0.6742509552017738, a
0.5651110916487582, 0.28152981690717327, 0.7105951720213829, 0.6128407346733815, a
0.5651110916487582, 0.28152981690717327, 0.7974776849748433, 0.5390126329759979, a
0.5651110916487582, 0.28152981690717327, 0.6095480566134398, 0.7780931579871329, a
0.5651110916487582, 0.28152981690717327, 0.812666418201993, 0.4376548180706554, a
0.5651110916487582, 0.28152981690717327, 0.5311267866644345, 0.3627667436512258, a
0.7209257183191177, 0.3959161632187833, 0.8514195852857208, 0.35245149528339237, a
0.7209257183191177, 0.3959161632187833, 0.8052373154379551, 0.7878105930994472, a
0.7209257183191177, 0.3959161632187833, 0.7084350516332263, 0.7652634941045436, a
0.7209257183191177, 0.3959161632187833, 0.9005609941718773, 0.5873094429252733, a
0.7209257183191177, 0.3959161632187833, 0.928750524687819, 0.45309857546179794, a
0.7209257183191177, 0.3959161632187833, 0.6367172311862467, 0.5229543740340071, a
0.7209257183191177, 0.3959161632187833, 0.9147702016718684, 0.7043218534669844, a
0.7209257183191177, 0.3959161632187833, 0.8124827431371211, 0.6834017572007225, a
0.7209257183191177, 0.3959161632187833, 0.4587536748470107, 0.394971908194373, a
0.7209257183191177, 0.3959161632187833, 0.62041494960786, 0.6742509552017738, a
0.7209257183191177, 0.3959161632187833, 0.7105951720213829, 0.6128407346733815, a
0.7209257183191177, 0.3959161632187833, 0.7974776849748433, 0.5390126329759979, a
0.7209257183191177, 0.3959161632187833, 0.6095480566134398, 0.7780931579871329, a
0.7209257183191177, 0.3959161632187833, 0.812666418201993, 0.4376548180706554, a
0.7209257183191177, 0.3959161632187833, 0.5311267866644345, 0.3627667436512258, a
0.8514195852857208, 0.35245149528339237, 0.8052373154379551, 0.7878105930994472, a
0.8514195852857208, 0.35245149528339237, 0.7084350516332263, 0.7652634941045436, a
0.8514195852857208, 0.35245149528339237, 0.9005609941718773, 0.5873094429252733, a
0.8514195852857208, 0.35245149528339237, 0.928750524687819, 0.45309857546179794, a
0.8514195852857208, 0.35245149528339237, 0.6367172311862467, 0.5229543740340071, a
0.8514195852857208, 0.35245149528339237, 0.9147702016718684, 0.7043218534669844, a
0.8514195852857208, 0.35245149528339237, 0.8124827431371211, 0.6834017572007225, a
0.8514195852857208, 0.35245149528339237, 0.4587536748470107, 0.394971908194373, a
0.8514195852857208, 0.35245149528339237, 0.62041494960786, 0.6742509552017738, a
0.8514195852857208, 0.35245149528339237, 0.7105951720213829, 0.6128407346733815, a
0.8514195852857208, 0.35245149528339237, 0.7974776849748433, 0.5390126329759979, a
0.8514195852857208, 0.35245149528339237, 0.6095480566134398, 0.7780931579871329, a
0.8514195852857208, 0.35245149528339237, 0.812666418201993, 0.4376548180706554, a
0.8514195852857208, 0.35245149528339237, 0.5311267866644345, 0.3627667436512258, a
0.8052373154379551, 0.7878105930994472, 0.7084350516332263, 0.7652634941045436, a
0.8052373154379551, 0.7878105930994472, 0.9005609941718773, 0.5873094429252733, a
0.8052373154379551, 0.7878105930994472, 0.928750524687819, 0.45309857546179794, a
0.8052373154379551, 0.7878105930994472, 0.6367172311862467, 0.5229543740340071, a
0.8052373154379551, 0.7878105930994472, 0.9147702016718684, 0.7043218534669844, a
0.8052373154379551, 0.7878105930994472, 0.8124827431371211, 0.6834017572007225, a
0.8052373154379551, 0.7878105930994472, 0.4587536748470107, 0.394971908194373, a
0.8052373154379551, 0.7878105930994472, 0.62041494960786, 0.6742509552017738, a
0.8052373154379551, 0.7878105930994472, 0.7105951720213829, 0.6128407346733815, a
0.8052373154379551, 0.7878105930994472, 0.7974776849748433, 0.5390126329759979, a
0.8052373154379551, 0.7878105930994472, 0.6095480566134398, 0.7780931579871329, a
0.8052373154379551, 0.7878105930994472, 0.812666418201993, 0.4376548180706554, a
0.8052373154379551, 0.7878105930994472, 0.5311267866644345, 0.3627667436512258, a
0.7084350516332263, 0.7652634941045436, 0.9005609941718773, 0.5873094429252733, a
0.7084350516332263, 0.7652634941045436, 0.928750524687819, 0.45309857546179794, a
0.7084350516332263, 0.7652634941045436, 0.6367172311862467, 0.5229543740340071, a
0.7084350516332263, 0.7652634941045436, 0.9147702016718684, 0.7043218534669844, a
0.7084350516332263, 0.7652634941045436, 0.8124827431371211, 0.6834017572007225, a
0.7084350516332263, 0.7652634941045436, 0.4587536748470107, 0.394971908194373, a
0.7084350516332263, 0.7652634941045436, 0.62041494960786, 0.6742509552017738, a
0.7084350516332263, 0.7652634941045436, 0.7105951720213829, 0.6128407346733815, a
0.7084350516332263, 0.7652634941045436, 0.7974776849748433, 0.5390126329759979, a
0.7084350516332263, 0.7652634941045436, 0.6095480566134398, 0.7780931579871329, a
0.7084350516332263, 0.7652634941045436, 0.812666418201993, 0.4376548180706554, a
0.7084350516332263, 0.7652634941045436, 0.5311267866644345, 0.3627667436512258, a
0.9005609941718773, 0.5873094429252733, 0.928750524687819, 0.45309857546179794, a
0.9005609941718773, 0.5873094429252733, 0.6367172311862467, 0.5229543740340071, a
0.9005609941718773, 0.5873094429252733, 0.9147702016718684, 0.7043218534669844, a
0.9005609941718773, 0.5873094429252733, 0.8124827431371211, 0.6834017572007225, a
0.9005609941718773, 0.5873094429252733, 0.4587536748470107, 0.394971908194373, a
0.9005609941718773, 0.5873094429252733, 0.62041494960786, 0.6742509552017738, a
0.9005609941718773, 0.5873094429252733, 0.7105951720213829, 0.6128407346733815, a
0.9005609941718773, 0.5873094429252733, 0.7974776849748433, 0.5390126329759979, a
0.9005609941718773, 0.5873094429252733, 0.6095480566134398, 0.7780931579871329, a
0.9005609941718773, 0.5873094429252733, 0.812666418201993, 0.4376548180706554, a
0.9005609941718773, 0.5873094429252733, 0.5311267866644345, 0.3627667436512258, a
0.928750524687819, 0.45309857546179794, 0.6367172311862467, 0.5229543740340071, a
0.928750524687819, 0.45309857546179794, 0.9147702016718684, 0.7043218534669844, a
0.928750524687819, 0.45309857546179794, 0.8124827431371211, 0.6834017572007225, a
0.928750524687819, 0.45309857546179794, 0.4587536748470107, 0.394971908194373, a
0.928750524687819, 0.45309857546179794, 0.62041494960786, 0.6742509552017738, a
0.928750524687819, 0.45309857546179794, 0.7105951720213829, 0.6128407346733815, a
0.928750524687819, 0.45309857546179794, 0.7974776849748433, 0.5390126329759979, a
0.928750524687819, 0.45309857546179794, 0.6095480566134398, 0.7780931579871329, a
0.928750524687819, 0.45309857546179794, 0.812666418201993, 0.4376548180706554, a
0.928750524687819, 0.45309857546179794, 0.5311267866644345, 0.3627667436512258, a
0.6367172311862467, 0.5229543740340071, 0.9147702016718684, 0.7043218534669844, a
0.6367172311862467, 0.5229543740340071, 0.8124827431371211, 0.6834017572007225, a
0.6367172311862467, 0.5229543740340071, 0.4587536748470107, 0.394971908194373, a
0.6367172311862467, 0.5229543740340071, 0.62041494960786, 0.6742509552017738, a
0.6367172311862467, 0.5229543740340071, 0.7105951720213829, 0.6128407346733815, a
0.6367172311862467, 0.5229543740340071, 0.7974776849748433, 0.5390126329759979, a
0.6367172311862467, 0.5229543740340071, 0.6095480566134398, 0.7780931579871329, a
0.6367172311862467, 0.5229543740340071, 0.812666418201993, 0.4376548180706554, a
0.6367172311862467, 0.5229543740340071, 0.5311267866644345, 0.3627667436512258, a
0.9147702016718684, 0.7043218534669844, 0.8124827431371211, 0.6834017572007225, a
0.9147702016718684, 0.7043218534669844, 0.4587536748470107, 0.394971908194373, a
0.9147702016718684, 0.7043218534669844, 0.62041494960786, 0.6742509552017738, a
0.9147702016718684, 0.7043218534669844, 0.7105951720213829, 0.6128407346733815, a
0.9147702016718684, 0.7043218534669844, 0.7974776849748433, 0.5390126329759979, a
0.9147702016718684, 0.7043218534669844, 0.6095480566134398, 0.7780931579871329, a
0.9147702016718684, 0.7043218534669844, 0.812666418201993, 0.4376548180706554, a
0.9147702016718684, 0.7043218534669844, 0.5311267866644345, 0.3627667436512258, a
0.8124827431371211, 0.6834017572007225, 0.4587536748470107, 0.394971908194373, a
0.8124827431371211, 0.6834017572007225, 0.62041494960786, 0.6742509552017738, a
0.8124827431371211, 0.6834017572007225, 0.7105951720213829, 0.6128407346733815, a
0.8124827431371211, 0.6834017572007225, 0.7974776849748433, 0.5390126329759979, a
0.8124827431371211, 0.6834017572007225, 0.6095480566134398, 0.7780931579871329, a
0.8124827431371211, 0.6834017572007225, 0.812666418201993, 0.4376548180706554, a
0.8124827431371211, 0.6834017572007225, 0.5311267866644345, 0.3627667436512258, a
0.4587536748470107, 0.394971908194373, 0.62041494960786, 0.6742509552017738, a
0.4587536748470107, 0.394971908194373, 0.7105951720213829, 0.6128407346733815, a
0.4587536748470107, 0.394971908194373, 0.7974776849748433, 0.5390126329759979, a
0.4587536748470107, 0.394971908194373, 0.6095480566134398, 0.7780931579871329, a
0.4587536748470107, 0.394971908194373, 0.812666418201993, 0.4376548180706554, a
0.4587536748470107, 0.394971908194373, 0.5311267866644345, 0.3627667436512258, a
0.62041494960786, 0.6742509552017738, 0.7105951720213829, 0.6128407346733815, a
0.62041494960786, 0.6742509552017738, 0.7974776849748433, 0.5390126329759979, a
0.62041494960786, 0.6742509552017738, 0.6095480566134398, 0.7780931579871329, a
0.62041494960786, 0.6742509552017738, 0.812666418201993, 0.4376548180706554, a
0.62041494960786, 0.6742509552017738, 0.5311267866644345, 0.3627667436512258, a
0.7105951720213829, 0.6128407346733815, 0.7974776849748433, 0.5390126329759979, a
0.7105951720213829, 0.6128407346733815, 0.6095480566134398, 0.7780931579871329, a
0.7105951720213829, 0.6128407346733815, 0.812666418201993, 0.4376548180706554, a
0.7105951720213829, 0.6128407346733815, 0.5311267866644345, 0.3627667436512258, a
0.7974776849748433, 0.5390126329759979, 0.6095480566134398, 0.7780931579871329, a
0.7974776849748433, 0.5390126329759979, 0.812666418201993, 0.4376548180706554, a
0.7974776849748433, 0.5390126329759979, 0.5311267866644345, 0.3627667436512258, a
0.6095480566134398, 0.7780931579871329, 0.812666418201993, 0.4376548180706554, a
0.6095480566134398, 0.7780931579871329, 0.5311267866644345, 0.3627667436512258, a
0.812666418201993, 0.4376548180706554, 0.5311267866644345, 0.3627667436512258, a
