  0.000000,  0.577888,  0.080527, a
  0.000000,  0.518960,  0.168673, a
  0.000000,  0.610612,  0.225470, a
  0.000000,  0.520308,  0.211132, a
  0.000000,  0.485802,  0.061243, a
  0.000000,  0.546312,  0.279610, a
  0.000000,  0.387168,  0.087363, a
  0.000000,  0.560334,  0.197580, a
  0.000000,  0.335433,  0.000000, a
  0.000000,  0.530148,  0.251277, a
  0.000000,  0.434933,  0.258107, a
  0.000000,  0.572012,  0.106372, a
  0.000000,  0.517351,  0.175964, a
  0.000000,  0.562918,  0.171216, a
  0.000000,  0.438515,  0.062927, a
  0.000000,  0.108031,  0.000000, a
  0.000000,  0.439709,  0.054634, a
  0.000000,  0.150500,  0.000000, a
  0.000000,  0.438128,  0.285530, a
  0.000000,  0.204436,  0.004676, a
  0.000000,  0.055067,  0.000000, b
  0.008275,  0.000000,  0.122904, b
  0.000000,  0.000000,  0.000000, b
  0.000000,  0.000000,  0.370730, b
  0.000000,  0.000000,  0.111984, b
  0.000000,  0.000000,  0.158887, b
  0.000000,  0.000000,  0.069879, b
  0.000000,  0.000000,  0.288501, b
  0.000000,  0.066466,  0.186043, b
  0.000000,  0.000000,  0.000000, b
  0.000000,  0.000000,  0.000000, b
  0.000000,  0.000000,  0.075147, b
  0.000000,  0.042734,  0.189708, b
  0.000000,  0.000000,  0.100232, b
  0.000000,  0.000000,  0.314918, b
  0.000000,  0.000000,  0.067469, b
  0.000000,  0.000000,  0.109247, b
  0.000000,  0.000000,  0.098149, b
  0.000000,  0.000000,  0.310269, b
  0.148757,  0.000000,  0.000000, b
  0.517300,  0.639490,  0.241531, c
  0.905859,  0.782768,  0.416850, c
  0.817513,  0.729134,  0.379855, c
  0.849381,  0.700813,  0.334425, c
  0.805034,  0.605601,  0.303590, c
  0.765404,  0.757904,  0.309043, c
  0.723899,  0.740432,  0.309679, c
  0.836933,  0.578147,  0.205538, c
  0.901680,  0.652734,  0.403788, c
  0.812294,  0.868504,  0.438148, c
  0.872690,  0.494435,  0.350192, c
  0.843025,  0.817218,  0.373170, c
  0.682472,  0.697389,  0.209635, c
  0.816936,  0.531849,  0.154346, c
  0.796683,  0.703865,  0.607662, c
  0.906088,  0.667235,  0.404555, c
  0.911451,  0.582254,  0.417994, c
  0.729408,  0.746535,  0.331609, c
  0.848021,  0.747890,  0.498006, c
  1.000000,  0.695764,  0.279991, c
  0.000000,  0.063068,  0.000000, d
  0.000000,  0.314986,  0.000000, d
  0.000000,  0.247733,  0.000000, d
  0.000000,  0.359640,  0.000000, d
  0.000000,  0.252714,  0.000000, d
  0.000000,  0.261594,  0.000000, d
  0.000000,  0.361443,  0.000000, d
  0.000000,  0.415196,  0.000000, d
  0.000000,  0.277468,  0.000000, d
  0.000000,  0.200276,  0.000000, d
  0.000000,  0.114400,  0.000000, d
  0.000000,  0.129487,  0.000000, d
  0.000000,  0.275220,  0.000000, d
  0.000000,  0.198538,  0.000000, d
  0.000000,  0.203949,  0.000000, d
  0.000000,  0.340849,  0.000000, d
  0.000000,  0.311844,  0.000000, d
  0.000000,  0.267134,  0.000000, d
  0.000000,  0.227923,  0.000000, d
  0.000000,  0.318743,  0.000000, d
