0.0, 0.0, 0.0, 16.0, 193.0
0.0, 1.0, 9.0, 9.0, 156.0
0.0, 2.0, 6.0, 14.0, 152.0
0.0, 3.0, 2.0, 21.0, 180.0
0.0, 4.0, 8.0, 17.0, 165.0
0.0, 5.0, 4.0, 18.0, 236.0
0.0, 6.0, 8.0, 22.0, 200.0
0.0, 7.0, 8.0, 14.0, 214.0
0.0, 8.0, 0.0, 13.0, 251.0
0.0, 9.0, 6.0, 9.0, 251.0
0.0, 10.0, 9.0, 3.0, 210.0
0.0, 11.0, 4.0, 2.0, 159.0
0.0, 12.0, 6.0, 5.0, 243.0
0.0, 13.0, 0.0, 24.0, 190.0
0.0, 14.0, 0.0, 13.0, 205.0
0.0, 15.0, 0.0, 3.0, 192.0
0.0, 16.0, 5.0, 0.0, 178.0
0.0, 17.0, 171.0, 10.0, 26.0
0.0, 18.0, 119.0, 20.0, 8.0
0.0, 19.0, 140.0, 17.0, 26.0
1.0, 0.0, 2.0, 27.0, 156.0
1.0, 1.0, 6.0, 24.0, 180.0
1.0, 2.0, 1.0, 11.0, 208.0
1.0, 3.0, 0.0, 18.0, 192.0
1.0, 4.0, 1.0, 26.0, 179.0
1.0, 5.0, 7.0, 14.0, 158.0
1.0, 6.0, 6.0, 25.0, 168.0
1.0, 7.0, 7.0, 7.0, 237.0
1.0, 8.0, 7.0, 15.0, 161.0
1.0, 9.0, 4.0, 19.0, 240.0
1.0, 10.0, 1.0, 26.0, 172.0
1.0, 11.0, 6.0, 28.0, 222.0
1.0, 12.0, 0.0, 3.0, 191.0
1.0, 13.0, 6.0, 6.0, 189.0
1.0, 14.0, 2.0, 8.0, 178.0
1.0, 15.0, 6.0, 19.0, 208.0
1.0, 16.0, 4.0, 26.0, 176.0
1.0, 17.0, 181.0, 8.0, 11.0
1.0, 18.0, 144.0, 6.0, 6.0
1.0, 19.0, 149.0, 0.0, 3.0
2.0, 0.0, 5.0, 13.0, 177.0
2.0, 1.0, 0.0, 2.0, 202.0
2.0, 2.0, 6.0, 16.0, 153.0
2.0, 3.0, 8.0, 16.0, 185.0
2.0, 4.0, 0.0, 11.0, 230.0
2.0, 5.0, 2.0, 19.0, 247.0
2.0, 6.0, 4.0, 22.0, 170.0
2.0, 7.0, 1.0, 7.0, 217.0
2.0, 8.0, 3.0, 24.0, 231.0
2.0, 9.0, 3.0, 20.0, 200.0
2.0, 10.0, 2.0, 9.0, 160.0
2.0, 11.0, 3.0, 29.0, 179.0
2.0, 12.0, 6.0, 22.0, 152.0
2.0, 13.0, 8.0, 1.0, 212.0
2.0, 14.0, 8.0, 27.0, 225.0
2.0, 15.0, 1.0, 26.0, 232.0
2.0, 16.0, 6.0, 29.0, 189.0
2.0, 17.0, 151.0, 29.0, 24.0
2.0, 18.0, 148.0, 0.0, 27.0
2.0, 19.0, 96.0, 10.0, 11.0
3.0, 0.0, 2.0, 1.0, 237.0
3.0, 1.0, 7.0, 3.0, 150.0
3.0, 2.0, 7.0, 2.0, 162.0
3.0, 3.0, 2.0, 24.0, 166.0
3.0, 4.0, 5.0, 23.0, 206.0
3.0, 5.0, 7.0, 20.0, 240.0
3.0, 6.0, 7.0, 23.0, 226.0
3.0, 7.0, 3.0, 29.0, 160.0
3.0, 8.0, 7.0, 29.0, 215.0
3.0, 9.0, 5.0, 2.0, 251.0
3.0, 10.0, 2.0, 21.0, 169.0
3.0, 11.0, 7.0, 17.0, 230.0
3.0, 12.0, 6.0, 7.0, 176.0
3.0, 13.0, 5.0, 10.0, 243.0
3.0, 14.0, 1.0, 12.0, 184.0
3.0, 15.0, 4.0, 3.0, 247.0
3.0, 16.0, 2.0, 3.0, 218.0
3.0, 17.0, 134.0, 12.0, 0.0
3.0, 18.0, 118.0, 12.0, 4.0
3.0, 19.0, 244.0, 17.0, 11.0
4.0, 0.0, 6.0, 24.0, 152.0
4.0, 1.0, 0.0, 8.0, 247.0
4.0, 2.0, 4.0, 20.0, 211.0
4.0, 3.0, 7.0, 26.0, 180.0
4.0, 4.0, 4.0, 20.0, 171.0
4.0, 5.0, 8.0, 23.0, 190.0
4.0, 6.0, 2.0, 12.0, 216.0
4.0, 7.0, 2.0, 25.0, 195.0
4.0, 8.0, 9.0, 15.0, 235.0
4.0, 9.0, 0.0, 25.0, 182.0
4.0, 10.0, 8.0, 23.0, 218.0
4.0, 11.0, 2.0, 3.0, 161.0
4.0, 12.0, 8.0, 27.0, 159.0
4.0, 13.0, 4.0, 15.0, 253.0
4.0, 14.0, 5.0, 16.0, 248.0
4.0, 15.0, 9.0, 25.0, 197.0
4.0, 16.0, 3.0, 2.0, 174.0
4.0, 17.0, 250.0, 16.0, 23.0
4.0, 18.0, 126.0, 19.0, 13.0
4.0, 19.0, 204.0, 1.0, 20.0
5.0, 0.0, 7.0, 22.0, 178.0
5.0, 1.0, 8.0, 27.0, 191.0
5.0, 2.0, 1.0, 3.0, 169.0
5.0, 3.0, 0.0, 5.0, 188.0
5.0, 4.0, 3.0, 25.0, 170.0
5.0, 5.0, 1.0, 10.0, 200.0
5.0, 6.0, 8.0, 14.0, 253.0
5.0, 7.0, 5.0, 15.0, 154.0
5.0, 8.0, 6.0, 21.0, 198.0
5.0, 9.0, 2.0, 17.0, 158.0
5.0, 10.0, 8.0, 19.0, 151.0
5.0, 11.0, 5.0, 0.0, 156.0
5.0, 12.0, 9.0, 29.0, 196.0
5.0, 13.0, 7.0, 21.0, 187.0
5.0, 14.0, 2.0, 27.0, 181.0
5.0, 15.0, 7.0, 12.0, 168.0
5.0, 16.0, 8.0, 21.0, 229.0
5.0, 17.0, 131.0, 5.0, 25.0
5.0, 18.0, 184.0, 17.0, 5.0
5.0, 19.0, 173.0, 17.0, 23.0
6.0, 0.0, 3.0, 12.0, 195.0
6.0, 1.0, 1.0, 28.0, 219.0
6.0, 2.0, 0.0, 8.0, 163.0
6.0, 3.0, 6.0, 28.0, 198.0
6.0, 4.0, 5.0, 21.0, 226.0
6.0, 5.0, 2.0, 21.0, 253.0
6.0, 6.0, 0.0, 9.0, 212.0
6.0, 7.0, 0.0, 18.0, 155.0
6.0, 8.0, 2.0, 5.0, 168.0
6.0, 9.0, 9.0, 20.0, 198.0
6.0, 10.0, 0.0, 21.0, 203.0
6.0, 11.0, 9.0, 1.0, 249.0
6.0, 12.0, 4.0, 12.0, 252.0
6.0, 13.0, 6.0, 5.0, 236.0
6.0, 14.0, 8.0, 3.0, 164.0
6.0, 15.0, 4.0, 16.0, 206.0
6.0, 16.0, 3.0, 13.0, 184.0
6.0, 17.0, 153.0, 17.0, 10.0
6.0, 18.0, 208.0, 23.0, 28.0
6.0, 19.0, 213.0, 2.0, 2.0
7.0, 0.0, 1.0, 22.0, 158.0
7.0, 1.0, 0.0, 21.0, 251.0
7.0, 2.0, 8.0, 6.0, 246.0
7.0, 3.0, 3.0, 20.0, 184.0
7.0, 4.0, 4.0, 4.0, 168.0
7.0, 5.0, 5.0, 15.0, 152.0
7.0, 6.0, 0.0, 0.0, 218.0
7.0, 7.0, 8.0, 11.0, 223.0
7.0, 8.0, 2.0, 5.0, 162.0
7.0, 9.0, 7.0, 4.0, 191.0
7.0, 10.0, 1.0, 28.0, 193.0
7.0, 11.0, 4.0, 11.0, 183.0
7.0, 12.0, 2.0, 11.0, 152.0
7.0, 13.0, 2.0, 29.0, 183.0
7.0, 14.0, 3.0, 1.0, 206.0
7.0, 15.0, 7.0, 23.0, 163.0
7.0, 16.0, 9.0, 5.0, 239.0
7.0, 17.0, 191.0, 3.0, 0.0
7.0, 18.0, 164.0, 22.0, 19.0
7.0, 19.0, 201.0, 20.0, 5.0
8.0, 0.0, 3.0, 9.0, 241.0
8.0, 1.0, 9.0, 18.0, 213.0
8.0, 2.0, 9.0, 12.0, 159.0
8.0, 3.0, 0.0, 20.0, 199.0
8.0, 4.0, 3.0, 0.0, 219.0
8.0, 5.0, 3.0, 13.0, 155.0
8.0, 6.0, 9.0, 24.0, 153.0
8.0, 7.0, 1.0, 26.0, 154.0
8.0, 8.0, 1.0, 14.0, 153.0
8.0, 9.0, 2.0, 4.0, 184.0
8.0, 10.0, 9.0, 15.0, 215.0
8.0, 11.0, 6.0, 8.0, 199.0
8.0, 12.0, 1.0, 21.0, 229.0
8.0, 13.0, 3.0, 12.0, 162.0
8.0, 14.0, 1.0, 20.0, 155.0
8.0, 15.0, 9.0, 29.0, 249.0
8.0, 16.0, 9.0, 11.0, 217.0
8.0, 17.0, 240.0, 22.0, 23.0
8.0, 18.0, 161.0, 22.0, 7.0
8.0, 19.0, 163.0, 3.0, 24.0
9.0, 0.0, 4.0, 29.0, 170.0
9.0, 1.0, 1.0, 2.0, 250.0
9.0, 2.0, 2.0, 24.0, 229.0
9.0, 3.0, 8.0, 26.0, 206.0
9.0, 4.0, 7.0, 0.0, 238.0
9.0, 5.0, 4.0, 28.0, 198.0
9.0, 6.0, 0.0, 26.0, 251.0
9.0, 7.0, 7.0, 18.0, 174.0
9.0, 8.0, 9.0, 1.0, 227.0
9.0, 9.0, 9.0, 9.0, 213.0
9.0, 10.0, 1.0, 2.0, 177.0
9.0, 11.0, 8.0, 2.0, 229.0
9.0, 12.0, 9.0, 16.0, 155.0
9.0, 13.0, 8.0, 21.0, 244.0
9.0, 14.0, 7.0, 14.0, 251.0
9.0, 15.0, 6.0, 2.0, 153.0
9.0, 16.0, 4.0, 27.0, 246.0
9.0, 17.0, 217.0, 11.0, 4.0
9.0, 18.0, 145.0, 22.0, 12.0
9.0, 19.0, 232.0, 1.0, 17.0
10.0, 0.0, 5.0, 5.0, 193.0
10.0, 1.0, 2.0, 20.0, 246.0
10.0, 2.0, 6.0, 23.0, 211.0
10.0, 3.0, 1.0, 23.0, 209.0
10.0, 4.0, 8.0, 12.0, 245.0
10.0, 5.0, 6.0, 26.0, 196.0
10.0, 6.0, 4.0, 4.0, 226.0
10.0, 7.0, 4.0, 10.0, 153.0
10.0, 8.0, 6.0, 15.0, 150.0
10.0, 9.0, 0.0, 9.0, 150.0
10.0, 10.0, 1.0, 12.0, 209.0
10.0, 11.0, 6.0, 3.0, 157.0
10.0, 12.0, 2.0, 13.0, 211.0
10.0, 13.0, 1.0, 27.0, 218.0
10.0, 14.0, 8.0, 7.0, 235.0
10.0, 15.0, 2.0, 4.0, 155.0
10.0, 16.0, 5.0, 26.0, 247.0
10.0, 17.0, 133.0, 8.0, 2.0
10.0, 18.0, 231.0, 25.0, 20.0
10.0, 19.0, 204.0, 14.0, 6.0
11.0, 0.0, 2.0, 22.0, 182.0
11.0, 1.0, 7.0, 23.0, 237.0
11.0, 2.0, 7.0, 25.0, 226.0
11.0, 3.0, 7.0, 21.0, 182.0
11.0, 4.0, 9.0, 11.0, 200.0
11.0, 5.0, 0.0, 17.0, 253.0
11.0, 6.0, 5.0, 22.0, 187.0
11.0, 7.0, 0.0, 9.0, 230.0
11.0, 8.0, 5.0, 4.0, 188.0
11.0, 9.0, 9.0, 26.0, 188.0
11.0, 10.0, 7.0, 25.0, 228.0
11.0, 11.0, 2.0, 21.0, 224.0
11.0, 12.0, 7.0, 21.0, 238.0
11.0, 13.0, 9.0, 29.0, 220.0
11.0, 14.0, 1.0, 14.0, 181.0
11.0, 15.0, 8.0, 8.0, 243.0
11.0, 16.0, 7.0, 1.0, 223.0
11.0, 17.0, 133.0, 18.0, 22.0
11.0, 18.0, 94.0, 22.0, 8.0
11.0, 19.0, 182.0, 9.0, 1.0
12.0, 0.0, 6.0, 3.0, 213.0
12.0, 1.0, 5.0, 15.0, 231.0
12.0, 2.0, 6.0, 12.0, 190.0
12.0, 3.0, 0.0, 15.0, 231.0
12.0, 4.0, 4.0, 17.0, 199.0
12.0, 5.0, 0.0, 11.0, 155.0
12.0, 6.0, 9.0, 29.0, 163.0
12.0, 7.0, 6.0, 26.0, 154.0
12.0, 8.0, 7.0, 19.0, 182.0
12.0, 9.0, 7.0, 11.0, 161.0
12.0, 10.0, 5.0, 16.0, 181.0
12.0, 11.0, 1.0, 12.0, 158.0
12.0, 12.0, 8.0, 20.0, 194.0
12.0, 13.0, 0.0, 28.0, 240.0
12.0, 14.0, 2.0, 27.0, 180.0
12.0, 15.0, 6.0, 28.0, 214.0
12.0, 16.0, 1.0, 5.0, 233.0
12.0, 17.0, 128.0, 6.0, 17.0
12.0, 18.0, 184.0, 10.0, 9.0
12.0, 19.0, 220.0, 28.0, 27.0
13.0, 0.0, 6.0, 14.0, 247.0
13.0, 1.0, 1.0, 27.0, 202.0
13.0, 2.0, 2.0, 9.0, 161.0
13.0, 3.0, 8.0, 8.0, 192.0
13.0, 4.0, 3.0, 10.0, 214.0
13.0, 5.0, 3.0, 25.0, 234.0
13.0, 6.0, 5.0, 6.0, 190.0
13.0, 7.0, 1.0, 25.0, 229.0
13.0, 8.0, 5.0, 2.0, 196.0
13.0, 9.0, 0.0, 2.0, 198.0
13.0, 10.0, 2.0, 13.0, 240.0
13.0, 11.0, 0.0, 16.0, 204.0
13.0, 12.0, 2.0, 4.0, 209.0
13.0, 13.0, 3.0, 14.0, 211.0
13.0, 14.0, 4.0, 4.0, 218.0
13.0, 15.0, 1.0, 10.0, 164.0
13.0, 16.0, 2.0, 12.0, 247.0
13.0, 17.0, 130.0, 9.0, 25.0
13.0, 18.0, 104.0, 17.0, 7.0
13.0, 19.0, 167.0, 14.0, 16.0
14.0, 0.0, 3.0, 18.0, 215.0
14.0, 1.0, 2.0, 21.0, 186.0
14.0, 2.0, 0.0, 26.0, 222.0
14.0, 3.0, 4.0, 11.0, 218.0
14.0, 4.0, 8.0, 12.0, 237.0
14.0, 5.0, 0.0, 21.0, 219.0
14.0, 6.0, 5.0, 26.0, 224.0
14.0, 7.0, 5.0, 18.0, 249.0
14.0, 8.0, 8.0, 1.0, 193.0
14.0, 9.0, 0.0, 22.0, 198.0
14.0, 10.0, 2.0, 29.0, 166.0
14.0, 11.0, 2.0, 10.0, 164.0
14.0, 12.0, 0.0, 7.0, 223.0
14.0, 13.0, 4.0, 5.0, 192.0
14.0, 14.0, 1.0, 23.0, 181.0
14.0, 15.0, 3.0, 24.0, 181.0
14.0, 16.0, 249.0, 6.0, 22.0
14.0, 17.0, 251.0, 0.0, 20.0
14.0, 18.0, 219.0, 10.0, 22.0
14.0, 19.0, 244.0, 9.0, 13.0
15.0, 0.0, 1.0, 19.0, 184.0
15.0, 1.0, 3.0, 12.0, 224.0
15.0, 2.0, 9.0, 21.0, 177.0
15.0, 3.0, 3.0, 22.0, 173.0
15.0, 4.0, 6.0, 13.0, 178.0
15.0, 5.0, 1.0, 27.0, 208.0
15.0, 6.0, 0.0, 10.0, 207.0
15.0, 7.0, 0.0, 20.0, 231.0
15.0, 8.0, 8.0, 9.0, 218.0
15.0, 9.0, 7.0, 26.0, 225.0
15.0, 10.0, 2.0, 2.0, 194.0
15.0, 11.0, 2.0, 7.0, 210.0
15.0, 12.0, 4.0, 13.0, 201.0
15.0, 13.0, 7.0, 25.0, 212.0
15.0, 14.0, 2.0, 17.0, 238.0
15.0, 15.0, 2.0, 21.0, 150.0
15.0, 16.0, 106.0, 2.0, 12.0
15.0, 17.0, 198.0, 27.0, 5.0
15.0, 18.0, 232.0, 3.0, 13.0
15.0, 19.0, 202.0, 6.0, 6.0
16.0, 0.0, 2.0, 18.0, 189.0
16.0, 1.0, 3.0, 16.0, 174.0
16.0, 2.0, 5.0, 14.0, 226.0
16.0, 3.0, 4.0, 17.0, 180.0
16.0, 4.0, 5.0, 15.0, 171.0
16.0, 5.0, 0.0, 25.0, 197.0
16.0, 6.0, 0.0, 16.0, 168.0
16.0, 7.0, 9.0, 14.0, 216.0
16.0, 8.0, 6.0, 4.0, 176.0
16.0, 9.0, 9.0, 2.0, 170.0
16.0, 10.0, 6.0, 10.0, 156.0
16.0, 11.0, 2.0, 17.0, 241.0
16.0, 12.0, 6.0, 16.0, 180.0
16.0, 13.0, 7.0, 3.0, 188.0
16.0, 14.0, 4.0, 12.0, 169.0
16.0, 15.0, 3.0, 11.0, 170.0
16.0, 16.0, 180.0, 3.0, 14.0
16.0, 17.0, 163.0, 12.0, 6.0
16.0, 18.0, 184.0, 18.0, 9.0
16.0, 19.0, 193.0, 10.0, 17.0
17.0, 0.0, 1.0, 1.0, 239.0
17.0, 1.0, 6.0, 21.0, 181.0
17.0, 2.0, 3.0, 24.0, 237.0
17.0, 3.0, 0.0, 7.0, 208.0
17.0, 4.0, 7.0, 27.0, 230.0
17.0, 5.0, 4.0, 4.0, 170.0
17.0, 6.0, 1.0, 0.0, 237.0
17.0, 7.0, 8.0, 8.0, 165.0
17.0, 8.0, 5.0, 26.0, 238.0
17.0, 9.0, 3.0, 28.0, 242.0
17.0, 10.0, 8.0, 6.0, 197.0
17.0, 11.0, 1.0, 12.0, 200.0
17.0, 12.0, 6.0, 5.0, 202.0
17.0, 13.0, 0.0, 10.0, 247.0
17.0, 14.0, 9.0, 17.0, 196.0
17.0, 15.0, 7.0, 22.0, 185.0
17.0, 16.0, 94.0, 23.0, 8.0
17.0, 17.0, 103.0, 7.0, 12.0
17.0, 18.0, 245.0, 11.0, 8.0
17.0, 19.0, 174.0, 12.0, 15.0
18.0, 0.0, 0.0, 7.0, 242.0
18.0, 1.0, 8.0, 26.0, 163.0
18.0, 2.0, 2.0, 25.0, 164.0
18.0, 3.0, 7.0, 2.0, 206.0
18.0, 4.0, 8.0, 13.0, 197.0
18.0, 5.0, 7.0, 16.0, 152.0
18.0, 6.0, 5.0, 10.0, 181.0
18.0, 7.0, 2.0, 1.0, 189.0
18.0, 8.0, 3.0, 13.0, 182.0
18.0, 9.0, 3.0, 13.0, 248.0
18.0, 10.0, 7.0, 20.0, 223.0
18.0, 11.0, 3.0, 28.0, 170.0
18.0, 12.0, 1.0, 28.0, 194.0
18.0, 13.0, 5.0, 13.0, 157.0
18.0, 14.0, 4.0, 26.0, 191.0
18.0, 15.0, 6.0, 16.0, 195.0
18.0, 16.0, 129.0, 24.0, 16.0
18.0, 17.0, 180.0, 24.0, 17.0
18.0, 18.0, 140.0, 20.0, 7.0
18.0, 19.0, 214.0, 13.0, 4.0
19.0, 0.0, 1.0, 21.0, 173.0
19.0, 1.0, 2.0, 25.0, 216.0
19.0, 2.0, 8.0, 13.0, 178.0
19.0, 3.0, 3.0, 12.0, 220.0
19.0, 4.0, 6.0, 3.0, 151.0
19.0, 5.0, 9.0, 11.0, 201.0
19.0, 6.0, 7.0, 18.0, 228.0
19.0, 7.0, 8.0, 28.0, 230.0
19.0, 8.0, 4.0, 2.0, 246.0
19.0, 9.0, 3.0, 15.0, 193.0
19.0, 10.0, 9.0, 11.0, 162.0
19.0, 11.0, 2.0, 2.0, 190.0
19.0, 12.0, 9.0, 5.0, 213.0
19.0, 13.0, 6.0, 28.0, 208.0
19.0, 14.0, 8.0, 29.0, 242.0
19.0, 15.0, 6.0, 24.0, 199.0
19.0, 16.0, 219.0, 21.0, 2.0
19.0, 17.0, 97.0, 28.0, 24.0
19.0, 18.0, 129.0, 1.0, 14.0
19.0, 19.0, 180.0, 15.0, 25.0
