0.0, 0.0, 0.0, 1.0, a
0.0, 0.0, 1.0, 0.0, a
0.0, 1.0, 0.0, 2.0, a
0.0, 1.0, 1.0, 1.0, a
0.0, 2.0, 0.0, 3.0, a
0.0, 2.0, 1.0, 2.0, a
0.0, 3.0, 0.0, 4.0, a
0.0, 3.0, 1.0, 3.0, a
0.0, 4.0, 0.0, 5.0, a
0.0, 4.0, 1.0, 4.0, a
0.0, 5.0, 0.0, 6.0, a
0.0, 5.0, 1.0, 5.0, a
0.0, 6.0, 0.0, 7.0, a
0.0, 6.0, 1.0, 6.0, a
0.0, 7.0, 0.0, 8.0, a
0.0, 7.0, 1.0, 7.0, a
0.0, 8.0, 0.0, 9.0, a
0.0, 8.0, 1.0, 8.0, a
0.0, 9.0, 0.0, 10.0, a
0.0, 9.0, 1.0, 9.0, a
0.0, 10.0, 0.0, 11.0, a
0.0, 10.0, 1.0, 10.0, a
0.0, 11.0, 0.0, 12.0, a
0.0, 11.0, 1.0, 11.0, a
0.0, 12.0, 0.0, 13.0, a
0.0, 12.0, 1.0, 12.0, a
0.0, 13.0, 0.0, 14.0, a
0.0, 13.0, 1.0, 13.0, a
0.0, 14.0, 0.0, 15.0, a
0.0, 14.0, 1.0, 14.0, a
0.0, 15.0, 0.0, 16.0, a
0.0, 15.0, 1.0, 15.0, a
0.0, 16.0, 0.0, 17.0, a
0.0, 16.0, 1.0, 16.0, a
0.0, 17.0, 0.0, 18.0, a
0.0, 17.0, 1.0, 17.0, a
0.0, 18.0, 0.0, 19.0, a
0.0, 18.0, 1.0, 18.0, a
0.0, 19.0, 1.0, 19.0, a
1.0, 0.0, 1.0, 1.0, a
1.0, 0.0, 2.0, 0.0, a
1.0, 1.0, 1.0, 2.0, a
1.0, 1.0, 2.0, 1.0, a
1.0, 2.0, 1.0, 3.0, a
1.0, 2.0, 2.0, 2.0, a
1.0, 3.0, 1.0, 4.0, a
1.0, 3.0, 2.0, 3.0, a
1.0, 4.0, 1.0, 5.0, a
1.0, 4.0, 2.0, 4.0, a
1.0, 5.0, 1.0, 6.0, a
1.0, 5.0, 2.0, 5.0, a
1.0, 6.0, 1.0, 7.0, a
1.0, 6.0, 2.0, 6.0, a
1.0, 7.0, 1.0, 8.0, a
1.0, 7.0, 2.0, 7.0, a
1.0, 8.0, 1.0, 9.0, a
1.0, 8.0, 2.0, 8.0, a
1.0, 9.0, 1.0, 10.0, a
1.0, 9.0, 2.0, 9.0, a
1.0, 10.0, 1.0, 11.0, a
1.0, 10.0, 2.0, 10.0, a
1.0, 11.0, 1.0, 12.0, a
1.0, 11.0, 2.0, 11.0, a
1.0, 12.0, 1.0, 13.0, a
1.0, 12.0, 2.0, 12.0, a
1.0, 13.0, 1.0, 14.0, a
1.0, 13.0, 2.0, 13.0, a
1.0, 14.0, 1.0, 15.0, a
1.0, 14.0, 2.0, 14.0, a
1.0, 15.0, 1.0, 16.0, a
1.0, 15.0, 2.0, 15.0, a
1.0, 16.0, 1.0, 17.0, a
1.0, 16.0, 2.0, 16.0, a
1.0, 17.0, 1.0, 18.0, a
1.0, 17.0, 2.0, 17.0, a
1.0, 18.0, 1.0, 19.0, a
1.0, 18.0, 2.0, 18.0, a
1.0, 19.0, 2.0, 19.0, a
2.0, 0.0, 2.0, 1.0, a
2.0, 0.0, 3.0, 0.0, a
2.0, 1.0, 2.0, 2.0, a
2.0, 1.0, 3.0, 1.0, a
2.0, 2.0, 2.0, 3.0, a
2.0, 2.0, 3.0, 2.0, a
2.0, 3.0, 2.0, 4.0, a
2.0, 3.0, 3.0, 3.0, a
2.0, 4.0, 2.0, 5.0, a
2.0, 4.0, 3.0, 4.0, a
2.0, 5.0, 2.0, 6.0, a
2.0, 5.0, 3.0, 5.0, a
2.0, 6.0, 2.0, 7.0, a
2.0, 6.0, 3.0, 6.0, a
2.0, 7.0, 2.0, 8.0, a
2.0, 7.0, 3.0, 7.0, a
2.0, 8.0, 2.0, 9.0, a
2.0, 8.0, 3.0, 8.0, a
2.0, 9.0, 2.0, 10.0, a
2.0, 9.0, 3.0, 9.0, a
2.0, 10.0, 2.0, 11.0, a
2.0, 10.0, 3.0, 10.0, a
2.0, 11.0, 2.0, 12.0, a
2.0, 11.0, 3.0, 11.0, a
2.0, 12.0, 2.0, 13.0, a
2.0, 12.0, 3.0, 12.0, a
2.0, 13.0, 2.0, 14.0, a
2.0, 13.0, 3.0, 13.0, a
2.0, 14.0, 2.0, 15.0, a
2.0, 14.0, 3.0, 14.0, a
2.0, 15.0, 2.0, 16.0, a
2.0, 15.0, 3.0, 15.0, a
2.0, 16.0, 2.0, 17.0, a
2.0, 16.0, 3.0, 16.0, a
2.0, 17.0, 2.0, 18.0, a
2.0, 17.0, 3.0, 17.0, a
2.0, 18.0, 2.0, 19.0, a
2.0, 18.0, 3.0, 18.0, a
2.0, 19.0, 3.0, 19.0, a
3.0, 0.0, 3.0, 1.0, a
3.0, 0.0, 4.0, 0.0, a
3.0, 1.0, 3.0, 2.0, a
3.0, 1.0, 4.0, 1.0, a
3.0, 2.0, 3.0, 3.0, a
3.0, 2.0, 4.0, 2.0, a
3.0, 3.0, 3.0, 4.0, a
3.0, 3.0, 4.0, 3.0, a
3.0, 4.0, 3.0, 5.0, a
3.0, 4.0, 4.0, 4.0, a
3.0, 5.0, 3.0, 6.0, a
3.0, 5.0, 4.0, 5.0, a
3.0, 6.0, 3.0, 7.0, a
3.0, 6.0, 4.0, 6.0, a
3.0, 7.0, 3.0, 8.0, a
3.0, 7.0, 4.0, 7.0, a
3.0, 8.0, 3.0, 9.0, a
3.0, 8.0, 4.0, 8.0, a
3.0, 9.0, 3.0, 10.0, a
3.0, 9.0, 4.0, 9.0, a
3.0, 10.0, 3.0, 11.0, a
3.0, 10.0, 4.0, 10.0, a
3.0, 11.0, 3.0, 12.0, a
3.0, 11.0, 4.0, 11.0, a
3.0, 12.0, 3.0, 13.0, a
3.0, 12.0, 4.0, 12.0, a
3.0, 13.0, 3.0, 14.0, a
3.0, 13.0, 4.0, 13.0, a
3.0, 14.0, 3.0, 15.0, a
3.0, 14.0, 4.0, 14.0, a
3.0, 15.0, 3.0, 16.0, a
3.0, 15.0, 4.0, 15.0, a
3.0, 16.0, 3.0, 17.0, a
3.0, 16.0, 4.0, 16.0, a
3.0, 17.0, 3.0, 18.0, a
3.0, 17.0, 4.0, 17.0, a
3.0, 18.0, 3.0, 19.0, a
3.0, 18.0, 4.0, 18.0, a
3.0, 19.0, 4.0, 19.0, a
4.0, 0.0, 4.0, 1.0, a
4.0, 0.0, 5.0, 0.0, a
4.0, 1.0, 4.0, 2.0, a
4.0, 1.0, 5.0, 1.0, a
4.0, 2.0, 4.0, 3.0, a
4.0, 2.0, 5.0, 2.0, a
4.0, 3.0, 4.0, 4.0, a
4.0, 3.0, 5.0, 3.0, a
4.0, 4.0, 4.0, 5.0, a
4.0, 4.0, 5.0, 4.0, a
4.0, 5.0, 4.0, 6.0, a
4.0, 5.0, 5.0, 5.0, a
4.0, 6.0, 4.0, 7.0, a
4.0, 6.0, 5.0, 6.0, a
4.0, 7.0, 4.0, 8.0, a
4.0, 7.0, 5.0, 7.0, a
4.0, 8.0, 4.0, 9.0, a
4.0, 8.0, 5.0, 8.0, a
4.0, 9.0, 4.0, 10.0, a
4.0, 9.0, 5.0, 9.0, a
4.0, 10.0, 4.0, 11.0, a
4.0, 10.0, 5.0, 10.0, a
4.0, 11.0, 4.0, 12.0, a
4.0, 11.0, 5.0, 11.0, a
4.0, 12.0, 4.0, 13.0, a
4.0, 12.0, 5.0, 12.0, a
4.0, 13.0, 4.0, 14.0, a
4.0, 13.0, 5.0, 13.0, a
4.0, 14.0, 4.0, 15.0, a
4.0, 14.0, 5.0, 14.0, b
4.0, 15.0, 4.0, 16.0, a
4.0, 15.0, 5.0, 15.0, a
4.0, 16.0, 4.0, 17.0, a
4.0, 16.0, 5.0, 16.0, a
4.0, 17.0, 4.0, 18.0, a
4.0, 17.0, 5.0, 17.0, a
4.0, 18.0, 4.0, 19.0, a
4.0, 18.0, 5.0, 18.0, a
4.0, 19.0, 5.0, 19.0, a
5.0, 0.0, 5.0, 1.0, a
5.0, 0.0, 6.0, 0.0, a
5.0, 1.0, 5.0, 2.0, a
5.0, 1.0, 6.0, 1.0, a
5.0, 2.0, 5.0, 3.0, a
5.0, 2.0, 6.0, 2.0, a
5.0, 3.0, 5.0, 4.0, a
5.0, 3.0, 6.0, 3.0, a
5.0, 4.0, 5.0, 5.0, a
5.0, 4.0, 6.0, 4.0, a
5.0, 5.0, 5.0, 6.0, a
5.0, 5.0, 6.0, 5.0, a
5.0, 6.0, 5.0, 7.0, a
5.0, 6.0, 6.0, 6.0, a
5.0, 7.0, 5.0, 8.0, a
5.0, 7.0, 6.0, 7.0, a
5.0, 8.0, 5.0, 9.0, a
5.0, 8.0, 6.0, 8.0, a
5.0, 9.0, 5.0, 10.0, a
5.0, 9.0, 6.0, 9.0, a
5.0, 10.0, 5.0, 11.0, a
5.0, 10.0, 6.0, 10.0, a
5.0, 11.0, 5.0, 12.0, a
5.0, 11.0, 6.0, 11.0, a
5.0, 12.0, 5.0, 13.0, a
5.0, 12.0, 6.0, 12.0, a
5.0, 13.0, 6.0, 13.0, b
5.0, 14.0, 6.0, 14.0, a
5.0, 15.0, 5.0, 16.0, a
5.0, 16.0, 5.0, 17.0, a
5.0, 16.0, 6.0, 16.0, a
5.0, 17.0, 5.0, 18.0, a
5.0, 17.0, 6.0, 17.0, a
5.0, 18.0, 5.0, 19.0, a
5.0, 18.0, 6.0, 18.0, a
5.0, 19.0, 6.0, 19.0, a
6.0, 0.0, 6.0, 1.0, a
6.0, 0.0, 7.0, 0.0, a
6.0, 1.0, 6.0, 2.0, a
6.0, 1.0, 7.0, 1.0, a
6.0, 2.0, 6.0, 3.0, a
6.0, 2.0, 7.0, 2.0, a
6.0, 3.0, 6.0, 4.0, a
6.0, 3.0, 7.0, 3.0, a
6.0, 4.0, 6.0, 5.0, a
6.0, 4.0, 7.0, 4.0, a
6.0, 5.0, 6.0, 6.0, a
6.0, 5.0, 7.0, 5.0, a
6.0, 6.0, 6.0, 7.0, a
6.0, 6.0, 7.0, 6.0, a
6.0, 7.0, 6.0, 8.0, a
6.0, 7.0, 7.0, 7.0, a
6.0, 8.0, 6.0, 9.0, a
6.0, 8.0, 7.0, 8.0, a
6.0, 9.0, 6.0, 10.0, a
6.0, 9.0, 7.0, 9.0, a
6.0, 10.0, 6.0, 11.0, a
6.0, 10.0, 7.0, 10.0, a
6.0, 11.0, 6.0, 12.0, a
6.0, 11.0, 7.0, 11.0, a
6.0, 12.0, 7.0, 12.0, b
6.0, 13.0, 6.0, 14.0, a
6.0, 13.0, 7.0, 13.0, a
6.0, 14.0, 6.0, 15.0, a
6.0, 14.0, 7.0, 14.0, a
6.0, 15.0, 7.0, 15.0, a
6.0, 16.0, 6.0, 17.0, a
6.0, 16.0, 7.0, 16.0, b
6.0, 17.0, 6.0, 18.0, a
6.0, 17.0, 7.0, 17.0, a
6.0, 18.0, 6.0, 19.0, a
6.0, 18.0, 7.0, 18.0, a
6.0, 19.0, 7.0, 19.0, a
7.0, 0.0, 7.0, 1.0, a
7.0, 0.0, 8.0, 0.0, a
7.0, 1.0, 7.0, 2.0, a
7.0, 1.0, 8.0, 1.0, a
7.0, 2.0, 7.0, 3.0, a
7.0, 2.0, 8.0, 2.0, a
7.0, 3.0, 7.0, 4.0, a
7.0, 3.0, 8.0, 3.0, a
7.0, 4.0, 7.0, 5.0, a
7.0, 4.0, 8.0, 4.0, a
7.0, 5.0, 7.0, 6.0, a
7.0, 5.0, 8.0, 5.0, a
7.0, 6.0, 7.0, 7.0, a
7.0, 6.0, 8.0, 6.0, a
7.0, 7.0, 7.0, 8.0, a
7.0, 7.0, 8.0, 7.0, a
7.0, 8.0, 7.0, 9.0, a
7.0, 8.0, 8.0, 8.0, a
7.0, 9.0, 7.0, 10.0, a
7.0, 9.0, 8.0, 9.0, a
7.0, 10.0, 7.0, 11.0, a
7.0, 10.0, 8.0, 10.0, a
7.0, 11.0, 8.0, 11.0, a
7.0, 12.0, 7.0, 13.0, a
7.0, 13.0, 7.0, 14.0, a
7.0, 13.0, 8.0, 13.0, a
7.0, 14.0, 7.0, 15.0, a
7.0, 14.0, 8.0, 14.0, a
7.0, 15.0, 7.0, 16.0, a
7.0, 15.0, 8.0, 15.0, a
7.0, 16.0, 7.0, 17.0, b
7.0, 17.0, 7.0, 18.0, a
7.0, 17.0, 8.0, 17.0, a
7.0, 18.0, 7.0, 19.0, a
7.0, 18.0, 8.0, 18.0, a
7.0, 19.0, 8.0, 19.0, a
8.0, 0.0, 8.0, 1.0, a
8.0, 0.0, 9.0, 0.0, a
8.0, 1.0, 8.0, 2.0, a
8.0, 1.0, 9.0, 1.0, a
8.0, 2.0, 8.0, 3.0, a
8.0, 2.0, 9.0, 2.0, a
8.0, 3.0, 8.0, 4.0, a
8.0, 3.0, 9.0, 3.0, a
8.0, 4.0, 8.0, 5.0, a
8.0, 4.0, 9.0, 4.0, a
8.0, 5.0, 8.0, 6.0, a
8.0, 5.0, 9.0, 5.0, a
8.0, 6.0, 8.0, 7.0, a
8.0, 6.0, 9.0, 6.0, a
8.0, 7.0, 8.0, 8.0, a
8.0, 7.0, 9.0, 7.0, a
8.0, 8.0, 8.0, 9.0, a
8.0, 8.0, 9.0, 8.0, a
8.0, 9.0, 8.0, 10.0, a
8.0, 9.0, 9.0, 9.0, a
8.0, 10.0, 8.0, 11.0, a
8.0, 10.0, 9.0, 10.0, a
8.0, 11.0, 8.0, 12.0, a
8.0, 11.0, 9.0, 11.0, a
8.0, 12.0, 9.0, 12.0, a
8.0, 13.0, 8.0, 14.0, a
8.0, 14.0, 8.0, 15.0, a
8.0, 14.0, 9.0, 14.0, a
8.0, 15.0, 9.0, 15.0, b
8.0, 16.0, 8.0, 17.0, a
8.0, 16.0, 9.0, 16.0, a
8.0, 17.0, 8.0, 18.0, a
8.0, 17.0, 9.0, 17.0, a
8.0, 18.0, 8.0, 19.0, a
8.0, 18.0, 9.0, 18.0, a
8.0, 19.0, 9.0, 19.0, a
9.0, 0.0, 9.0, 1.0, a
9.0, 0.0, 10.0, 0.0, a
9.0, 1.0, 9.0, 2.0, a
9.0, 1.0, 10.0, 1.0, a
9.0, 2.0, 9.0, 3.0, a
9.0, 2.0, 10.0, 2.0, a
9.0, 3.0, 9.0, 4.0, a
9.0, 3.0, 10.0, 3.0, a
9.0, 4.0, 9.0, 5.0, a
9.0, 4.0, 10.0, 4.0, a
9.0, 5.0, 9.0, 6.0, a
9.0, 5.0, 10.0, 5.0, a
9.0, 6.0, 9.0, 7.0, a
9.0, 6.0, 10.0, 6.0, a
9.0, 7.0, 9.0, 8.0, a
9.0, 7.0, 10.0, 7.0, a
9.0, 8.0, 9.0, 9.0, a
9.0, 8.0, 10.0, 8.0, a
9.0, 9.0, 9.0, 10.0, a
9.0, 9.0, 10.0, 9.0, a
9.0, 10.0, 9.0, 11.0, a
9.0, 10.0, 10.0, 10.0, a
9.0, 11.0, 9.0, 12.0, a
9.0, 11.0, 10.0, 11.0, a
9.0, 12.0, 9.0, 13.0, a
9.0, 12.0, 10.0, 12.0, a
9.0, 13.0, 9.0, 14.0, b
9.0, 13.0, 10.0, 13.0, a
9.0, 15.0, 9.0, 16.0, a
9.0, 15.0, 10.0, 15.0, a
9.0, 16.0, 9.0, 17.0, a
9.0, 16.0, 10.0, 16.0, a
9.0, 17.0, 9.0, 18.0, a
9.0, 17.0, 10.0, 17.0, a
9.0, 18.0, 9.0, 19.0, a
9.0, 18.0, 10.0, 18.0, a
9.0, 19.0, 10.0, 19.0, a
10.0, 0.0, 10.0, 1.0, a
10.0, 0.0, 11.0, 0.0, a
10.0, 1.0, 10.0, 2.0, a
10.0, 1.0, 11.0, 1.0, a
10.0, 2.0, 10.0, 3.0, a
10.0, 2.0, 11.0, 2.0, a
10.0, 3.0, 10.0, 4.0, a
10.0, 3.0, 11.0, 3.0, a
10.0, 4.0, 10.0, 5.0, a
10.0, 4.0, 11.0, 4.0, a
10.0, 5.0, 10.0, 6.0, a
10.0, 5.0, 11.0, 5.0, a
10.0, 6.0, 10.0, 7.0, a
10.0, 6.0, 11.0, 6.0, a
10.0, 7.0, 10.0, 8.0, a
10.0, 7.0, 11.0, 7.0, a
10.0, 8.0, 10.0, 9.0, a
10.0, 8.0, 11.0, 8.0, a
10.0, 9.0, 10.0, 10.0, a
10.0, 9.0, 11.0, 9.0, a
10.0, 10.0, 10.0, 11.0, a
10.0, 10.0, 11.0, 10.0, a
10.0, 11.0, 10.0, 12.0, a
10.0, 11.0, 11.0, 11.0, a
10.0, 12.0, 10.0, 13.0, a
10.0, 12.0, 11.0, 12.0, a
10.0, 13.0, 10.0, 14.0, a
10.0, 13.0, 11.0, 13.0, a
10.0, 14.0, 10.0, 15.0, a
10.0, 14.0, 11.0, 14.0, a
10.0, 15.0, 10.0, 16.0, a
10.0, 15.0, 11.0, 15.0, a
10.0, 16.0, 10.0, 17.0, a
10.0, 16.0, 11.0, 16.0, a
10.0, 17.0, 10.0, 18.0, a
10.0, 17.0, 11.0, 17.0, a
10.0, 18.0, 10.0, 19.0, a
10.0, 18.0, 11.0, 18.0, a
10.0, 19.0, 11.0, 19.0, a
11.0, 0.0, 11.0, 1.0, a
11.0, 0.0, 12.0, 0.0, a
11.0, 1.0, 11.0, 2.0, a
11.0, 1.0, 12.0, 1.0, a
11.0, 2.0, 11.0, 3.0, a
11.0, 2.0, 12.0, 2.0, a
11.0, 3.0, 11.0, 4.0, a
11.0, 3.0, 12.0, 3.0, a
11.0, 4.0, 11.0, 5.0, a
11.0, 4.0, 12.0, 4.0, a
11.0, 5.0, 11.0, 6.0, a
11.0, 5.0, 12.0, 5.0, a
11.0, 6.0, 11.0, 7.0, a
11.0, 6.0, 12.0, 6.0, a
11.0, 7.0, 11.0, 8.0, a
11.0, 7.0, 12.0, 7.0, a
11.0, 8.0, 11.0, 9.0, a
11.0, 8.0, 12.0, 8.0, a
11.0, 9.0, 11.0, 10.0, a
11.0, 9.0, 12.0, 9.0, a
11.0, 10.0, 11.0, 11.0, a
11.0, 10.0, 12.0, 10.0, a
11.0, 11.0, 11.0, 12.0, a
11.0, 11.0, 12.0, 11.0, a
11.0, 12.0, 11.0, 13.0, a
11.0, 12.0, 12.0, 12.0, a
11.0, 13.0, 11.0, 14.0, a
11.0, 13.0, 12.0, 13.0, a
11.0, 14.0, 11.0, 15.0, a
11.0, 14.0, 12.0, 14.0, a
11.0, 15.0, 11.0, 16.0, a
11.0, 15.0, 12.0, 15.0, a
11.0, 16.0, 11.0, 17.0, a
11.0, 16.0, 12.0, 16.0, a
11.0, 17.0, 11.0, 18.0, a
11.0, 17.0, 12.0, 17.0, a
11.0, 18.0, 11.0, 19.0, a
11.0, 18.0, 12.0, 18.0, a
11.0, 19.0, 12.0, 19.0, a
12.0, 0.0, 12.0, 1.0, a
12.0, 0.0, 13.0, 0.0, a
12.0, 1.0, 12.0, 2.0, a
12.0, 1.0, 13.0, 1.0, a
12.0, 2.0, 12.0, 3.0, a
12.0, 2.0, 13.0, 2.0, a
12.0, 3.0, 12.0, 4.0, a
12.0, 3.0, 13.0, 3.0, a
12.0, 4.0, 12.0, 5.0, a
12.0, 4.0, 13.0, 4.0, a
12.0, 5.0, 12.0, 6.0, a
12.0, 5.0, 13.0, 5.0, a
12.0, 6.0, 12.0, 7.0, a
12.0, 6.0, 13.0, 6.0, a
12.0, 7.0, 12.0, 8.0, a
12.0, 7.0, 13.0, 7.0, a
12.0, 8.0, 12.0, 9.0, a
12.0, 8.0, 13.0, 8.0, a
12.0, 9.0, 12.0, 10.0, a
12.0, 9.0, 13.0, 9.0, a
12.0, 10.0, 12.0, 11.0, a
12.0, 10.0, 13.0, 10.0, a
12.0, 11.0, 12.0, 12.0, a
12.0, 11.0, 13.0, 11.0, a
12.0, 12.0, 12.0, 13.0, a
12.0, 12.0, 13.0, 12.0, a
12.0, 13.0, 12.0, 14.0, a
12.0, 13.0, 13.0, 13.0, a
12.0, 14.0, 12.0, 15.0, a
12.0, 14.0, 13.0, 14.0, a
12.0, 15.0, 12.0, 16.0, a
12.0, 15.0, 13.0, 15.0, a
12.0, 16.0, 12.0, 17.0, a
12.0, 16.0, 13.0, 16.0, a
12.0, 17.0, 12.0, 18.0, a
12.0, 17.0, 13.0, 17.0, a
12.0, 18.0, 12.0, 19.0, a
12.0, 18.0, 13.0, 18.0, a
12.0, 19.0, 13.0, 19.0, a
13.0, 0.0, 13.0, 1.0, a
13.0, 0.0, 14.0, 0.0, a
13.0, 1.0, 13.0, 2.0, a
13.0, 1.0, 14.0, 1.0, a
13.0, 2.0, 13.0, 3.0, a
13.0, 2.0, 14.0, 2.0, a
13.0, 3.0, 13.0, 4.0, a
13.0, 3.0, 14.0, 3.0, a
13.0, 4.0, 13.0, 5.0, a
13.0, 4.0, 14.0, 4.0, a
13.0, 5.0, 13.0, 6.0, a
13.0, 5.0, 14.0, 5.0, a
13.0, 6.0, 13.0, 7.0, a
13.0, 6.0, 14.0, 6.0, a
13.0, 7.0, 13.0, 8.0, a
13.0, 7.0, 14.0, 7.0, a
13.0, 8.0, 13.0, 9.0, a
13.0, 8.0, 14.0, 8.0, a
13.0, 9.0, 13.0, 10.0, a
13.0, 9.0, 14.0, 9.0, a
13.0, 10.0, 13.0, 11.0, a
13.0, 10.0, 14.0, 10.0, a
13.0, 11.0, 13.0, 12.0, a
13.0, 11.0, 14.0, 11.0, a
13.0, 12.0, 13.0, 13.0, a
13.0, 12.0, 14.0, 12.0, a
13.0, 13.0, 13.0, 14.0, a
13.0, 13.0, 14.0, 13.0, a
13.0, 14.0, 13.0, 15.0, a
13.0, 14.0, 14.0, 14.0, a
13.0, 15.0, 13.0, 16.0, a
13.0, 15.0, 14.0, 15.0, a
13.0, 16.0, 13.0, 17.0, a
13.0, 16.0, 14.0, 16.0, a
13.0, 17.0, 13.0, 18.0, a
13.0, 17.0, 14.0, 17.0, a
13.0, 18.0, 13.0, 19.0, a
13.0, 18.0, 14.0, 18.0, a
13.0, 19.0, 14.0, 19.0, a
14.0, 0.0, 14.0, 1.0, a
14.0, 0.0, 15.0, 0.0, a
14.0, 1.0, 14.0, 2.0, a
14.0, 1.0, 15.0, 1.0, a
14.0, 2.0, 14.0, 3.0, a
14.0, 2.0, 15.0, 2.0, a
14.0, 3.0, 14.0, 4.0, a
14.0, 3.0, 15.0, 3.0, a
14.0, 4.0, 14.0, 5.0, a
14.0, 4.0, 15.0, 4.0, a
14.0, 5.0, 14.0, 6.0, a
14.0, 5.0, 15.0, 5.0, a
14.0, 6.0, 14.0, 7.0, a
14.0, 6.0, 15.0, 6.0, a
14.0, 7.0, 14.0, 8.0, a
14.0, 7.0, 15.0, 7.0, a
14.0, 8.0, 14.0, 9.0, a
14.0, 8.0, 15.0, 8.0, a
14.0, 9.0, 14.0, 10.0, a
14.0, 9.0, 15.0, 9.0, a
14.0, 10.0, 14.0, 11.0, a
14.0, 10.0, 15.0, 10.0, a
14.0, 11.0, 14.0, 12.0, a
14.0, 11.0, 15.0, 11.0, a
14.0, 12.0, 14.0, 13.0, a
14.0, 12.0, 15.0, 12.0, a
14.0, 13.0, 14.0, 14.0, a
14.0, 13.0, 15.0, 13.0, a
14.0, 14.0, 14.0, 15.0, a
14.0, 14.0, 15.0, 14.0, a
14.0, 15.0, 14.0, 16.0, a
14.0, 15.0, 15.0, 15.0, a
14.0, 16.0, 14.0, 17.0, a
14.0, 16.0, 15.0, 16.0, a
14.0, 17.0, 14.0, 18.0, a
14.0, 17.0, 15.0, 17.0, a
14.0, 18.0, 14.0, 19.0, a
14.0, 18.0, 15.0, 18.0, a
14.0, 19.0, 15.0, 19.0, a
15.0, 0.0, 15.0, 1.0, a
15.0, 0.0, 16.0, 0.0, a
15.0, 1.0, 15.0, 2.0, a
15.0, 1.0, 16.0, 1.0, a
15.0, 2.0, 15.0, 3.0, a
15.0, 2.0, 16.0, 2.0, a
15.0, 3.0, 15.0, 4.0, a
15.0, 3.0, 16.0, 3.0, a
15.0, 4.0, 15.0, 5.0, a
15.0, 4.0, 16.0, 4.0, a
15.0, 5.0, 15.0, 6.0, a
15.0, 5.0, 16.0, 5.0, a
15.0, 6.0, 15.0, 7.0, a
15.0, 6.0, 16.0, 6.0, a
15.0, 7.0, 15.0, 8.0, a
15.0, 7.0, 16.0, 7.0, a
15.0, 8.0, 15.0, 9.0, a
15.0, 8.0, 16.0, 8.0, a
15.0, 9.0, 15.0, 10.0, a
15.0, 9.0, 16.0, 9.0, a
15.0, 10.0, 15.0, 11.0, a
15.0, 10.0, 16.0, 10.0, a
15.0, 11.0, 15.0, 12.0, a
15.0, 11.0, 16.0, 11.0, a
15.0, 12.0, 15.0, 13.0, a
15.0, 12.0, 16.0, 12.0, a
15.0, 13.0, 15.0, 14.0, a
15.0, 13.0, 16.0, 13.0, a
15.0, 14.0, 15.0, 15.0, a
15.0, 14.0, 16.0, 14.0, a
15.0, 15.0, 15.0, 16.0, a
15.0, 15.0, 16.0, 15.0, a
15.0, 16.0, 15.0, 17.0, a
15.0, 16.0, 16.0, 16.0, a
15.0, 17.0, 15.0, 18.0, a
15.0, 17.0, 16.0, 17.0, a
15.0, 18.0, 15.0, 19.0, a
15.0, 18.0, 16.0, 18.0, a
15.0, 19.0, 16.0, 19.0, a
16.0, 0.0, 16.0, 1.0, a
16.0, 0.0, 17.0, 0.0, a
16.0, 1.0, 16.0, 2.0, a
16.0, 1.0, 17.0, 1.0, a
16.0, 2.0, 16.0, 3.0, a
16.0, 2.0, 17.0, 2.0, a
16.0, 3.0, 16.0, 4.0, a
16.0, 3.0, 17.0, 3.0, a
16.0, 4.0, 16.0, 5.0, a
16.0, 4.0, 17.0, 4.0, a
16.0, 5.0, 16.0, 6.0, a
16.0, 5.0, 17.0, 5.0, a
16.0, 6.0, 16.0, 7.0, a
16.0, 6.0, 17.0, 6.0, a
16.0, 7.0, 16.0, 8.0, a
16.0, 7.0, 17.0, 7.0, a
16.0, 8.0, 16.0, 9.0, a
16.0, 8.0, 17.0, 8.0, a
16.0, 9.0, 16.0, 10.0, a
16.0, 9.0, 17.0, 9.0, a
16.0, 10.0, 16.0, 11.0, a
16.0, 10.0, 17.0, 10.0, a
16.0, 11.0, 16.0, 12.0, a
16.0, 11.0, 17.0, 11.0, a
16.0, 12.0, 16.0, 13.0, a
16.0, 12.0, 17.0, 12.0, a
16.0, 13.0, 16.0, 14.0, a
16.0, 13.0, 17.0, 13.0, a
16.0, 14.0, 16.0, 15.0, a
16.0, 14.0, 17.0, 14.0, a
16.0, 15.0, 16.0, 16.0, a
16.0, 15.0, 17.0, 15.0, a
16.0, 16.0, 16.0, 17.0, a
16.0, 16.0, 17.0, 16.0, a
16.0, 17.0, 16.0, 18.0, a
16.0, 17.0, 17.0, 17.0, a
16.0, 18.0, 16.0, 19.0, a
16.0, 18.0, 17.0, 18.0, a
16.0, 19.0, 17.0, 19.0, a
17.0, 0.0, 17.0, 1.0, a
17.0, 0.0, 18.0, 0.0, a
17.0, 1.0, 17.0, 2.0, a
17.0, 1.0, 18.0, 1.0, a
17.0, 2.0, 17.0, 3.0, a
17.0, 2.0, 18.0, 2.0, a
17.0, 3.0, 17.0, 4.0, a
17.0, 3.0, 18.0, 3.0, a
17.0, 4.0, 17.0, 5.0, a
17.0, 4.0, 18.0, 4.0, a
17.0, 5.0, 17.0, 6.0, a
17.0, 5.0, 18.0, 5.0, a
17.0, 6.0, 17.0, 7.0, a
17.0, 6.0, 18.0, 6.0, a
17.0, 7.0, 17.0, 8.0, a
17.0, 7.0, 18.0, 7.0, a
17.0, 8.0, 17.0, 9.0, a
17.0, 8.0, 18.0, 8.0, a
17.0, 9.0, 17.0, 10.0, a
17.0, 9.0, 18.0, 9.0, a
17.0, 10.0, 17.0, 11.0, a
17.0, 10.0, 18.0, 10.0, a
17.0, 11.0, 17.0, 12.0, a
17.0, 11.0, 18.0, 11.0, a
17.0, 12.0, 17.0, 13.0, a
17.0, 12.0, 18.0, 12.0, a
17.0, 13.0, 17.0, 14.0, a
17.0, 13.0, 18.0, 13.0, a
17.0, 14.0, 17.0, 15.0, a
17.0, 14.0, 18.0, 14.0, a
17.0, 15.0, 17.0, 16.0, a
17.0, 15.0, 18.0, 15.0, a
17.0, 16.0, 17.0, 17.0, a
17.0, 16.0, 18.0, 16.0, a
17.0, 17.0, 17.0, 18.0, a
17.0, 17.0, 18.0, 17.0, a
17.0, 18.0, 17.0, 19.0, a
17.0, 18.0, 18.0, 18.0, a
17.0, 19.0, 18.0, 19.0, a
18.0, 0.0, 18.0, 1.0, a
18.0, 0.0, 19.0, 0.0, a
18.0, 1.0, 18.0, 2.0, a
18.0, 1.0, 19.0, 1.0, a
18.0, 2.0, 18.0, 3.0, a
18.0, 2.0, 19.0, 2.0, a
18.0, 3.0, 18.0, 4.0, a
18.0, 3.0, 19.0, 3.0, a
18.0, 4.0, 18.0, 5.0, a
18.0, 4.0, 19.0, 4.0, a
18.0, 5.0, 18.0, 6.0, a
18.0, 5.0, 19.0, 5.0, a
18.0, 6.0, 18.0, 7.0, a
18.0, 6.0, 19.0, 6.0, a
18.0, 7.0, 18.0, 8.0, a
18.0, 7.0, 19.0, 7.0, a
18.0, 8.0, 18.0, 9.0, a
18.0, 8.0, 19.0, 8.0, a
18.0, 9.0, 18.0, 10.0, a
18.0, 9.0, 19.0, 9.0, a
18.0, 10.0, 18.0, 11.0, a
18.0, 10.0, 19.0, 10.0, a
18.0, 11.0, 18.0, 12.0, a
18.0, 11.0, 19.0, 11.0, a
18.0, 12.0, 18.0, 13.0, a
18.0, 12.0, 19.0, 12.0, a
18.0, 13.0, 18.0, 14.0, a
18.0, 13.0, 19.0, 13.0, a
18.0, 14.0, 18.0, 15.0, a
18.0, 14.0, 19.0, 14.0, a
18.0, 15.0, 18.0, 16.0, a
18.0, 15.0, 19.0, 15.0, a
18.0, 16.0, 18.0, 17.0, a
18.0, 16.0, 19.0, 16.0, a
18.0, 17.0, 18.0, 18.0, a
18.0, 17.0, 19.0, 17.0, a
18.0, 18.0, 18.0, 19.0, a
18.0, 18.0, 19.0, 18.0, a
18.0, 19.0, 19.0, 19.0, a
19.0, 0.0, 19.0, 1.0, a
19.0, 1.0, 19.0, 2.0, a
19.0, 2.0, 19.0, 3.0, a
19.0, 3.0, 19.0, 4.0, a
19.0, 4.0, 19.0, 5.0, a
19.0, 5.0, 19.0, 6.0, a
19.0, 6.0, 19.0, 7.0, a
19.0, 7.0, 19.0, 8.0, a
19.0, 8.0, 19.0, 9.0, a
19.0, 9.0, 19.0, 10.0, a
19.0, 10.0, 19.0, 11.0, a
19.0, 11.0, 19.0, 12.0, a
19.0, 12.0, 19.0, 13.0, a
19.0, 13.0, 19.0, 14.0, a
19.0, 14.0, 19.0, 15.0, a
19.0, 15.0, 19.0, 16.0, a
19.0, 16.0, 19.0, 17.0, a
19.0, 17.0, 19.0, 18.0, a
19.0, 18.0, 19.0, 19.0, a
